EESchema Schematic File Version 4
EELAYER 30 0
EELAYER END
$Descr USLetter 11000 8500
encoding utf-8
Sheet 1 1
Title "Puente de diodos & Fuse, SW"
Date "2020-09-17"
Rev "01"
Comp "Pavel E. Vázquez Martínez"
Comment1 "pavel_e@riseup.net"
Comment2 ""
Comment3 ""
Comment4 ""
$EndDescr
$Comp
L Device:D D1
U 1 1 5D70FFEA
P 6400 3600
F 0 "D1" H 6400 3816 50  0000 C CNN
F 1 "1N4007" H 6400 3725 50  0000 C CNN
F 2 "Diode_THT:D_DO-41_SOD81_P7.62mm_Horizontal" H 6400 3600 50  0001 C CNN
F 3 "~" H 6400 3600 50  0001 C CNN
	1    6400 3600
	-1   0    0    -1  
$EndComp
$Comp
L Device:D D2
U 1 1 5D710402
P 6400 3900
F 0 "D2" H 6400 4116 50  0000 C CNN
F 1 "1N4007" H 6400 4025 50  0000 C CNN
F 2 "Diode_THT:D_DO-41_SOD81_P7.62mm_Horizontal" H 6400 3900 50  0001 C CNN
F 3 "~" H 6400 3900 50  0001 C CNN
	1    6400 3900
	1    0    0    -1  
$EndComp
$Comp
L Device:D D3
U 1 1 5D7108AB
P 6400 4200
F 0 "D3" H 6400 4416 50  0000 C CNN
F 1 "1N4007" H 6400 4325 50  0000 C CNN
F 2 "Diode_THT:D_DO-41_SOD81_P7.62mm_Horizontal" H 6400 4200 50  0001 C CNN
F 3 "~" H 6400 4200 50  0001 C CNN
	1    6400 4200
	1    0    0    -1  
$EndComp
$Comp
L Device:D D4
U 1 1 5D710A25
P 6400 4500
F 0 "D4" H 6400 4716 50  0000 C CNN
F 1 "1N4007" H 6400 4625 50  0000 C CNN
F 2 "Diode_THT:D_DO-41_SOD81_P7.62mm_Horizontal" H 6400 4500 50  0001 C CNN
F 3 "~" H 6400 4500 50  0001 C CNN
	1    6400 4500
	-1   0    0    -1  
$EndComp
$Comp
L Device:Fuse F1
U 1 1 5D711870
P 4450 3500
F 0 "F1" V 4253 3500 50  0000 C CNN
F 1 "250V/1A" V 4344 3500 50  0000 C CNN
F 2 "TerminalBlock_MetzConnect:TerminalBlock_MetzConnect_Type094_RT03502HBLU_1x02_P5.00mm_Horizontal" V 4380 3500 50  0001 C CNN
F 3 "~" H 4450 3500 50  0001 C CNN
	1    4450 3500
	0    -1   1    0   
$EndComp
$Comp
L Switch:SW_SPST SW1
U 1 1 5D7123F2
P 4050 3500
F 0 "SW1" H 4050 3735 50  0000 C CNN
F 1 "SW" H 4050 3644 50  0000 C CNN
F 2 "TerminalBlock_MetzConnect:TerminalBlock_MetzConnect_Type094_RT03502HBLU_1x02_P5.00mm_Horizontal" H 4050 3500 50  0001 C CNN
F 3 "~" H 4050 3500 50  0001 C CNN
	1    4050 3500
	1    0    0    -1  
$EndComp
$Comp
L power:GNDPWR #PWR02
U 1 1 5D71B2BE
P 3550 4000
F 0 "#PWR02" H 3550 3800 50  0001 C CNN
F 1 "GNDPWR" H 3554 3846 50  0000 C CNN
F 2 "" H 3550 3950 50  0001 C CNN
F 3 "" H 3550 3950 50  0001 C CNN
	1    3550 4000
	1    0    0    -1  
$EndComp
Wire Wire Line
	3550 3700 3550 4000
Wire Wire Line
	4250 3500 4300 3500
$Comp
L power:GNDPWR #PWR04
U 1 1 5D71F9C7
P 4600 4000
F 0 "#PWR04" H 4600 3800 50  0001 C CNN
F 1 "GNDPWR" H 4604 3846 50  0000 C CNN
F 2 "" H 4600 3950 50  0001 C CNN
F 3 "" H 4600 3950 50  0001 C CNN
	1    4600 4000
	1    0    0    -1  
$EndComp
Wire Wire Line
	6250 3600 6050 3600
Wire Wire Line
	6050 3900 6250 3900
Wire Wire Line
	6250 4200 6050 4200
Wire Wire Line
	6050 4500 6250 4500
Text Notes 5950 3800 0    50   ~ 0
AC
Text Notes 5950 4400 0    50   ~ 0
AC
Wire Wire Line
	6550 3600 6900 3600
Wire Wire Line
	6900 3600 6900 4500
Wire Wire Line
	6900 4500 6550 4500
Wire Wire Line
	6550 3900 6550 4050
$Comp
L power:GND #PWR08
U 1 1 5D734D51
P 6700 4300
F 0 "#PWR08" H 6700 4050 50  0001 C CNN
F 1 "GND" H 6705 4127 50  0000 C CNN
F 2 "" H 6700 4300 50  0001 C CNN
F 3 "" H 6700 4300 50  0001 C CNN
	1    6700 4300
	1    0    0    -1  
$EndComp
Wire Wire Line
	6550 4050 6700 4050
Wire Wire Line
	6700 4050 6700 4300
Connection ~ 6550 4050
Wire Wire Line
	6550 4050 6550 4200
Wire Wire Line
	8650 3700 8550 3700
$Comp
L power:PWR_FLAG #FLG03
U 1 1 5D74E388
P 2800 3800
F 0 "#FLG03" H 2800 3875 50  0001 C CNN
F 1 "PWR_FLAG" H 2800 3973 50  0000 C CNN
F 2 "" H 2800 3800 50  0001 C CNN
F 3 "~" H 2800 3800 50  0001 C CNN
	1    2800 3800
	1    0    0    -1  
$EndComp
$Comp
L power:GND #PWR07
U 1 1 5D74EC2C
P 2800 4000
F 0 "#PWR07" H 2800 3750 50  0001 C CNN
F 1 "GND" H 2805 3827 50  0000 C CNN
F 2 "" H 2800 4000 50  0001 C CNN
F 3 "" H 2800 4000 50  0001 C CNN
	1    2800 4000
	1    0    0    -1  
$EndComp
Wire Wire Line
	2800 4000 2800 3800
$Comp
L Connector_Generic:Conn_01x02 J2
U 1 1 5D75DA47
P 4800 3600
F 0 "J2" H 4880 3592 50  0000 L CNN
F 1 "Primario" H 4880 3501 50  0000 L CNN
F 2 "TerminalBlock_MetzConnect:TerminalBlock_MetzConnect_Type094_RT03502HBLU_1x02_P5.00mm_Horizontal" H 4800 3600 50  0001 C CNN
F 3 "~" H 4800 3600 50  0001 C CNN
	1    4800 3600
	1    0    0    -1  
$EndComp
Wire Wire Line
	4600 3600 4600 3500
Wire Wire Line
	4600 3700 4600 4000
$Comp
L power:GND #PWR0101
U 1 1 5D713FF6
P 8550 4300
F 0 "#PWR0101" H 8550 4050 50  0001 C CNN
F 1 "GND" H 8555 4127 50  0000 C CNN
F 2 "" H 8550 4300 50  0001 C CNN
F 3 "" H 8550 4300 50  0001 C CNN
	1    8550 4300
	1    0    0    -1  
$EndComp
$Comp
L Connector_Generic:Conn_01x02 J1
U 1 1 5D71CCC9
P 3350 3700
F 0 "J1" H 3268 3917 50  0000 C CNN
F 1 "AC IN" H 3268 3826 50  0000 C CNN
F 2 "TerminalBlock_MetzConnect:TerminalBlock_MetzConnect_Type094_RT03502HBLU_1x02_P5.00mm_Horizontal" H 3350 3700 50  0001 C CNN
F 3 "~" H 3350 3700 50  0001 C CNN
	1    3350 3700
	-1   0    0    1   
$EndComp
$Comp
L Connector_Generic:Conn_01x02 J3
U 1 1 5D762DBA
P 5450 4050
F 0 "J3" H 5368 4267 50  0000 C CNN
F 1 "Secundario" H 5368 4176 50  0000 C CNN
F 2 "TerminalBlock_MetzConnect:TerminalBlock_MetzConnect_Type094_RT03502HBLU_1x02_P5.00mm_Horizontal" H 5450 4050 50  0001 C CNN
F 3 "~" H 5450 4050 50  0001 C CNN
	1    5450 4050
	-1   0    0    1   
$EndComp
Wire Wire Line
	3850 3500 3550 3500
Wire Wire Line
	3550 3500 3550 3600
Wire Wire Line
	8550 3700 8550 4300
Wire Wire Line
	2350 3800 2350 4000
$Comp
L power:GNDPWR #PWR06
U 1 1 5D74E605
P 2350 4000
F 0 "#PWR06" H 2350 3800 50  0001 C CNN
F 1 "GNDPWR" H 2354 3846 50  0000 C CNN
F 2 "" H 2350 3950 50  0001 C CNN
F 3 "" H 2350 3950 50  0001 C CNN
	1    2350 4000
	1    0    0    -1  
$EndComp
$Comp
L power:PWR_FLAG #FLG02
U 1 1 5D74E12E
P 2350 3800
F 0 "#FLG02" H 2350 3875 50  0001 C CNN
F 1 "PWR_FLAG" H 2350 3973 50  0000 C CNN
F 2 "" H 2350 3800 50  0001 C CNN
F 3 "~" H 2350 3800 50  0001 C CNN
	1    2350 3800
	1    0    0    -1  
$EndComp
Wire Wire Line
	6050 3600 6050 3900
Wire Wire Line
	6050 4200 6050 4500
Wire Wire Line
	5650 3950 5650 3900
Wire Wire Line
	5650 4050 5650 4200
Wire Wire Line
	5650 4200 6050 4200
Connection ~ 6050 4200
Connection ~ 6050 3900
Wire Wire Line
	5650 3900 6050 3900
Wire Notes Line
	2000 3200 2000 4600
Wire Notes Line
	2000 3200 9100 3200
$Comp
L Connector_Generic:Conn_01x02 J4
U 1 1 5D739984
P 8850 3600
F 0 "J4" H 8930 3592 50  0000 L CNN
F 1 "VCD" H 8930 3501 50  0000 L CNN
F 2 "TerminalBlock_MetzConnect:TerminalBlock_MetzConnect_Type094_RT03502HBLU_1x02_P5.00mm_Horizontal" H 8850 3600 50  0001 C CNN
F 3 "~" H 8850 3600 50  0001 C CNN
	1    8850 3600
	1    0    0    -1  
$EndComp
Wire Wire Line
	7900 3600 8650 3600
Connection ~ 7900 3600
Wire Wire Line
	7900 4300 7900 4150
$Comp
L power:GND #PWR010
U 1 1 5D725DCF
P 7900 4300
F 0 "#PWR010" H 7900 4050 50  0001 C CNN
F 1 "GND" H 7905 4127 50  0000 C CNN
F 2 "" H 7900 4300 50  0001 C CNN
F 3 "" H 7900 4300 50  0001 C CNN
	1    7900 4300
	1    0    0    -1  
$EndComp
Wire Wire Line
	7500 4150 7500 4300
$Comp
L power:GND #PWR09
U 1 1 5D72590E
P 7500 4300
F 0 "#PWR09" H 7500 4050 50  0001 C CNN
F 1 "GND" H 7505 4127 50  0000 C CNN
F 2 "" H 7500 4300 50  0001 C CNN
F 3 "" H 7500 4300 50  0001 C CNN
	1    7500 4300
	1    0    0    -1  
$EndComp
Wire Wire Line
	7500 3850 7500 3600
Wire Wire Line
	7900 3600 7500 3600
Wire Wire Line
	7900 3850 7900 3600
$Comp
L Device:CP C2
U 1 1 5D71121C
P 7900 4000
F 0 "C2" H 8018 4046 50  0000 L CNN
F 1 "1000uF" H 8018 3955 50  0000 L CNN
F 2 "Capacitor_THT:CP_Radial_D10.0mm_P5.00mm" H 7938 3850 50  0001 C CNN
F 3 "~" H 7900 4000 50  0001 C CNN
	1    7900 4000
	1    0    0    -1  
$EndComp
$Comp
L Device:CP C1
U 1 1 5D710D94
P 7500 4000
F 0 "C1" H 7618 4046 50  0000 L CNN
F 1 "1000uF" H 7618 3955 50  0000 L CNN
F 2 "Capacitor_THT:CP_Radial_D10.0mm_P5.00mm" H 7538 3850 50  0001 C CNN
F 3 "~" H 7500 4000 50  0001 C CNN
	1    7500 4000
	1    0    0    -1  
$EndComp
Connection ~ 6900 3600
Wire Wire Line
	6900 3600 7500 3600
Connection ~ 7500 3600
Wire Notes Line
	7200 3200 7200 4600
Wire Notes Line
	2000 4600 9100 4600
Wire Notes Line
	8350 3200 8350 4600
Wire Notes Line
	5900 3200 5900 4600
Text Notes 3850 3100 0    79   ~ 0
AC, SW, FUSE,\nPRIMARIO
Text Notes 5250 3050 0    79   ~ 0
Secundario
Text Notes 6200 3100 0    79   ~ 0
Puente de\nDiodos
Text Notes 7550 3000 0    79   ~ 0
Filtro
Text Notes 8500 3050 0    79   ~ 0
Voltaje\nPulsante
Text Notes 3800 4850 0    79   ~ 0
Tarjeta 1
Text Notes 7000 4850 0    79   ~ 0
Tarjeta 2
Wire Notes Line
	5250 3200 5250 4950
Wire Notes Line
	3200 3200 3200 4950
Wire Notes Line
	9100 3200 9100 4950
Wire Notes Line
	3200 4950 9100 4950
$EndSCHEMATC
