EESchema Schematic File Version 4
EELAYER 30 0
EELAYER END
$Descr USLetter 11000 8500
encoding utf-8
Sheet 1 1
Title "Regulador de voltaje  78xx"
Date "2020-09-16"
Rev "01"
Comp "Pavel Vazquez Mtz"
Comment1 "pavel_e@riseup.net"
Comment2 ""
Comment3 ""
Comment4 ""
$EndDescr
$Comp
L Device:C C1
U 1 1 5D6F3BA4
P 4550 3250
F 0 "C1" H 4665 3296 50  0000 L CNN
F 1 "0.22u" H 4665 3205 50  0000 L CNN
F 2 "Capacitor_THT:C_Rect_L4.0mm_W2.5mm_P2.50mm" H 4588 3100 50  0001 C CNN
F 3 "~" H 4550 3250 50  0001 C CNN
	1    4550 3250
	1    0    0    -1  
$EndComp
Wire Wire Line
	4650 2850 4550 2850
Wire Wire Line
	4550 2850 4550 3100
$Comp
L power:GND #PWR05
U 1 1 5D6F60AD
P 5450 3750
F 0 "#PWR05" H 5450 3500 50  0001 C CNN
F 1 "GND" H 5455 3577 50  0000 C CNN
F 2 "" H 5450 3750 50  0001 C CNN
F 3 "" H 5450 3750 50  0001 C CNN
	1    5450 3750
	1    0    0    -1  
$EndComp
$Comp
L power:GND #PWR02
U 1 1 5D6F640D
P 4550 3750
F 0 "#PWR02" H 4550 3500 50  0001 C CNN
F 1 "GND" H 4555 3577 50  0000 C CNN
F 2 "" H 4550 3750 50  0001 C CNN
F 3 "" H 4550 3750 50  0001 C CNN
	1    4550 3750
	1    0    0    -1  
$EndComp
$Comp
L power:GND #PWR08
U 1 1 5D6F657C
P 6200 3750
F 0 "#PWR08" H 6200 3500 50  0001 C CNN
F 1 "GND" H 6205 3577 50  0000 C CNN
F 2 "" H 6200 3750 50  0001 C CNN
F 3 "" H 6200 3750 50  0001 C CNN
	1    6200 3750
	1    0    0    -1  
$EndComp
Wire Wire Line
	4550 3400 4550 3750
$Comp
L Connector_Generic:Conn_01x02 J2
U 1 1 5D7015D3
P 6000 5200
F 0 "J2" H 6080 5192 50  0000 L CNN
F 1 "Vo" H 6080 5101 50  0000 L CNN
F 2 "TerminalBlock_MetzConnect:TerminalBlock_MetzConnect_Type094_RT03502HBLU_1x02_P5.00mm_Horizontal" H 6000 5200 50  0001 C CNN
F 3 "~" H 6000 5200 50  0001 C CNN
	1    6000 5200
	1    0    0    -1  
$EndComp
$Comp
L power:PWR_FLAG #FLG01
U 1 1 5D705181
P 7050 4450
F 0 "#FLG01" H 7050 4525 50  0001 C CNN
F 1 "PWR_FLAG" H 7050 4623 50  0000 C CNN
F 2 "" H 7050 4450 50  0001 C CNN
F 3 "~" H 7050 4450 50  0001 C CNN
	1    7050 4450
	1    0    0    -1  
$EndComp
$Comp
L power:GND #PWR09
U 1 1 5D70596A
P 7050 4650
F 0 "#PWR09" H 7050 4400 50  0001 C CNN
F 1 "GND" H 7055 4477 50  0000 C CNN
F 2 "" H 7050 4650 50  0001 C CNN
F 3 "" H 7050 4650 50  0001 C CNN
	1    7050 4650
	1    0    0    -1  
$EndComp
Wire Wire Line
	7050 4450 7050 4650
$Comp
L power:PWR_FLAG #FLG02
U 1 1 5D709323
P 7050 5300
F 0 "#FLG02" H 7050 5375 50  0001 C CNN
F 1 "PWR_FLAG" H 7050 5473 50  0000 C CNN
F 2 "" H 7050 5300 50  0001 C CNN
F 3 "~" H 7050 5300 50  0001 C CNN
	1    7050 5300
	1    0    0    -1  
$EndComp
Wire Wire Line
	7050 5500 7050 5300
$Comp
L Connector_Generic:Conn_01x02 J1
U 1 1 5D708AB2
P 4300 5100
F 0 "J1" H 4218 5317 50  0000 C CNN
F 1 "Vi" H 4218 5226 50  0000 C CNN
F 2 "TerminalBlock_MetzConnect:TerminalBlock_MetzConnect_Type094_RT03502HBLU_1x02_P5.00mm_Horizontal" H 4300 5100 50  0001 C CNN
F 3 "~" H 4300 5100 50  0001 C CNN
	1    4300 5100
	-1   0    0    -1  
$EndComp
$Comp
L Regulator_Linear:LM78M05_TO220 U1
U 1 1 5D7184D4
P 4950 2850
F 0 "U1" H 4950 3092 50  0000 C CNN
F 1 "LM78XX" H 4950 3001 50  0000 C CNN
F 2 "Package_TO_SOT_THT:TO-220-3_Vertical" H 4950 3075 50  0001 C CIN
F 3 "http://www.fairchildsemi.com/ds/LM/LM78M05.pdf" H 4950 2800 50  0001 C CNN
	1    4950 2850
	1    0    0    -1  
$EndComp
$Comp
L Device:R R1
U 1 1 5D6F4FB8
P 5450 3150
F 0 "R1" H 5520 3196 50  0000 L CNN
F 1 "R" H 5520 3105 50  0000 L CNN
F 2 "Resistor_THT:R_Axial_DIN0204_L3.6mm_D1.6mm_P1.90mm_Vertical" V 5380 3150 50  0001 C CNN
F 3 "~" H 5450 3150 50  0001 C CNN
	1    5450 3150
	1    0    0    -1  
$EndComp
$Comp
L Device:CP C3
U 1 1 5D6F3F40
P 6200 3150
F 0 "C3" H 6318 3196 50  0000 L CNN
F 1 "10uf" H 6318 3105 50  0000 L CNN
F 2 "Capacitor_THT:CP_Radial_D5.0mm_P2.00mm" H 6238 3000 50  0001 C CNN
F 3 "~" H 6200 3150 50  0001 C CNN
	1    6200 3150
	1    0    0    -1  
$EndComp
$Comp
L Device:C C2
U 1 1 5D71B17C
P 5800 3150
F 0 "C2" H 5915 3196 50  0000 L CNN
F 1 "0.1u" H 5915 3105 50  0000 L CNN
F 2 "Capacitor_THT:C_Rect_L4.0mm_W2.5mm_P2.50mm" H 5838 3000 50  0001 C CNN
F 3 "~" H 5800 3150 50  0001 C CNN
	1    5800 3150
	1    0    0    -1  
$EndComp
Wire Wire Line
	5250 2850 5450 2850
Wire Wire Line
	6200 3000 6200 2850
Wire Wire Line
	5800 2850 5800 3000
Connection ~ 5800 2850
Wire Wire Line
	5800 2850 6200 2850
Wire Wire Line
	5450 3000 5450 2850
Connection ~ 5450 2850
Wire Wire Line
	5450 2850 5800 2850
$Comp
L power:GND #PWR04
U 1 1 5D729594
P 4950 3750
F 0 "#PWR04" H 4950 3500 50  0001 C CNN
F 1 "GND" H 4955 3577 50  0000 C CNN
F 2 "" H 4950 3750 50  0001 C CNN
F 3 "" H 4950 3750 50  0001 C CNN
	1    4950 3750
	1    0    0    -1  
$EndComp
$Comp
L power:GND #PWR07
U 1 1 5D72D25D
P 5800 3750
F 0 "#PWR07" H 5800 3500 50  0001 C CNN
F 1 "GND" H 5805 3577 50  0000 C CNN
F 2 "" H 5800 3750 50  0001 C CNN
F 3 "" H 5800 3750 50  0001 C CNN
	1    5800 3750
	1    0    0    -1  
$EndComp
Wire Wire Line
	4950 3150 4950 3750
Wire Wire Line
	5800 3750 5800 3300
Wire Wire Line
	6200 3300 6200 3750
$Comp
L Device:LED D2
U 1 1 5D72F231
P 5450 3500
F 0 "D2" V 5489 3383 50  0000 R CNN
F 1 "LED" V 5398 3383 50  0000 R CNN
F 2 "LED_THT:LED_D3.0mm" H 5450 3500 50  0001 C CNN
F 3 "~" H 5450 3500 50  0001 C CNN
	1    5450 3500
	0    -1   -1   0   
$EndComp
Wire Wire Line
	5450 3350 5450 3300
Wire Wire Line
	5450 3650 5450 3750
$Comp
L power:+VDC #PWR01
U 1 1 5D739169
P 4550 2850
F 0 "#PWR01" H 4550 2750 50  0001 C CNN
F 1 "+VDC" H 4550 3125 50  0000 C CNN
F 2 "" H 4550 2850 50  0001 C CNN
F 3 "" H 4550 2850 50  0001 C CNN
	1    4550 2850
	1    0    0    -1  
$EndComp
$Comp
L power:+VDC #PWR010
U 1 1 5D73977E
P 7050 5500
F 0 "#PWR010" H 7050 5400 50  0001 C CNN
F 1 "+VDC" H 7050 5775 50  0000 C CNN
F 2 "" H 7050 5500 50  0001 C CNN
F 3 "" H 7050 5500 50  0001 C CNN
	1    7050 5500
	-1   0    0    1   
$EndComp
$Comp
L power:GND #PWR03
U 1 1 5D73B923
P 4600 5250
F 0 "#PWR03" H 4600 5000 50  0001 C CNN
F 1 "GND" H 4605 5077 50  0000 C CNN
F 2 "" H 4600 5250 50  0001 C CNN
F 3 "" H 4600 5250 50  0001 C CNN
	1    4600 5250
	1    0    0    -1  
$EndComp
Wire Wire Line
	4600 5250 4600 5200
Wire Wire Line
	4600 5200 4500 5200
$Comp
L power:GND #PWR06
U 1 1 5D74D3AE
P 5750 5350
F 0 "#PWR06" H 5750 5100 50  0001 C CNN
F 1 "GND" H 5755 5177 50  0000 C CNN
F 2 "" H 5750 5350 50  0001 C CNN
F 3 "" H 5750 5350 50  0001 C CNN
	1    5750 5350
	1    0    0    -1  
$EndComp
Wire Wire Line
	5750 5350 5750 5300
Wire Wire Line
	5750 5300 5800 5300
Wire Notes Line
	6550 2500 6550 6000
Wire Notes Line
	3850 2500 3850 6000
Text Notes 4850 4650 2    79   ~ 0
Vin Máximo\n35 VDC
Text Notes 5300 4950 0    79   ~ 0
Vout\nVoltaje de salida\nacorde al regulador\nseleccionado
Wire Notes Line
	5250 4050 5250 6000
Text Notes 3850 2100 0    79   ~ 0
Circuito regulador de voltaje.\nSe alimenta con máxmo 30 VCD.\nEl volaje de salida depende del regulador seleccionado:\n* 7805 = 5 V\n* 7809 = 9 V\n* 7812 = 12V
Text Notes 6800 2700 0    50   ~ 0
Cálculo de R
Text Notes 6700 3100 0    50   ~ 0
Para  5V\nR = (5 - 1.8) / 0.02\nR= 150 Ohm
Text Notes 6700 3450 0    50   ~ 0
Para  9V\nR = (9 - 1.8) / 0.02\nR= 360 Ohm
Text Notes 6700 3900 0    50   ~ 0
Para  12 V\nR = (12 - 1.8) / 0.02\nR= 510 Ohm
Wire Notes Line
	7650 2500 7650 6000
Wire Notes Line
	3850 2500 7650 2500
Wire Notes Line
	3850 6000 7650 6000
Wire Notes Line
	3850 4050 7650 4050
$Comp
L Device:D D1
U 1 1 5F8F2840
P 4300 2850
F 0 "D1" H 4300 2633 50  0000 C CNN
F 1 "1n2002" H 4300 2724 50  0000 C CNN
F 2 "Diode_THT:D_5W_P12.70mm_Horizontal" H 4300 2850 50  0001 C CNN
F 3 "~" H 4300 2850 50  0001 C CNN
	1    4300 2850
	-1   0    0    1   
$EndComp
Wire Wire Line
	4450 2850 4550 2850
Connection ~ 4550 2850
Text GLabel 4050 2850 0    50   Input ~ 0
Vin
Text GLabel 4650 5100 2    50   Input ~ 0
Vin
Text GLabel 6300 2850 2    50   Input ~ 0
Vout
Connection ~ 6200 2850
Wire Wire Line
	6200 2850 6300 2850
Text GLabel 5650 5200 0    50   Input ~ 0
Vout
Wire Wire Line
	5800 5200 5650 5200
Wire Wire Line
	4500 5100 4650 5100
Wire Wire Line
	4050 2850 4150 2850
$EndSCHEMATC
