EESchema Schematic File Version 4
EELAYER 30 0
EELAYER END
$Descr USLetter 11000 8500
encoding utf-8
Sheet 1 1
Title ""
Date ""
Rev ""
Comp ""
Comment1 ""
Comment2 ""
Comment3 ""
Comment4 ""
$EndDescr
$Comp
L Device:D_Bridge_+A-A D1
U 1 1 5FA7758E
P 3350 2650
F 0 "D1" H 3694 2696 50  0000 L CNN
F 1 "Bridge" H 3694 2605 50  0000 L CNN
F 2 "Diode_THT:Diode_Bridge_19.0x19.0x6.8mm_P12.7mm" H 3350 2650 50  0001 C CNN
F 3 "~" H 3350 2650 50  0001 C CNN
	1    3350 2650
	1    0    0    -1  
$EndComp
$Comp
L Connector:Screw_Terminal_01x02 J1
U 1 1 5FA79363
P 3550 3650
F 0 "J1" H 3630 3642 50  0000 L CNN
F 1 "12VAC" H 3630 3551 50  0000 L CNN
F 2 "Connector_Molex:Molex_KK-396_A-41791-0002_1x02_P3.96mm_Vertical" H 3550 3650 50  0001 C CNN
F 3 "~" H 3550 3650 50  0001 C CNN
	1    3550 3650
	1    0    0    -1  
$EndComp
$Comp
L power:GND #PWR01
U 1 1 5FA7B5D0
P 2950 2750
F 0 "#PWR01" H 2950 2500 50  0001 C CNN
F 1 "GND" H 2955 2577 50  0000 C CNN
F 2 "" H 2950 2750 50  0001 C CNN
F 3 "" H 2950 2750 50  0001 C CNN
	1    2950 2750
	1    0    0    -1  
$EndComp
Wire Wire Line
	2950 2750 2950 2650
Wire Wire Line
	2950 2650 3050 2650
$Comp
L Device:CP C1
U 1 1 5FA7CCD6
P 4500 2900
F 0 "C1" H 4618 2946 50  0000 L CNN
F 1 "2200" H 4618 2855 50  0000 L CNN
F 2 "Capacitor_THT:CP_Radial_D18.0mm_P7.50mm" H 4538 2750 50  0001 C CNN
F 3 "~" H 4500 2900 50  0001 C CNN
	1    4500 2900
	1    0    0    -1  
$EndComp
$Comp
L Device:CP C2
U 1 1 5FA7D3E9
P 4900 2900
F 0 "C2" H 5018 2946 50  0000 L CNN
F 1 "2200" H 5018 2855 50  0000 L CNN
F 2 "Capacitor_THT:CP_Radial_D18.0mm_P7.50mm" H 4938 2750 50  0001 C CNN
F 3 "~" H 4900 2900 50  0001 C CNN
	1    4900 2900
	1    0    0    -1  
$EndComp
Wire Wire Line
	4900 2650 4900 2750
Wire Wire Line
	4500 2750 4500 2650
Wire Wire Line
	4500 2650 4900 2650
$Comp
L power:GND #PWR02
U 1 1 5FA7E608
P 4500 3150
F 0 "#PWR02" H 4500 2900 50  0001 C CNN
F 1 "GND" H 4505 2977 50  0000 C CNN
F 2 "" H 4500 3150 50  0001 C CNN
F 3 "" H 4500 3150 50  0001 C CNN
	1    4500 3150
	1    0    0    -1  
$EndComp
$Comp
L power:GND #PWR03
U 1 1 5FA7E877
P 4900 3150
F 0 "#PWR03" H 4900 2900 50  0001 C CNN
F 1 "GND" H 4905 2977 50  0000 C CNN
F 2 "" H 4900 3150 50  0001 C CNN
F 3 "" H 4900 3150 50  0001 C CNN
	1    4900 3150
	1    0    0    -1  
$EndComp
Wire Wire Line
	4900 3150 4900 3050
Wire Wire Line
	4500 3050 4500 3150
Wire Wire Line
	4900 2650 5100 2650
Connection ~ 4900 2650
Text GLabel 5100 2650 2    50   Input ~ 0
Vris
$Comp
L Device:R R2
U 1 1 5FA810CE
P 7450 3250
F 0 "R2" H 7520 3296 50  0000 L CNN
F 1 "240" H 7520 3205 50  0000 L CNN
F 2 "Resistor_THT:R_Axial_DIN0207_L6.3mm_D2.5mm_P10.16mm_Horizontal" V 7380 3250 50  0001 C CNN
F 3 "~" H 7450 3250 50  0001 C CNN
	1    7450 3250
	1    0    0    -1  
$EndComp
$Comp
L Device:R_POT RV1
U 1 1 5FA81676
P 6900 3750
F 0 "RV1" H 6830 3796 50  0000 R CNN
F 1 "5k" H 6830 3705 50  0000 R CNN
F 2 "Connector_Molex:Molex_KK-396_A-41791-0003_1x03_P3.96mm_Vertical" H 6900 3750 50  0001 C CNN
F 3 "~" H 6900 3750 50  0001 C CNN
	1    6900 3750
	1    0    0    -1  
$EndComp
Wire Wire Line
	6900 3600 6900 3500
Wire Wire Line
	6900 3500 7450 3500
Wire Wire Line
	7450 3500 7450 3400
Connection ~ 6900 3500
Wire Wire Line
	6900 3500 6900 3300
Wire Wire Line
	7450 3100 7450 3000
Wire Wire Line
	7450 3000 7200 3000
$Comp
L Device:R R1
U 1 1 5FA82174
P 6200 3000
F 0 "R1" V 5993 3000 50  0000 C CNN
F 1 "10" V 6084 3000 50  0000 C CNN
F 2 "Resistor_THT:R_Axial_DIN0207_L6.3mm_D2.5mm_P10.16mm_Horizontal" V 6130 3000 50  0001 C CNN
F 3 "~" H 6200 3000 50  0001 C CNN
	1    6200 3000
	0    1    1    0   
$EndComp
Wire Wire Line
	6350 3000 6400 3000
Text GLabel 5750 3000 0    50   Input ~ 0
Vris
$Comp
L Transistor_BJT:TIP42 Q1
U 1 1 5FA82B76
P 6400 2550
F 0 "Q1" V 6728 2550 50  0000 C CNN
F 1 "TIP42" V 6637 2550 50  0000 C CNN
F 2 "Package_TO_SOT_THT:TO-220-3_Vertical" H 6650 2475 50  0001 L CIN
F 3 "https://www.centralsemi.com/get_document.php?cmp=1&mergetype=pd&mergepath=pd&pdf_id=TIP42.PDF" H 6400 2550 50  0001 L CNN
	1    6400 2550
	0    1    -1   0   
$EndComp
Wire Wire Line
	6400 2750 6400 3000
Connection ~ 6400 3000
Wire Wire Line
	6400 3000 6600 3000
Wire Wire Line
	6200 2450 5900 2450
Wire Wire Line
	5900 2450 5900 3000
Wire Wire Line
	5900 3000 5750 3000
Wire Wire Line
	6050 3000 5900 3000
Connection ~ 5900 3000
Wire Wire Line
	7850 3000 7450 3000
Connection ~ 7450 3000
$Comp
L Diode:1N4007 D2
U 1 1 5FA84F59
P 7850 3300
F 0 "D2" V 7804 3380 50  0000 L CNN
F 1 "1N4007" V 7895 3380 50  0000 L CNN
F 2 "Diode_THT:D_DO-41_SOD81_P10.16mm_Horizontal" H 7850 3125 50  0001 C CNN
F 3 "http://www.vishay.com/docs/88503/1n4001.pdf" H 7850 3300 50  0001 C CNN
	1    7850 3300
	0    1    1    0   
$EndComp
Wire Wire Line
	7850 3150 7850 3000
Connection ~ 7850 3000
Wire Wire Line
	7850 3450 7850 3500
Wire Wire Line
	7850 3500 7450 3500
Connection ~ 7450 3500
Wire Wire Line
	7050 3750 7150 3750
Wire Wire Line
	7150 3750 7150 4000
Wire Wire Line
	7150 4000 6900 4000
Wire Wire Line
	6900 4000 6900 3900
Wire Wire Line
	6900 4000 6900 4100
Connection ~ 6900 4000
$Comp
L power:GND #PWR05
U 1 1 5FA868B4
P 6900 4100
F 0 "#PWR05" H 6900 3850 50  0001 C CNN
F 1 "GND" H 6905 3927 50  0000 C CNN
F 2 "" H 6900 4100 50  0001 C CNN
F 3 "" H 6900 4100 50  0001 C CNN
	1    6900 4100
	1    0    0    -1  
$EndComp
Text GLabel 3350 2950 3    50   Input ~ 0
AC1
$Comp
L Device:CP C3
U 1 1 5FAA1279
P 5900 3650
F 0 "C3" H 6018 3696 50  0000 L CNN
F 1 "10u" H 6018 3605 50  0000 L CNN
F 2 "Capacitor_THT:CP_Radial_D5.0mm_P2.50mm" H 5938 3500 50  0001 C CNN
F 3 "~" H 5900 3650 50  0001 C CNN
	1    5900 3650
	1    0    0    -1  
$EndComp
$Comp
L Device:CP C4
U 1 1 5FAA1723
P 8800 3650
F 0 "C4" H 8918 3696 50  0000 L CNN
F 1 "47u" H 8918 3605 50  0000 L CNN
F 2 "Capacitor_THT:CP_Radial_D5.0mm_P2.50mm" H 8838 3500 50  0001 C CNN
F 3 "~" H 8800 3650 50  0001 C CNN
	1    8800 3650
	1    0    0    -1  
$EndComp
$Comp
L Device:CP C5
U 1 1 5FAA21F2
P 7850 3900
F 0 "C5" H 7968 3946 50  0000 L CNN
F 1 "10u" H 7968 3855 50  0000 L CNN
F 2 "Capacitor_THT:CP_Radial_D5.0mm_P2.50mm" H 7888 3750 50  0001 C CNN
F 3 "~" H 7850 3900 50  0001 C CNN
	1    7850 3900
	1    0    0    -1  
$EndComp
Wire Wire Line
	7850 3750 7850 3500
Connection ~ 7850 3500
$Comp
L power:GND #PWR06
U 1 1 5FAA30E4
P 7850 4100
F 0 "#PWR06" H 7850 3850 50  0001 C CNN
F 1 "GND" H 7855 3927 50  0000 C CNN
F 2 "" H 7850 4100 50  0001 C CNN
F 3 "" H 7850 4100 50  0001 C CNN
	1    7850 4100
	1    0    0    -1  
$EndComp
$Comp
L power:GND #PWR08
U 1 1 5FAA3470
P 8800 4100
F 0 "#PWR08" H 8800 3850 50  0001 C CNN
F 1 "GND" H 8805 3927 50  0000 C CNN
F 2 "" H 8800 4100 50  0001 C CNN
F 3 "" H 8800 4100 50  0001 C CNN
	1    8800 4100
	1    0    0    -1  
$EndComp
$Comp
L power:GND #PWR04
U 1 1 5FAA36E5
P 5900 4100
F 0 "#PWR04" H 5900 3850 50  0001 C CNN
F 1 "GND" H 5905 3927 50  0000 C CNN
F 2 "" H 5900 4100 50  0001 C CNN
F 3 "" H 5900 4100 50  0001 C CNN
	1    5900 4100
	1    0    0    -1  
$EndComp
Wire Wire Line
	5900 4100 5900 3800
Wire Wire Line
	5900 3500 5900 3000
Wire Wire Line
	8800 3000 8800 3500
Wire Wire Line
	8800 3800 8800 4100
Wire Wire Line
	8800 3000 9200 3000
Connection ~ 8800 3000
Text GLabel 9400 3000 2    50   Input ~ 0
Vout
$Comp
L Device:R R4
U 1 1 5FAA82A3
P 4750 3800
F 0 "R4" H 4820 3846 50  0000 L CNN
F 1 "1k" H 4820 3755 50  0000 L CNN
F 2 "Resistor_THT:R_Axial_DIN0207_L6.3mm_D2.5mm_P10.16mm_Horizontal" V 4680 3800 50  0001 C CNN
F 3 "~" H 4750 3800 50  0001 C CNN
	1    4750 3800
	1    0    0    -1  
$EndComp
$Comp
L power:GND #PWR09
U 1 1 5FAA86A4
P 4750 4250
F 0 "#PWR09" H 4750 4000 50  0001 C CNN
F 1 "GND" H 4755 4077 50  0000 C CNN
F 2 "" H 4750 4250 50  0001 C CNN
F 3 "" H 4750 4250 50  0001 C CNN
	1    4750 4250
	1    0    0    -1  
$EndComp
Text GLabel 4750 3650 1    50   Input ~ 0
Vris
Wire Wire Line
	7850 4050 7850 4100
Wire Notes Line
	5500 3400 2700 3400
$Comp
L Device:R R3
U 1 1 5FAD5935
P 8300 3600
F 0 "R3" H 8370 3646 50  0000 L CNN
F 1 "R" H 8370 3555 50  0000 L CNN
F 2 "Resistor_THT:R_Axial_DIN0207_L6.3mm_D2.5mm_P10.16mm_Horizontal" V 8230 3600 50  0001 C CNN
F 3 "~" H 8300 3600 50  0001 C CNN
	1    8300 3600
	1    0    0    -1  
$EndComp
Wire Wire Line
	8300 3450 8300 3000
Connection ~ 8300 3000
Wire Wire Line
	8300 3000 8800 3000
Wire Wire Line
	7850 3000 8300 3000
$Comp
L power:GND #PWR07
U 1 1 5FAD7589
P 8300 4100
F 0 "#PWR07" H 8300 3850 50  0001 C CNN
F 1 "GND" H 8305 3927 50  0000 C CNN
F 2 "" H 8300 4100 50  0001 C CNN
F 3 "" H 8300 4100 50  0001 C CNN
	1    8300 4100
	1    0    0    -1  
$EndComp
Wire Wire Line
	8300 4100 8300 3750
Wire Notes Line
	2700 1800 9350 1800
$Comp
L Diode:DZ2S082X0L D4
U 1 1 5FAF4946
P 7150 5550
F 0 "D4" V 7104 5630 50  0000 L CNN
F 1 "1n5237" V 7195 5630 50  0000 L CNN
F 2 "Diode_THT:D_DO-35_SOD27_P7.62mm_Horizontal" H 7150 5375 50  0001 C CNN
F 3 "https://industrial.panasonic.com/content/data/SC/ds/ds4/DZ2S08200L_E.pdf" H 7150 5550 50  0001 C CNN
	1    7150 5550
	0    1    1    0   
$EndComp
Text GLabel 7900 5100 2    50   Input ~ 0
Vdisplay
Wire Wire Line
	7350 5100 7600 5100
$Comp
L Device:R R5
U 1 1 5FAFFB2A
P 6700 5250
F 0 "R5" H 6770 5296 50  0000 L CNN
F 1 "270" H 6770 5205 50  0000 L CNN
F 2 "Resistor_THT:R_Axial_DIN0207_L6.3mm_D2.5mm_P10.16mm_Horizontal" V 6630 5250 50  0001 C CNN
F 3 "~" H 6700 5250 50  0001 C CNN
	1    6700 5250
	1    0    0    -1  
$EndComp
Wire Wire Line
	6700 5100 6950 5100
Wire Wire Line
	6700 5400 7150 5400
Text Notes 2800 1600 0    50   ~ 0
Fuente Regulada de Voltaje Variable\n12v a 3 A
Text Notes 3050 2100 0    50   ~ 0
Transformador\n120VAC a 12VAC\n3A
Text Notes 4750 2500 0    50   ~ 0
Vris = 12*sqt(2)\nVris = 17 VDC
Text Notes 8450 4900 0    50   ~ 0
Vdisplay = Vd - Vbe\nVdisplay = 8.2 - 0.7\nVdisplay = 7.5 V\n
Text Notes 5850 5650 0    50   ~ 0
Vr = Vris - Vd\nVr = 17 - 8.2\nVr = 8.8 V\n\nIr = Id = 0.03 A \n=>\nR = 8.8 / 0.03\nR = 293 Ohms\n=>\nR = 270 Ohms
$Comp
L power:GND #PWR012
U 1 1 5FB2F770
P 7150 5700
F 0 "#PWR012" H 7150 5450 50  0001 C CNN
F 1 "GND" H 7155 5527 50  0000 C CNN
F 2 "" H 7150 5700 50  0001 C CNN
F 3 "" H 7150 5700 50  0001 C CNN
	1    7150 5700
	1    0    0    -1  
$EndComp
Text GLabel 6700 5100 1    50   Input ~ 0
Vris
Wire Notes Line
	9350 1800 9350 6100
Wire Notes Line
	5500 1800 5500 6100
Text GLabel 3250 4050 0    50   Input ~ 0
Vdisplay
$Comp
L power:GND #PWR010
U 1 1 5FB50FAE
P 3250 4150
F 0 "#PWR010" H 3250 3900 50  0001 C CNN
F 1 "GND" H 3255 3977 50  0000 C CNN
F 2 "" H 3250 4150 50  0001 C CNN
F 3 "" H 3250 4150 50  0001 C CNN
	1    3250 4150
	0    1    1    0   
$EndComp
Wire Notes Line
	2700 1800 2700 6100
Wire Notes Line
	2700 6100 9350 6100
Wire Notes Line
	4150 3400 4150 6100
$Comp
L power:GND #PWR011
U 1 1 5FA90BF5
P 6700 5700
F 0 "#PWR011" H 6700 5450 50  0001 C CNN
F 1 "GND" H 6705 5527 50  0000 C CNN
F 2 "" H 6700 5700 50  0001 C CNN
F 3 "" H 6700 5700 50  0001 C CNN
	1    6700 5700
	1    0    0    -1  
$EndComp
$Comp
L power:PWR_FLAG #FLG01
U 1 1 5FA94E1A
P 4750 5050
F 0 "#FLG01" H 4750 5125 50  0001 C CNN
F 1 "PWR_FLAG" H 4750 5223 50  0000 C CNN
F 2 "" H 4750 5050 50  0001 C CNN
F 3 "~" H 4750 5050 50  0001 C CNN
	1    4750 5050
	1    0    0    -1  
$EndComp
$Comp
L power:GND #PWR013
U 1 1 5FAA4A10
P 4750 5050
F 0 "#PWR013" H 4750 4800 50  0001 C CNN
F 1 "GND" H 4755 4877 50  0000 C CNN
F 2 "" H 4750 5050 50  0001 C CNN
F 3 "" H 4750 5050 50  0001 C CNN
	1    4750 5050
	1    0    0    -1  
$EndComp
$Comp
L Connector:Screw_Terminal_01x02 J5
U 1 1 5FAEBE20
P 3550 4900
F 0 "J5" H 3630 4892 50  0000 L CNN
F 1 "Vout" H 3630 4801 50  0000 L CNN
F 2 "Connector_Molex:Molex_KK-396_A-41791-0002_1x02_P3.96mm_Vertical" H 3550 4900 50  0001 C CNN
F 3 "~" H 3550 4900 50  0001 C CNN
	1    3550 4900
	1    0    0    -1  
$EndComp
Text GLabel 3250 4900 0    50   Input ~ 0
Vout
$Comp
L power:GND #PWR0101
U 1 1 5FAEBE27
P 3350 5000
F 0 "#PWR0101" H 3350 4750 50  0001 C CNN
F 1 "GND" H 3355 4827 50  0000 C CNN
F 2 "" H 3350 5000 50  0001 C CNN
F 3 "" H 3350 5000 50  0001 C CNN
	1    3350 5000
	1    0    0    -1  
$EndComp
$Comp
L power:PWR_FLAG #FLG02
U 1 1 5FAF613A
P 6400 3200
F 0 "#FLG02" H 6400 3275 50  0001 C CNN
F 1 "PWR_FLAG" H 6400 3373 50  0000 C CNN
F 2 "" H 6400 3200 50  0001 C CNN
F 3 "~" H 6400 3200 50  0001 C CNN
	1    6400 3200
	-1   0    0    1   
$EndComp
Wire Wire Line
	6400 3200 6400 3000
$Comp
L Regulator_Linear:LM317_TO-252 U1
U 1 1 5FB301A7
P 6900 3000
F 0 "U1" H 6900 3242 50  0000 C CNN
F 1 "LM317" H 6900 3151 50  0000 C CNN
F 2 "Package_TO_SOT_SMD:TO-252-2" H 6900 3250 50  0001 C CIN
F 3 "http://www.ti.com/lit/ds/snvs774n/snvs774n.pdf" H 6900 3000 50  0001 C CNN
	1    6900 3000
	1    0    0    -1  
$EndComp
Wire Notes Line
	4150 4600 9350 4600
Wire Notes Line
	5500 5350 4150 5350
$Comp
L Mechanical:MountingHole H1
U 1 1 5FB54A4E
P 4450 5600
F 0 "H1" H 4550 5646 50  0000 L CNN
F 1 "M3" H 4550 5555 50  0000 L CNN
F 2 "MountingHole:MountingHole_3.2mm_M3" H 4450 5600 50  0001 C CNN
F 3 "~" H 4450 5600 50  0001 C CNN
	1    4450 5600
	1    0    0    -1  
$EndComp
$Comp
L Mechanical:MountingHole H3
U 1 1 5FB55141
P 4450 5850
F 0 "H3" H 4550 5896 50  0000 L CNN
F 1 "M3" H 4550 5805 50  0000 L CNN
F 2 "MountingHole:MountingHole_3.2mm_M3" H 4450 5850 50  0001 C CNN
F 3 "~" H 4450 5850 50  0001 C CNN
	1    4450 5850
	1    0    0    -1  
$EndComp
$Comp
L Mechanical:MountingHole H2
U 1 1 5FB5EC72
P 5100 5600
F 0 "H2" H 5200 5646 50  0000 L CNN
F 1 "M3" H 5200 5555 50  0000 L CNN
F 2 "MountingHole:MountingHole_3.2mm_M3" H 5100 5600 50  0001 C CNN
F 3 "~" H 5100 5600 50  0001 C CNN
	1    5100 5600
	1    0    0    -1  
$EndComp
$Comp
L Mechanical:MountingHole H4
U 1 1 5FB5EC78
P 5100 5850
F 0 "H4" H 5200 5896 50  0000 L CNN
F 1 "M3" H 5200 5805 50  0000 L CNN
F 2 "MountingHole:MountingHole_3.2mm_M3" H 5100 5850 50  0001 C CNN
F 3 "~" H 5100 5850 50  0001 C CNN
	1    5100 5850
	1    0    0    -1  
$EndComp
$Comp
L Device:LED D3
U 1 1 5FB7E19D
P 4750 4100
F 0 "D3" V 4789 3982 50  0000 R CNN
F 1 "LED" V 4698 3982 50  0000 R CNN
F 2 "Connector_Molex:Molex_KK-254_AE-6410-02A_1x02_P2.54mm_Vertical" H 4750 4100 50  0001 C CNN
F 3 "~" H 4750 4100 50  0001 C CNN
	1    4750 4100
	0    -1   -1   0   
$EndComp
$Comp
L Device:Fuse F1
U 1 1 5FBAE419
P 4050 2650
F 0 "F1" V 3853 2650 50  0000 C CNN
F 1 "Fuse" V 3944 2650 50  0000 C CNN
F 2 "Connector_Molex:Molex_KK-396_A-41791-0002_1x02_P3.96mm_Vertical" V 3980 2650 50  0001 C CNN
F 3 "~" H 4050 2650 50  0001 C CNN
	1    4050 2650
	0    1    1    0   
$EndComp
Wire Wire Line
	4200 2650 4500 2650
Connection ~ 4500 2650
Wire Wire Line
	3900 2650 3650 2650
Text Notes 7950 5400 0    50   ~ 0
+\nV ce = 0.7V\n-
Text Notes 7950 5700 0    50   ~ 0
+\nV d = 8.2 V\n-
Connection ~ 7150 5400
$Comp
L Transistor_BJT:BC547 Q2
U 1 1 5FAF378C
P 7150 5200
F 0 "Q2" V 7478 5200 50  0000 C CNN
F 1 "BC547" V 7387 5200 50  0000 C CNN
F 2 "Package_TO_SOT_THT:TO-92_Inline_Wide" H 7350 5125 50  0001 L CIN
F 3 "http://www.fairchildsemi.com/ds/BC/BC547.pdf" H 7150 5200 50  0001 L CNN
	1    7150 5200
	0    -1   -1   0   
$EndComp
Connection ~ 6700 5400
$Comp
L Device:CP C6
U 1 1 5FA9034B
P 6700 5550
F 0 "C6" H 6818 5596 50  0000 L CNN
F 1 "47u" H 6818 5505 50  0000 L CNN
F 2 "Capacitor_THT:CP_Radial_D5.0mm_P2.50mm" H 6738 5400 50  0001 C CNN
F 3 "~" H 6700 5550 50  0001 C CNN
	1    6700 5550
	1    0    0    -1  
$EndComp
Text GLabel 3350 2350 1    50   Input ~ 0
AC2
Wire Wire Line
	3250 3650 3350 3650
Wire Wire Line
	3250 4050 3350 4050
Wire Wire Line
	3250 4900 3350 4900
$Comp
L Device:C C7
U 1 1 5FAE8DB3
P 9200 3650
F 0 "C7" H 9315 3696 50  0000 L CNN
F 1 "0.1u" H 9315 3605 50  0000 L CNN
F 2 "Capacitor_THT:C_Disc_D5.0mm_W2.5mm_P5.00mm" H 9238 3500 50  0001 C CNN
F 3 "~" H 9200 3650 50  0001 C CNN
	1    9200 3650
	1    0    0    -1  
$EndComp
Wire Wire Line
	9200 3000 9200 3500
Connection ~ 9200 3000
Wire Wire Line
	9200 3000 9400 3000
$Comp
L power:GND #PWR014
U 1 1 5FAEEF33
P 9200 4100
F 0 "#PWR014" H 9200 3850 50  0001 C CNN
F 1 "GND" H 9205 3927 50  0000 C CNN
F 2 "" H 9200 4100 50  0001 C CNN
F 3 "" H 9200 4100 50  0001 C CNN
	1    9200 4100
	1    0    0    -1  
$EndComp
Wire Wire Line
	9200 4100 9200 3800
$Comp
L Device:C C8
U 1 1 5FB53790
P 7600 5400
F 0 "C8" H 7715 5446 50  0000 L CNN
F 1 "0.1u" H 7715 5355 50  0000 L CNN
F 2 "Capacitor_THT:C_Disc_D5.0mm_W2.5mm_P5.00mm" H 7638 5250 50  0001 C CNN
F 3 "~" H 7600 5400 50  0001 C CNN
	1    7600 5400
	1    0    0    -1  
$EndComp
Wire Wire Line
	7600 5250 7600 5100
Connection ~ 7600 5100
Wire Wire Line
	7600 5100 7900 5100
$Comp
L power:GND #PWR015
U 1 1 5FB576C7
P 7600 5700
F 0 "#PWR015" H 7600 5450 50  0001 C CNN
F 1 "GND" H 7605 5527 50  0000 C CNN
F 2 "" H 7600 5700 50  0001 C CNN
F 3 "" H 7600 5700 50  0001 C CNN
	1    7600 5700
	1    0    0    -1  
$EndComp
Wire Wire Line
	7600 5550 7600 5700
Wire Wire Line
	9200 2450 9200 3000
Wire Wire Line
	6600 2450 9200 2450
$Comp
L Device:C C9
U 1 1 5FB3343A
P 3950 3100
F 0 "C9" H 4065 3146 50  0000 L CNN
F 1 "0.1u/250V" H 4065 3055 50  0000 L CNN
F 2 "Capacitor_THT:C_Rect_L10.0mm_W5.0mm_P5.00mm_P7.50mm" H 3988 2950 50  0001 C CNN
F 3 "~" H 3950 3100 50  0001 C CNN
	1    3950 3100
	1    0    0    -1  
$EndComp
Text GLabel 3850 3250 0    50   Input ~ 0
AC2
Text GLabel 3850 2950 0    50   Input ~ 0
AC1
Wire Wire Line
	3850 3250 3950 3250
Wire Wire Line
	3950 2950 3850 2950
Wire Wire Line
	3250 3750 3350 3750
Text GLabel 3250 3750 0    50   Input ~ 0
AC2
Text GLabel 3250 3650 0    50   Input ~ 0
AC1
$Comp
L Connector:Screw_Terminal_01x03 J2
U 1 1 60AEC385
P 3550 4150
F 0 "J2" H 3630 4192 50  0000 L CNN
F 1 "Display" H 3630 4101 50  0000 L CNN
F 2 "Connector_Molex:Molex_KK-254_AE-6410-03A_1x03_P2.54mm_Vertical" H 3550 4150 50  0001 C CNN
F 3 "~" H 3550 4150 50  0001 C CNN
	1    3550 4150
	1    0    0    -1  
$EndComp
Text GLabel 3250 4250 0    50   Input ~ 0
Vout
Wire Wire Line
	3250 4250 3350 4250
Wire Wire Line
	3350 4150 3250 4150
$EndSCHEMATC
