M48
; DRILL file {KiCad 5.1.6} date Sat Nov 14 10:14:29 2020
; FORMAT={-:-/ absolute / metric / decimal}
; #@! TF.CreationDate,2020-11-14T10:14:29-06:00
; #@! TF.GenerationSoftware,Kicad,Pcbnew,5.1.6
; #@! TF.FileFunction,Plated,1,2,PTH
FMAT,2
METRIC
T1C0.400
T2C0.800
T3C1.100
T4C1.200
T5C1.400
T6C1.520
T7C3.500
%
G90
G05
T1
X99.7Y-95.0
X99.7Y-139.2
X101.1Y-117.3
X107.18Y-106.22
X113.75Y-118.65
X114.1Y-110.3
X119.9Y-102.7
X121.5Y-121.6
X124.9Y-95.1
X128.7Y-102.7
X129.2Y-121.6
X132.7Y-128.6
X138.9Y-108.2
X138.9Y-114.1
X143.8Y-114.3
X146.9Y-95.1
X152.97Y-118.53
X160.4Y-122.3
X161.6Y-128.6
X164.6Y-114.7
X171.1Y-122.3
X178.5Y-122.3
X179.45Y-95.05
X181.0Y-102.2
X183.35Y-124.45
X183.7Y-110.6
X186.5Y-138.1
X186.8Y-95.1
X191.2Y-116.7
T2
X105.2Y-135.8
X105.2Y-140.8
X148.84Y-114.4
X159.0Y-114.4
X148.6Y-118.5
X148.6Y-121.0
X165.4Y-99.8
X165.4Y-102.3
X146.8Y-137.9
X146.8Y-140.4
X149.1Y-99.2
X149.1Y-109.36
X121.02Y-139.3
X123.56Y-139.3
X126.1Y-139.3
X174.1Y-137.0
X174.1Y-142.0
X137.7Y-135.28
X137.7Y-142.9
X167.9Y-137.9
X167.9Y-140.4
X143.1Y-129.1
X153.26Y-129.1
X171.0Y-92.2
X171.0Y-102.36
X132.6Y-132.8
X132.6Y-142.96
T3
X176.6Y-92.2
X176.6Y-102.36
X182.5Y-114.12
X182.5Y-116.66
X182.5Y-119.2
T4
X134.9Y-95.2
X134.9Y-102.7
X114.4Y-95.2
X114.4Y-102.7
T5
X110.5Y-115.4
X110.5Y-128.1
X123.2Y-115.4
X123.2Y-128.1
T6
X101.1Y-123.02
X101.1Y-128.1
X154.02Y-139.7
X159.1Y-139.7
X110.2Y-140.7
X115.28Y-140.7
X101.1Y-106.22
X101.1Y-111.3
X164.6Y-113.1
X169.68Y-113.1
X174.76Y-113.1
X133.82Y-119.0
X138.9Y-119.0
X169.1Y-129.4
X174.18Y-129.4
T7
X186.8Y-104.0
X186.8Y-129.4
T0
M30
