%TF.GenerationSoftware,KiCad,Pcbnew,5.1.6*%
%TF.CreationDate,2020-11-14T10:29:44-06:00*%
%TF.ProjectId,kicad,6b696361-642e-46b6-9963-61645f706362,rev?*%
%TF.SameCoordinates,Original*%
%TF.FileFunction,Profile,NP*%
%FSLAX46Y46*%
G04 Gerber Fmt 4.6, Leading zero omitted, Abs format (unit mm)*
G04 Created by KiCad (PCBNEW 5.1.6) date 2020-11-14 10:29:44*
%MOMM*%
%LPD*%
G01*
G04 APERTURE LIST*
%TA.AperFunction,Profile*%
%ADD10C,0.050000*%
%TD*%
G04 APERTURE END LIST*
D10*
X94000000Y-147500000D02*
X94000000Y-137500000D01*
X194000000Y-147500000D02*
X94000000Y-147500000D01*
X194000000Y-137500000D02*
X194000000Y-147500000D01*
X94000000Y-87500000D02*
X194000000Y-87500000D01*
X94000000Y-137500000D02*
X94000000Y-87500000D01*
X194000000Y-87500000D02*
X194000000Y-137500000D01*
M02*
