Id,Identificador,Empaquetado,Cantidad,Identificación
1,"C1,C2",Capacitor electrolítico 2200u/25V,2,
2,"C3,C5",Capacitor electrolítico 10u/25V,2,
3,"C4,C6",Capacitor electrolítico 47u/25V,2,
4,"C8,C7","Capacitor cerámico 104, 0.1u",2,
5,C9,"Capacitor Poliester 104, 0.1u/250V",1,
6,D1,Puente de diodos Br104,1,AG electrónica
7,D2,Diodo rectificador 1N4007,1,
8,D3,Molex de 2 pines paso 2.54,1,
9,D4,"Diodo zener 1n5237, 8.2V-0.5W",1,
10,F1,Molex de 2 pines paso 3.96 ,1,
11,J1,Molex de 2 pines paso 3.96 ,1,
12,J2,Molex de 3 pines paso 3.96 ,1,
13,J5,Molex de 2 pines paso 3.96 ,1,
14,Q1,Transistor de potencia TIP42,1,
15,Q2,Transistor BC547,1,
16,R1,Resistor 10R-1/2W o 1W,1,
17,R2,Resistor 240R-1/4W,1,
18,R3,Resistor 1k-1/4W,1,
19,R4,Resistor 1k-1/4W,1,
20,R5,Resistor 270R-1/4W,1,
21,REF**,Discipador para LM317,1,AG electrónica
22,RV1,Molex de 3 pines paso 3.96 ,1,
23,U1,Regulador de voltaje LM317 de montaje SMD,1,AG electrónica
24,,Led 5M,1,
25,,Porta led 5MM,1,
26,,Porta fusible para chasis Europeo o Americano,1,
27,,Potenciómetro 5K,1,
28,,Display Multímetro Amperímetro,1,U-electronics
