EESchema Schematic File Version 4
EELAYER 30 0
EELAYER END
$Descr A4 11693 8268
encoding utf-8
Sheet 1 1
Title ""
Date ""
Rev ""
Comp ""
Comment1 ""
Comment2 ""
Comment3 ""
Comment4 ""
$EndDescr
$Comp
L pspice:0 #GND02
U 1 1 5F98FF10
P 6200 3950
F 0 "#GND02" H 6200 3850 50  0001 C CNN
F 1 "0" H 6200 4039 50  0000 C CNN
F 2 "" H 6200 3950 50  0001 C CNN
F 3 "~" H 6200 3950 50  0001 C CNN
	1    6200 3950
	1    0    0    -1  
$EndComp
$Comp
L pspice:C C1
U 1 1 5F9902FA
P 6200 3450
F 0 "C1" H 6378 3496 50  0000 L CNN
F 1 "1u" H 6378 3405 50  0000 L CNN
F 2 "" H 6200 3450 50  0001 C CNN
F 3 "~" H 6200 3450 50  0001 C CNN
	1    6200 3450
	1    0    0    -1  
$EndComp
$Comp
L pspice:C C2
U 1 1 5F9906ED
P 7050 3450
F 0 "C2" H 7228 3496 50  0000 L CNN
F 1 "100n" H 7228 3405 50  0000 L CNN
F 2 "" H 7050 3450 50  0001 C CNN
F 3 "~" H 7050 3450 50  0001 C CNN
	1    7050 3450
	1    0    0    -1  
$EndComp
$Comp
L pspice:R R1
U 1 1 5F991135
P 5650 3200
F 0 "R1" V 5445 3200 50  0000 C CNN
F 1 "10k" V 5536 3200 50  0000 C CNN
F 2 "" H 5650 3200 50  0001 C CNN
F 3 "~" H 5650 3200 50  0001 C CNN
	1    5650 3200
	0    1    1    0   
$EndComp
$Comp
L pspice:R R2
U 1 1 5F9917DF
P 6650 3200
F 0 "R2" V 6445 3200 50  0000 C CNN
F 1 "1k" V 6536 3200 50  0000 C CNN
F 2 "" H 6650 3200 50  0001 C CNN
F 3 "~" H 6650 3200 50  0001 C CNN
	1    6650 3200
	0    1    1    0   
$EndComp
$Comp
L pspice:VSOURCE V1
U 1 1 5F991EB1
P 5100 3500
F 0 "V1" H 5328 3546 50  0000 L CNN
F 1 "PULSE (0 5 1u 1u 1u 1 1)" H 5328 3455 50  0000 L CNN
F 2 "" H 5100 3500 50  0001 C CNN
F 3 "~" H 5100 3500 50  0001 C CNN
	1    5100 3500
	1    0    0    -1  
$EndComp
Wire Wire Line
	5400 3200 5100 3200
Wire Wire Line
	5900 3200 6200 3200
Wire Wire Line
	6200 3200 6400 3200
Connection ~ 6200 3200
Wire Wire Line
	6900 3200 7050 3200
$Comp
L pspice:0 #GND01
U 1 1 5F992C35
P 5100 3950
F 0 "#GND01" H 5100 3850 50  0001 C CNN
F 1 "0" H 5100 4039 50  0000 C CNN
F 2 "" H 5100 3950 50  0001 C CNN
F 3 "~" H 5100 3950 50  0001 C CNN
	1    5100 3950
	1    0    0    -1  
$EndComp
$Comp
L pspice:0 #GND03
U 1 1 5F99349B
P 7050 3950
F 0 "#GND03" H 7050 3850 50  0001 C CNN
F 1 "0" H 7050 4039 50  0000 C CNN
F 2 "" H 7050 3950 50  0001 C CNN
F 3 "~" H 7050 3950 50  0001 C CNN
	1    7050 3950
	1    0    0    -1  
$EndComp
Wire Wire Line
	7050 3950 7050 3700
Wire Wire Line
	6200 3700 6200 3950
Wire Wire Line
	5100 3950 5100 3800
Text GLabel 7350 3200 2    50   Input ~ 0
out
Text GLabel 4750 3200 0    50   Input ~ 0
in
Wire Wire Line
	4750 3200 5100 3200
Connection ~ 5100 3200
Wire Wire Line
	7050 3200 7350 3200
Connection ~ 7050 3200
Text Notes 4850 4250 0    50   ~ 0
.tran 1u 1000m
$EndSCHEMATC
