G04 #@! TF.GenerationSoftware,KiCad,Pcbnew,5.1.6*
G04 #@! TF.CreationDate,2020-09-16T18:30:39-05:00*
G04 #@! TF.ProjectId,lm317,6c6d3331-372e-46b6-9963-61645f706362,01*
G04 #@! TF.SameCoordinates,Original*
G04 #@! TF.FileFunction,Other,Fab,Top*
%FSLAX46Y46*%
G04 Gerber Fmt 4.6, Leading zero omitted, Abs format (unit mm)*
G04 Created by KiCad (PCBNEW 5.1.6) date 2020-09-16 18:30:39*
%MOMM*%
%LPD*%
G01*
G04 APERTURE LIST*
%ADD10C,0.100000*%
%ADD11C,0.150000*%
%ADD12C,0.300000*%
%ADD13C,0.400000*%
G04 #@! TA.AperFunction,Profile*
%ADD14C,0.050000*%
G04 #@! TD*
G04 APERTURE END LIST*
D10*
D11*
X159400000Y-171900000D02*
X159400000Y-203900000D01*
X267400000Y-203900000D01*
X267400000Y-171900000D01*
X159400000Y-171900000D01*
D10*
D11*
X10000000Y-10000000D02*
X10000000Y-205900000D01*
X269400000Y-205900000D01*
X269400000Y-10000000D01*
X10000000Y-10000000D01*
D10*
D11*
X12000000Y-12000000D02*
X12000000Y-203900000D01*
X267400000Y-203900000D01*
X267400000Y-12000000D01*
X12000000Y-12000000D01*
D10*
D11*
X60000000Y-12000000D02*
X60000000Y-10000000D01*
D10*
D11*
X110000000Y-12000000D02*
X110000000Y-10000000D01*
D10*
D11*
X160000000Y-12000000D02*
X160000000Y-10000000D01*
D10*
D11*
X210000000Y-12000000D02*
X210000000Y-10000000D01*
D10*
D11*
X260000000Y-12000000D02*
X260000000Y-10000000D01*
D10*
D11*
X36065476Y-11588095D02*
X35322619Y-11588095D01*
X35694047Y-11588095D02*
X35694047Y-10288095D01*
X35570238Y-10473809D01*
X35446428Y-10597619D01*
X35322619Y-10659523D01*
D10*
D11*
X85322619Y-10411904D02*
X85384523Y-10350000D01*
X85508333Y-10288095D01*
X85817857Y-10288095D01*
X85941666Y-10350000D01*
X86003571Y-10411904D01*
X86065476Y-10535714D01*
X86065476Y-10659523D01*
X86003571Y-10845238D01*
X85260714Y-11588095D01*
X86065476Y-11588095D01*
D10*
D11*
X135260714Y-10288095D02*
X136065476Y-10288095D01*
X135632142Y-10783333D01*
X135817857Y-10783333D01*
X135941666Y-10845238D01*
X136003571Y-10907142D01*
X136065476Y-11030952D01*
X136065476Y-11340476D01*
X136003571Y-11464285D01*
X135941666Y-11526190D01*
X135817857Y-11588095D01*
X135446428Y-11588095D01*
X135322619Y-11526190D01*
X135260714Y-11464285D01*
D10*
D11*
X185941666Y-10721428D02*
X185941666Y-11588095D01*
X185632142Y-10226190D02*
X185322619Y-11154761D01*
X186127380Y-11154761D01*
D10*
D11*
X236003571Y-10288095D02*
X235384523Y-10288095D01*
X235322619Y-10907142D01*
X235384523Y-10845238D01*
X235508333Y-10783333D01*
X235817857Y-10783333D01*
X235941666Y-10845238D01*
X236003571Y-10907142D01*
X236065476Y-11030952D01*
X236065476Y-11340476D01*
X236003571Y-11464285D01*
X235941666Y-11526190D01*
X235817857Y-11588095D01*
X235508333Y-11588095D01*
X235384523Y-11526190D01*
X235322619Y-11464285D01*
D10*
D11*
X60000000Y-203900000D02*
X60000000Y-205900000D01*
D10*
D11*
X110000000Y-203900000D02*
X110000000Y-205900000D01*
D10*
D11*
X160000000Y-203900000D02*
X160000000Y-205900000D01*
D10*
D11*
X210000000Y-203900000D02*
X210000000Y-205900000D01*
D10*
D11*
X260000000Y-203900000D02*
X260000000Y-205900000D01*
D10*
D11*
X36065476Y-205488095D02*
X35322619Y-205488095D01*
X35694047Y-205488095D02*
X35694047Y-204188095D01*
X35570238Y-204373809D01*
X35446428Y-204497619D01*
X35322619Y-204559523D01*
D10*
D11*
X85322619Y-204311904D02*
X85384523Y-204250000D01*
X85508333Y-204188095D01*
X85817857Y-204188095D01*
X85941666Y-204250000D01*
X86003571Y-204311904D01*
X86065476Y-204435714D01*
X86065476Y-204559523D01*
X86003571Y-204745238D01*
X85260714Y-205488095D01*
X86065476Y-205488095D01*
D10*
D11*
X135260714Y-204188095D02*
X136065476Y-204188095D01*
X135632142Y-204683333D01*
X135817857Y-204683333D01*
X135941666Y-204745238D01*
X136003571Y-204807142D01*
X136065476Y-204930952D01*
X136065476Y-205240476D01*
X136003571Y-205364285D01*
X135941666Y-205426190D01*
X135817857Y-205488095D01*
X135446428Y-205488095D01*
X135322619Y-205426190D01*
X135260714Y-205364285D01*
D10*
D11*
X185941666Y-204621428D02*
X185941666Y-205488095D01*
X185632142Y-204126190D02*
X185322619Y-205054761D01*
X186127380Y-205054761D01*
D10*
D11*
X236003571Y-204188095D02*
X235384523Y-204188095D01*
X235322619Y-204807142D01*
X235384523Y-204745238D01*
X235508333Y-204683333D01*
X235817857Y-204683333D01*
X235941666Y-204745238D01*
X236003571Y-204807142D01*
X236065476Y-204930952D01*
X236065476Y-205240476D01*
X236003571Y-205364285D01*
X235941666Y-205426190D01*
X235817857Y-205488095D01*
X235508333Y-205488095D01*
X235384523Y-205426190D01*
X235322619Y-205364285D01*
D10*
D11*
X10000000Y-60000000D02*
X12000000Y-60000000D01*
D10*
D11*
X10000000Y-110000000D02*
X12000000Y-110000000D01*
D10*
D11*
X10000000Y-160000000D02*
X12000000Y-160000000D01*
D10*
D11*
X10690476Y-35216666D02*
X11309523Y-35216666D01*
X10566666Y-35588095D02*
X11000000Y-34288095D01*
X11433333Y-35588095D01*
D10*
D11*
X11092857Y-84907142D02*
X11278571Y-84969047D01*
X11340476Y-85030952D01*
X11402380Y-85154761D01*
X11402380Y-85340476D01*
X11340476Y-85464285D01*
X11278571Y-85526190D01*
X11154761Y-85588095D01*
X10659523Y-85588095D01*
X10659523Y-84288095D01*
X11092857Y-84288095D01*
X11216666Y-84350000D01*
X11278571Y-84411904D01*
X11340476Y-84535714D01*
X11340476Y-84659523D01*
X11278571Y-84783333D01*
X11216666Y-84845238D01*
X11092857Y-84907142D01*
X10659523Y-84907142D01*
D10*
D11*
X11402380Y-135464285D02*
X11340476Y-135526190D01*
X11154761Y-135588095D01*
X11030952Y-135588095D01*
X10845238Y-135526190D01*
X10721428Y-135402380D01*
X10659523Y-135278571D01*
X10597619Y-135030952D01*
X10597619Y-134845238D01*
X10659523Y-134597619D01*
X10721428Y-134473809D01*
X10845238Y-134350000D01*
X11030952Y-134288095D01*
X11154761Y-134288095D01*
X11340476Y-134350000D01*
X11402380Y-134411904D01*
D10*
D11*
X10659523Y-185588095D02*
X10659523Y-184288095D01*
X10969047Y-184288095D01*
X11154761Y-184350000D01*
X11278571Y-184473809D01*
X11340476Y-184597619D01*
X11402380Y-184845238D01*
X11402380Y-185030952D01*
X11340476Y-185278571D01*
X11278571Y-185402380D01*
X11154761Y-185526190D01*
X10969047Y-185588095D01*
X10659523Y-185588095D01*
D10*
D11*
X269400000Y-60000000D02*
X267400000Y-60000000D01*
D10*
D11*
X269400000Y-110000000D02*
X267400000Y-110000000D01*
D10*
D11*
X269400000Y-160000000D02*
X267400000Y-160000000D01*
D10*
D11*
X268090476Y-35216666D02*
X268709523Y-35216666D01*
X267966666Y-35588095D02*
X268400000Y-34288095D01*
X268833333Y-35588095D01*
D10*
D11*
X268492857Y-84907142D02*
X268678571Y-84969047D01*
X268740476Y-85030952D01*
X268802380Y-85154761D01*
X268802380Y-85340476D01*
X268740476Y-85464285D01*
X268678571Y-85526190D01*
X268554761Y-85588095D01*
X268059523Y-85588095D01*
X268059523Y-84288095D01*
X268492857Y-84288095D01*
X268616666Y-84350000D01*
X268678571Y-84411904D01*
X268740476Y-84535714D01*
X268740476Y-84659523D01*
X268678571Y-84783333D01*
X268616666Y-84845238D01*
X268492857Y-84907142D01*
X268059523Y-84907142D01*
D10*
D11*
X268802380Y-135464285D02*
X268740476Y-135526190D01*
X268554761Y-135588095D01*
X268430952Y-135588095D01*
X268245238Y-135526190D01*
X268121428Y-135402380D01*
X268059523Y-135278571D01*
X267997619Y-135030952D01*
X267997619Y-134845238D01*
X268059523Y-134597619D01*
X268121428Y-134473809D01*
X268245238Y-134350000D01*
X268430952Y-134288095D01*
X268554761Y-134288095D01*
X268740476Y-134350000D01*
X268802380Y-134411904D01*
D10*
D11*
X268059523Y-185588095D02*
X268059523Y-184288095D01*
X268369047Y-184288095D01*
X268554761Y-184350000D01*
X268678571Y-184473809D01*
X268740476Y-184597619D01*
X268802380Y-184845238D01*
X268802380Y-185030952D01*
X268740476Y-185278571D01*
X268678571Y-185402380D01*
X268554761Y-185526190D01*
X268369047Y-185588095D01*
X268059523Y-185588095D01*
D10*
D11*
X182832142Y-199678571D02*
X182832142Y-198178571D01*
X183189285Y-198178571D01*
X183403571Y-198250000D01*
X183546428Y-198392857D01*
X183617857Y-198535714D01*
X183689285Y-198821428D01*
X183689285Y-199035714D01*
X183617857Y-199321428D01*
X183546428Y-199464285D01*
X183403571Y-199607142D01*
X183189285Y-199678571D01*
X182832142Y-199678571D01*
X184975000Y-199678571D02*
X184975000Y-198892857D01*
X184903571Y-198750000D01*
X184760714Y-198678571D01*
X184475000Y-198678571D01*
X184332142Y-198750000D01*
X184975000Y-199607142D02*
X184832142Y-199678571D01*
X184475000Y-199678571D01*
X184332142Y-199607142D01*
X184260714Y-199464285D01*
X184260714Y-199321428D01*
X184332142Y-199178571D01*
X184475000Y-199107142D01*
X184832142Y-199107142D01*
X184975000Y-199035714D01*
X185475000Y-198678571D02*
X186046428Y-198678571D01*
X185689285Y-198178571D02*
X185689285Y-199464285D01*
X185760714Y-199607142D01*
X185903571Y-199678571D01*
X186046428Y-199678571D01*
X187117857Y-199607142D02*
X186975000Y-199678571D01*
X186689285Y-199678571D01*
X186546428Y-199607142D01*
X186475000Y-199464285D01*
X186475000Y-198892857D01*
X186546428Y-198750000D01*
X186689285Y-198678571D01*
X186975000Y-198678571D01*
X187117857Y-198750000D01*
X187189285Y-198892857D01*
X187189285Y-199035714D01*
X186475000Y-199178571D01*
X187832142Y-199535714D02*
X187903571Y-199607142D01*
X187832142Y-199678571D01*
X187760714Y-199607142D01*
X187832142Y-199535714D01*
X187832142Y-199678571D01*
X187832142Y-198750000D02*
X187903571Y-198821428D01*
X187832142Y-198892857D01*
X187760714Y-198821428D01*
X187832142Y-198750000D01*
X187832142Y-198892857D01*
X189617857Y-198321428D02*
X189689285Y-198250000D01*
X189832142Y-198178571D01*
X190189285Y-198178571D01*
X190332142Y-198250000D01*
X190403571Y-198321428D01*
X190475000Y-198464285D01*
X190475000Y-198607142D01*
X190403571Y-198821428D01*
X189546428Y-199678571D01*
X190475000Y-199678571D01*
X191403571Y-198178571D02*
X191546428Y-198178571D01*
X191689285Y-198250000D01*
X191760714Y-198321428D01*
X191832142Y-198464285D01*
X191903571Y-198750000D01*
X191903571Y-199107142D01*
X191832142Y-199392857D01*
X191760714Y-199535714D01*
X191689285Y-199607142D01*
X191546428Y-199678571D01*
X191403571Y-199678571D01*
X191260714Y-199607142D01*
X191189285Y-199535714D01*
X191117857Y-199392857D01*
X191046428Y-199107142D01*
X191046428Y-198750000D01*
X191117857Y-198464285D01*
X191189285Y-198321428D01*
X191260714Y-198250000D01*
X191403571Y-198178571D01*
X192475000Y-198321428D02*
X192546428Y-198250000D01*
X192689285Y-198178571D01*
X193046428Y-198178571D01*
X193189285Y-198250000D01*
X193260714Y-198321428D01*
X193332142Y-198464285D01*
X193332142Y-198607142D01*
X193260714Y-198821428D01*
X192403571Y-199678571D01*
X193332142Y-199678571D01*
X194260714Y-198178571D02*
X194403571Y-198178571D01*
X194546428Y-198250000D01*
X194617857Y-198321428D01*
X194689285Y-198464285D01*
X194760714Y-198750000D01*
X194760714Y-199107142D01*
X194689285Y-199392857D01*
X194617857Y-199535714D01*
X194546428Y-199607142D01*
X194403571Y-199678571D01*
X194260714Y-199678571D01*
X194117857Y-199607142D01*
X194046428Y-199535714D01*
X193975000Y-199392857D01*
X193903571Y-199107142D01*
X193903571Y-198750000D01*
X193975000Y-198464285D01*
X194046428Y-198321428D01*
X194117857Y-198250000D01*
X194260714Y-198178571D01*
X195403571Y-199107142D02*
X196546428Y-199107142D01*
X197546428Y-198178571D02*
X197689285Y-198178571D01*
X197832142Y-198250000D01*
X197903571Y-198321428D01*
X197975000Y-198464285D01*
X198046428Y-198750000D01*
X198046428Y-199107142D01*
X197975000Y-199392857D01*
X197903571Y-199535714D01*
X197832142Y-199607142D01*
X197689285Y-199678571D01*
X197546428Y-199678571D01*
X197403571Y-199607142D01*
X197332142Y-199535714D01*
X197260714Y-199392857D01*
X197189285Y-199107142D01*
X197189285Y-198750000D01*
X197260714Y-198464285D01*
X197332142Y-198321428D01*
X197403571Y-198250000D01*
X197546428Y-198178571D01*
X198760714Y-199678571D02*
X199046428Y-199678571D01*
X199189285Y-199607142D01*
X199260714Y-199535714D01*
X199403571Y-199321428D01*
X199475000Y-199035714D01*
X199475000Y-198464285D01*
X199403571Y-198321428D01*
X199332142Y-198250000D01*
X199189285Y-198178571D01*
X198903571Y-198178571D01*
X198760714Y-198250000D01*
X198689285Y-198321428D01*
X198617857Y-198464285D01*
X198617857Y-198821428D01*
X198689285Y-198964285D01*
X198760714Y-199035714D01*
X198903571Y-199107142D01*
X199189285Y-199107142D01*
X199332142Y-199035714D01*
X199403571Y-198964285D01*
X199475000Y-198821428D01*
X200117857Y-199107142D02*
X201260714Y-199107142D01*
X202760714Y-199678571D02*
X201903571Y-199678571D01*
X202332142Y-199678571D02*
X202332142Y-198178571D01*
X202189285Y-198392857D01*
X202046428Y-198535714D01*
X201903571Y-198607142D01*
X204046428Y-198178571D02*
X203760714Y-198178571D01*
X203617857Y-198250000D01*
X203546428Y-198321428D01*
X203403571Y-198535714D01*
X203332142Y-198821428D01*
X203332142Y-199392857D01*
X203403571Y-199535714D01*
X203475000Y-199607142D01*
X203617857Y-199678571D01*
X203903571Y-199678571D01*
X204046428Y-199607142D01*
X204117857Y-199535714D01*
X204189285Y-199392857D01*
X204189285Y-199035714D01*
X204117857Y-198892857D01*
X204046428Y-198821428D01*
X203903571Y-198750000D01*
X203617857Y-198750000D01*
X203475000Y-198821428D01*
X203403571Y-198892857D01*
X203332142Y-199035714D01*
D10*
D11*
X159400000Y-200400000D02*
X267400000Y-200400000D01*
D10*
D11*
X160832142Y-202478571D02*
X160832142Y-200978571D01*
X161689285Y-202478571D02*
X161046428Y-201621428D01*
X161689285Y-200978571D02*
X160832142Y-201835714D01*
X162332142Y-202478571D02*
X162332142Y-201478571D01*
X162332142Y-200978571D02*
X162260714Y-201050000D01*
X162332142Y-201121428D01*
X162403571Y-201050000D01*
X162332142Y-200978571D01*
X162332142Y-201121428D01*
X163903571Y-202335714D02*
X163832142Y-202407142D01*
X163617857Y-202478571D01*
X163475000Y-202478571D01*
X163260714Y-202407142D01*
X163117857Y-202264285D01*
X163046428Y-202121428D01*
X162975000Y-201835714D01*
X162975000Y-201621428D01*
X163046428Y-201335714D01*
X163117857Y-201192857D01*
X163260714Y-201050000D01*
X163475000Y-200978571D01*
X163617857Y-200978571D01*
X163832142Y-201050000D01*
X163903571Y-201121428D01*
X165189285Y-202478571D02*
X165189285Y-201692857D01*
X165117857Y-201550000D01*
X164975000Y-201478571D01*
X164689285Y-201478571D01*
X164546428Y-201550000D01*
X165189285Y-202407142D02*
X165046428Y-202478571D01*
X164689285Y-202478571D01*
X164546428Y-202407142D01*
X164475000Y-202264285D01*
X164475000Y-202121428D01*
X164546428Y-201978571D01*
X164689285Y-201907142D01*
X165046428Y-201907142D01*
X165189285Y-201835714D01*
X166546428Y-202478571D02*
X166546428Y-200978571D01*
X166546428Y-202407142D02*
X166403571Y-202478571D01*
X166117857Y-202478571D01*
X165975000Y-202407142D01*
X165903571Y-202335714D01*
X165832142Y-202192857D01*
X165832142Y-201764285D01*
X165903571Y-201621428D01*
X165975000Y-201550000D01*
X166117857Y-201478571D01*
X166403571Y-201478571D01*
X166546428Y-201550000D01*
X168403571Y-201692857D02*
X168903571Y-201692857D01*
X169117857Y-202478571D02*
X168403571Y-202478571D01*
X168403571Y-200978571D01*
X169117857Y-200978571D01*
X169760714Y-202335714D02*
X169832142Y-202407142D01*
X169760714Y-202478571D01*
X169689285Y-202407142D01*
X169760714Y-202335714D01*
X169760714Y-202478571D01*
X170475000Y-202478571D02*
X170475000Y-200978571D01*
X170832142Y-200978571D01*
X171046428Y-201050000D01*
X171189285Y-201192857D01*
X171260714Y-201335714D01*
X171332142Y-201621428D01*
X171332142Y-201835714D01*
X171260714Y-202121428D01*
X171189285Y-202264285D01*
X171046428Y-202407142D01*
X170832142Y-202478571D01*
X170475000Y-202478571D01*
X171975000Y-202335714D02*
X172046428Y-202407142D01*
X171975000Y-202478571D01*
X171903571Y-202407142D01*
X171975000Y-202335714D01*
X171975000Y-202478571D01*
X172617857Y-202050000D02*
X173332142Y-202050000D01*
X172475000Y-202478571D02*
X172975000Y-200978571D01*
X173475000Y-202478571D01*
X173975000Y-202335714D02*
X174046428Y-202407142D01*
X173975000Y-202478571D01*
X173903571Y-202407142D01*
X173975000Y-202335714D01*
X173975000Y-202478571D01*
X176975000Y-202478571D02*
X176975000Y-200978571D01*
X177117857Y-201907142D02*
X177546428Y-202478571D01*
X177546428Y-201478571D02*
X176975000Y-202050000D01*
X178189285Y-202478571D02*
X178189285Y-201478571D01*
X178189285Y-200978571D02*
X178117857Y-201050000D01*
X178189285Y-201121428D01*
X178260714Y-201050000D01*
X178189285Y-200978571D01*
X178189285Y-201121428D01*
X179546428Y-202407142D02*
X179403571Y-202478571D01*
X179117857Y-202478571D01*
X178975000Y-202407142D01*
X178903571Y-202335714D01*
X178832142Y-202192857D01*
X178832142Y-201764285D01*
X178903571Y-201621428D01*
X178975000Y-201550000D01*
X179117857Y-201478571D01*
X179403571Y-201478571D01*
X179546428Y-201550000D01*
X180832142Y-202478571D02*
X180832142Y-201692857D01*
X180760714Y-201550000D01*
X180617857Y-201478571D01*
X180332142Y-201478571D01*
X180189285Y-201550000D01*
X180832142Y-202407142D02*
X180689285Y-202478571D01*
X180332142Y-202478571D01*
X180189285Y-202407142D01*
X180117857Y-202264285D01*
X180117857Y-202121428D01*
X180189285Y-201978571D01*
X180332142Y-201907142D01*
X180689285Y-201907142D01*
X180832142Y-201835714D01*
X182189285Y-202478571D02*
X182189285Y-200978571D01*
X182189285Y-202407142D02*
X182046428Y-202478571D01*
X181760714Y-202478571D01*
X181617857Y-202407142D01*
X181546428Y-202335714D01*
X181475000Y-202192857D01*
X181475000Y-201764285D01*
X181546428Y-201621428D01*
X181617857Y-201550000D01*
X181760714Y-201478571D01*
X182046428Y-201478571D01*
X182189285Y-201550000D01*
X184760714Y-200978571D02*
X184046428Y-200978571D01*
X183975000Y-201692857D01*
X184046428Y-201621428D01*
X184189285Y-201550000D01*
X184546428Y-201550000D01*
X184689285Y-201621428D01*
X184760714Y-201692857D01*
X184832142Y-201835714D01*
X184832142Y-202192857D01*
X184760714Y-202335714D01*
X184689285Y-202407142D01*
X184546428Y-202478571D01*
X184189285Y-202478571D01*
X184046428Y-202407142D01*
X183975000Y-202335714D01*
X185475000Y-202335714D02*
X185546428Y-202407142D01*
X185475000Y-202478571D01*
X185403571Y-202407142D01*
X185475000Y-202335714D01*
X185475000Y-202478571D01*
X186975000Y-202478571D02*
X186117857Y-202478571D01*
X186546428Y-202478571D02*
X186546428Y-200978571D01*
X186403571Y-201192857D01*
X186260714Y-201335714D01*
X186117857Y-201407142D01*
X187617857Y-202335714D02*
X187689285Y-202407142D01*
X187617857Y-202478571D01*
X187546428Y-202407142D01*
X187617857Y-202335714D01*
X187617857Y-202478571D01*
X188975000Y-200978571D02*
X188689285Y-200978571D01*
X188546428Y-201050000D01*
X188475000Y-201121428D01*
X188332142Y-201335714D01*
X188260714Y-201621428D01*
X188260714Y-202192857D01*
X188332142Y-202335714D01*
X188403571Y-202407142D01*
X188546428Y-202478571D01*
X188832142Y-202478571D01*
X188975000Y-202407142D01*
X189046428Y-202335714D01*
X189117857Y-202192857D01*
X189117857Y-201835714D01*
X189046428Y-201692857D01*
X188975000Y-201621428D01*
X188832142Y-201550000D01*
X188546428Y-201550000D01*
X188403571Y-201621428D01*
X188332142Y-201692857D01*
X188260714Y-201835714D01*
D10*
D11*
X159400000Y-197400000D02*
X267400000Y-197400000D01*
D10*
D12*
X246809285Y-199678571D02*
X246309285Y-198964285D01*
X245952142Y-199678571D02*
X245952142Y-198178571D01*
X246523571Y-198178571D01*
X246666428Y-198250000D01*
X246737857Y-198321428D01*
X246809285Y-198464285D01*
X246809285Y-198678571D01*
X246737857Y-198821428D01*
X246666428Y-198892857D01*
X246523571Y-198964285D01*
X245952142Y-198964285D01*
X248023571Y-199607142D02*
X247880714Y-199678571D01*
X247595000Y-199678571D01*
X247452142Y-199607142D01*
X247380714Y-199464285D01*
X247380714Y-198892857D01*
X247452142Y-198750000D01*
X247595000Y-198678571D01*
X247880714Y-198678571D01*
X248023571Y-198750000D01*
X248095000Y-198892857D01*
X248095000Y-199035714D01*
X247380714Y-199178571D01*
X248595000Y-198678571D02*
X248952142Y-199678571D01*
X249309285Y-198678571D01*
X249880714Y-199535714D02*
X249952142Y-199607142D01*
X249880714Y-199678571D01*
X249809285Y-199607142D01*
X249880714Y-199535714D01*
X249880714Y-199678571D01*
X249880714Y-198750000D02*
X249952142Y-198821428D01*
X249880714Y-198892857D01*
X249809285Y-198821428D01*
X249880714Y-198750000D01*
X249880714Y-198892857D01*
X252023571Y-198178571D02*
X252166428Y-198178571D01*
X252309285Y-198250000D01*
X252380714Y-198321428D01*
X252452142Y-198464285D01*
X252523571Y-198750000D01*
X252523571Y-199107142D01*
X252452142Y-199392857D01*
X252380714Y-199535714D01*
X252309285Y-199607142D01*
X252166428Y-199678571D01*
X252023571Y-199678571D01*
X251880714Y-199607142D01*
X251809285Y-199535714D01*
X251737857Y-199392857D01*
X251666428Y-199107142D01*
X251666428Y-198750000D01*
X251737857Y-198464285D01*
X251809285Y-198321428D01*
X251880714Y-198250000D01*
X252023571Y-198178571D01*
X253952142Y-199678571D02*
X253095000Y-199678571D01*
X253523571Y-199678571D02*
X253523571Y-198178571D01*
X253380714Y-198392857D01*
X253237857Y-198535714D01*
X253095000Y-198607142D01*
D10*
D11*
X160760714Y-199607142D02*
X160975000Y-199678571D01*
X161332142Y-199678571D01*
X161475000Y-199607142D01*
X161546428Y-199535714D01*
X161617857Y-199392857D01*
X161617857Y-199250000D01*
X161546428Y-199107142D01*
X161475000Y-199035714D01*
X161332142Y-198964285D01*
X161046428Y-198892857D01*
X160903571Y-198821428D01*
X160832142Y-198750000D01*
X160760714Y-198607142D01*
X160760714Y-198464285D01*
X160832142Y-198321428D01*
X160903571Y-198250000D01*
X161046428Y-198178571D01*
X161403571Y-198178571D01*
X161617857Y-198250000D01*
X162260714Y-199678571D02*
X162260714Y-198678571D01*
X162260714Y-198178571D02*
X162189285Y-198250000D01*
X162260714Y-198321428D01*
X162332142Y-198250000D01*
X162260714Y-198178571D01*
X162260714Y-198321428D01*
X162832142Y-198678571D02*
X163617857Y-198678571D01*
X162832142Y-199678571D01*
X163617857Y-199678571D01*
X164760714Y-199607142D02*
X164617857Y-199678571D01*
X164332142Y-199678571D01*
X164189285Y-199607142D01*
X164117857Y-199464285D01*
X164117857Y-198892857D01*
X164189285Y-198750000D01*
X164332142Y-198678571D01*
X164617857Y-198678571D01*
X164760714Y-198750000D01*
X164832142Y-198892857D01*
X164832142Y-199035714D01*
X164117857Y-199178571D01*
X165475000Y-199535714D02*
X165546428Y-199607142D01*
X165475000Y-199678571D01*
X165403571Y-199607142D01*
X165475000Y-199535714D01*
X165475000Y-199678571D01*
X165475000Y-198750000D02*
X165546428Y-198821428D01*
X165475000Y-198892857D01*
X165403571Y-198821428D01*
X165475000Y-198750000D01*
X165475000Y-198892857D01*
X167332142Y-198178571D02*
X167332142Y-199392857D01*
X167403571Y-199535714D01*
X167475000Y-199607142D01*
X167617857Y-199678571D01*
X167903571Y-199678571D01*
X168046428Y-199607142D01*
X168117857Y-199535714D01*
X168189285Y-199392857D01*
X168189285Y-198178571D01*
X168832142Y-199607142D02*
X169046428Y-199678571D01*
X169403571Y-199678571D01*
X169546428Y-199607142D01*
X169617857Y-199535714D01*
X169689285Y-199392857D01*
X169689285Y-199250000D01*
X169617857Y-199107142D01*
X169546428Y-199035714D01*
X169403571Y-198964285D01*
X169117857Y-198892857D01*
X168975000Y-198821428D01*
X168903571Y-198750000D01*
X168832142Y-198607142D01*
X168832142Y-198464285D01*
X168903571Y-198321428D01*
X168975000Y-198250000D01*
X169117857Y-198178571D01*
X169475000Y-198178571D01*
X169689285Y-198250000D01*
X171046428Y-199678571D02*
X170332142Y-199678571D01*
X170332142Y-198178571D01*
X172117857Y-199607142D02*
X171975000Y-199678571D01*
X171689285Y-199678571D01*
X171546428Y-199607142D01*
X171475000Y-199464285D01*
X171475000Y-198892857D01*
X171546428Y-198750000D01*
X171689285Y-198678571D01*
X171975000Y-198678571D01*
X172117857Y-198750000D01*
X172189285Y-198892857D01*
X172189285Y-199035714D01*
X171475000Y-199178571D01*
X172617857Y-198678571D02*
X173189285Y-198678571D01*
X172832142Y-198178571D02*
X172832142Y-199464285D01*
X172903571Y-199607142D01*
X173046428Y-199678571D01*
X173189285Y-199678571D01*
X173475000Y-198678571D02*
X174046428Y-198678571D01*
X173689285Y-198178571D02*
X173689285Y-199464285D01*
X173760714Y-199607142D01*
X173903571Y-199678571D01*
X174046428Y-199678571D01*
X175117857Y-199607142D02*
X174975000Y-199678571D01*
X174689285Y-199678571D01*
X174546428Y-199607142D01*
X174475000Y-199464285D01*
X174475000Y-198892857D01*
X174546428Y-198750000D01*
X174689285Y-198678571D01*
X174975000Y-198678571D01*
X175117857Y-198750000D01*
X175189285Y-198892857D01*
X175189285Y-199035714D01*
X174475000Y-199178571D01*
X175832142Y-199678571D02*
X175832142Y-198678571D01*
X175832142Y-198964285D02*
X175903571Y-198821428D01*
X175975000Y-198750000D01*
X176117857Y-198678571D01*
X176260714Y-198678571D01*
D10*
D11*
X245832142Y-202478571D02*
X245832142Y-200978571D01*
X247189285Y-202478571D02*
X247189285Y-200978571D01*
X247189285Y-202407142D02*
X247046428Y-202478571D01*
X246760714Y-202478571D01*
X246617857Y-202407142D01*
X246546428Y-202335714D01*
X246475000Y-202192857D01*
X246475000Y-201764285D01*
X246546428Y-201621428D01*
X246617857Y-201550000D01*
X246760714Y-201478571D01*
X247046428Y-201478571D01*
X247189285Y-201550000D01*
X247903571Y-202335714D02*
X247975000Y-202407142D01*
X247903571Y-202478571D01*
X247832142Y-202407142D01*
X247903571Y-202335714D01*
X247903571Y-202478571D01*
X247903571Y-201550000D02*
X247975000Y-201621428D01*
X247903571Y-201692857D01*
X247832142Y-201621428D01*
X247903571Y-201550000D01*
X247903571Y-201692857D01*
X250546428Y-202478571D02*
X249689285Y-202478571D01*
X250117857Y-202478571D02*
X250117857Y-200978571D01*
X249975000Y-201192857D01*
X249832142Y-201335714D01*
X249689285Y-201407142D01*
X252260714Y-200907142D02*
X250975000Y-202835714D01*
X253546428Y-202478571D02*
X252689285Y-202478571D01*
X253117857Y-202478571D02*
X253117857Y-200978571D01*
X252975000Y-201192857D01*
X252832142Y-201335714D01*
X252689285Y-201407142D01*
D10*
D11*
X159400000Y-193400000D02*
X267400000Y-193400000D01*
D10*
D13*
X161112380Y-194104761D02*
X162255238Y-194104761D01*
X161433809Y-196104761D02*
X161683809Y-194104761D01*
X162671904Y-196104761D02*
X162838571Y-194771428D01*
X162921904Y-194104761D02*
X162814761Y-194200000D01*
X162898095Y-194295238D01*
X163005238Y-194200000D01*
X162921904Y-194104761D01*
X162898095Y-194295238D01*
X163505238Y-194771428D02*
X164267142Y-194771428D01*
X163874285Y-194104761D02*
X163660000Y-195819047D01*
X163731428Y-196009523D01*
X163910000Y-196104761D01*
X164100476Y-196104761D01*
X165052857Y-196104761D02*
X164874285Y-196009523D01*
X164802857Y-195819047D01*
X165017142Y-194104761D01*
X166588571Y-196009523D02*
X166386190Y-196104761D01*
X166005238Y-196104761D01*
X165826666Y-196009523D01*
X165755238Y-195819047D01*
X165850476Y-195057142D01*
X165969523Y-194866666D01*
X166171904Y-194771428D01*
X166552857Y-194771428D01*
X166731428Y-194866666D01*
X166802857Y-195057142D01*
X166779047Y-195247619D01*
X165802857Y-195438095D01*
X167552857Y-195914285D02*
X167636190Y-196009523D01*
X167529047Y-196104761D01*
X167445714Y-196009523D01*
X167552857Y-195914285D01*
X167529047Y-196104761D01*
X167683809Y-194866666D02*
X167767142Y-194961904D01*
X167660000Y-195057142D01*
X167576666Y-194961904D01*
X167683809Y-194866666D01*
X167660000Y-195057142D01*
X170005238Y-196104761D02*
X170255238Y-194104761D01*
X171017142Y-194104761D01*
X171195714Y-194200000D01*
X171279047Y-194295238D01*
X171350476Y-194485714D01*
X171314761Y-194771428D01*
X171195714Y-194961904D01*
X171088571Y-195057142D01*
X170886190Y-195152380D01*
X170124285Y-195152380D01*
X173171904Y-195914285D02*
X173064761Y-196009523D01*
X172767142Y-196104761D01*
X172576666Y-196104761D01*
X172302857Y-196009523D01*
X172136190Y-195819047D01*
X172064761Y-195628571D01*
X172017142Y-195247619D01*
X172052857Y-194961904D01*
X172195714Y-194580952D01*
X172314761Y-194390476D01*
X172529047Y-194200000D01*
X172826666Y-194104761D01*
X173017142Y-194104761D01*
X173290952Y-194200000D01*
X173374285Y-194295238D01*
X174802857Y-195057142D02*
X175076666Y-195152380D01*
X175160000Y-195247619D01*
X175231428Y-195438095D01*
X175195714Y-195723809D01*
X175076666Y-195914285D01*
X174969523Y-196009523D01*
X174767142Y-196104761D01*
X174005238Y-196104761D01*
X174255238Y-194104761D01*
X174921904Y-194104761D01*
X175100476Y-194200000D01*
X175183809Y-194295238D01*
X175255238Y-194485714D01*
X175231428Y-194676190D01*
X175112380Y-194866666D01*
X175005238Y-194961904D01*
X174802857Y-195057142D01*
X174136190Y-195057142D01*
X177814761Y-196104761D02*
X177636190Y-196009523D01*
X177564761Y-195819047D01*
X177779047Y-194104761D01*
X178576666Y-196104761D02*
X178743333Y-194771428D01*
X178719523Y-194961904D02*
X178826666Y-194866666D01*
X179029047Y-194771428D01*
X179314761Y-194771428D01*
X179493333Y-194866666D01*
X179564761Y-195057142D01*
X179433809Y-196104761D01*
X179564761Y-195057142D02*
X179683809Y-194866666D01*
X179886190Y-194771428D01*
X180171904Y-194771428D01*
X180350476Y-194866666D01*
X180421904Y-195057142D01*
X180290952Y-196104761D01*
X181302857Y-194104761D02*
X182540952Y-194104761D01*
X181779047Y-194866666D01*
X182064761Y-194866666D01*
X182243333Y-194961904D01*
X182326666Y-195057142D01*
X182398095Y-195247619D01*
X182338571Y-195723809D01*
X182219523Y-195914285D01*
X182112380Y-196009523D01*
X181910000Y-196104761D01*
X181338571Y-196104761D01*
X181160000Y-196009523D01*
X181076666Y-195914285D01*
X184195714Y-196104761D02*
X183052857Y-196104761D01*
X183624285Y-196104761D02*
X183874285Y-194104761D01*
X183648095Y-194390476D01*
X183433809Y-194580952D01*
X183231428Y-194676190D01*
X185112380Y-194104761D02*
X186445714Y-194104761D01*
X185338571Y-196104761D01*
D10*
D11*
X161332142Y-191492857D02*
X160832142Y-191492857D01*
X160832142Y-192278571D02*
X160832142Y-190778571D01*
X161546428Y-190778571D01*
X162117857Y-192278571D02*
X162117857Y-191278571D01*
X162117857Y-190778571D02*
X162046428Y-190850000D01*
X162117857Y-190921428D01*
X162189285Y-190850000D01*
X162117857Y-190778571D01*
X162117857Y-190921428D01*
X163046428Y-192278571D02*
X162903571Y-192207142D01*
X162832142Y-192064285D01*
X162832142Y-190778571D01*
X164189285Y-192207142D02*
X164046428Y-192278571D01*
X163760714Y-192278571D01*
X163617857Y-192207142D01*
X163546428Y-192064285D01*
X163546428Y-191492857D01*
X163617857Y-191350000D01*
X163760714Y-191278571D01*
X164046428Y-191278571D01*
X164189285Y-191350000D01*
X164260714Y-191492857D01*
X164260714Y-191635714D01*
X163546428Y-191778571D01*
X164903571Y-192135714D02*
X164975000Y-192207142D01*
X164903571Y-192278571D01*
X164832142Y-192207142D01*
X164903571Y-192135714D01*
X164903571Y-192278571D01*
X164903571Y-191350000D02*
X164975000Y-191421428D01*
X164903571Y-191492857D01*
X164832142Y-191421428D01*
X164903571Y-191350000D01*
X164903571Y-191492857D01*
X166975000Y-192278571D02*
X166832142Y-192207142D01*
X166760714Y-192064285D01*
X166760714Y-190778571D01*
X167546428Y-192278571D02*
X167546428Y-191278571D01*
X167546428Y-191421428D02*
X167617857Y-191350000D01*
X167760714Y-191278571D01*
X167975000Y-191278571D01*
X168117857Y-191350000D01*
X168189285Y-191492857D01*
X168189285Y-192278571D01*
X168189285Y-191492857D02*
X168260714Y-191350000D01*
X168403571Y-191278571D01*
X168617857Y-191278571D01*
X168760714Y-191350000D01*
X168832142Y-191492857D01*
X168832142Y-192278571D01*
X169403571Y-190778571D02*
X170332142Y-190778571D01*
X169832142Y-191350000D01*
X170046428Y-191350000D01*
X170189285Y-191421428D01*
X170260714Y-191492857D01*
X170332142Y-191635714D01*
X170332142Y-191992857D01*
X170260714Y-192135714D01*
X170189285Y-192207142D01*
X170046428Y-192278571D01*
X169617857Y-192278571D01*
X169475000Y-192207142D01*
X169403571Y-192135714D01*
X171760714Y-192278571D02*
X170903571Y-192278571D01*
X171332142Y-192278571D02*
X171332142Y-190778571D01*
X171189285Y-190992857D01*
X171046428Y-191135714D01*
X170903571Y-191207142D01*
X172260714Y-190778571D02*
X173260714Y-190778571D01*
X172617857Y-192278571D01*
X173832142Y-192135714D02*
X173903571Y-192207142D01*
X173832142Y-192278571D01*
X173760714Y-192207142D01*
X173832142Y-192135714D01*
X173832142Y-192278571D01*
X174546428Y-192278571D02*
X174546428Y-190778571D01*
X174689285Y-191707142D02*
X175117857Y-192278571D01*
X175117857Y-191278571D02*
X174546428Y-191850000D01*
X175760714Y-192278571D02*
X175760714Y-191278571D01*
X175760714Y-190778571D02*
X175689285Y-190850000D01*
X175760714Y-190921428D01*
X175832142Y-190850000D01*
X175760714Y-190778571D01*
X175760714Y-190921428D01*
X177117857Y-192207142D02*
X176975000Y-192278571D01*
X176689285Y-192278571D01*
X176546428Y-192207142D01*
X176475000Y-192135714D01*
X176403571Y-191992857D01*
X176403571Y-191564285D01*
X176475000Y-191421428D01*
X176546428Y-191350000D01*
X176689285Y-191278571D01*
X176975000Y-191278571D01*
X177117857Y-191350000D01*
X178403571Y-192278571D02*
X178403571Y-191492857D01*
X178332142Y-191350000D01*
X178189285Y-191278571D01*
X177903571Y-191278571D01*
X177760714Y-191350000D01*
X178403571Y-192207142D02*
X178260714Y-192278571D01*
X177903571Y-192278571D01*
X177760714Y-192207142D01*
X177689285Y-192064285D01*
X177689285Y-191921428D01*
X177760714Y-191778571D01*
X177903571Y-191707142D01*
X178260714Y-191707142D01*
X178403571Y-191635714D01*
X179760714Y-192278571D02*
X179760714Y-190778571D01*
X179760714Y-192207142D02*
X179617857Y-192278571D01*
X179332142Y-192278571D01*
X179189285Y-192207142D01*
X179117857Y-192135714D01*
X179046428Y-191992857D01*
X179046428Y-191564285D01*
X179117857Y-191421428D01*
X179189285Y-191350000D01*
X179332142Y-191278571D01*
X179617857Y-191278571D01*
X179760714Y-191350000D01*
X180117857Y-192421428D02*
X181260714Y-192421428D01*
X181617857Y-191278571D02*
X181617857Y-192778571D01*
X181617857Y-191350000D02*
X181760714Y-191278571D01*
X182046428Y-191278571D01*
X182189285Y-191350000D01*
X182260714Y-191421428D01*
X182332142Y-191564285D01*
X182332142Y-191992857D01*
X182260714Y-192135714D01*
X182189285Y-192207142D01*
X182046428Y-192278571D01*
X181760714Y-192278571D01*
X181617857Y-192207142D01*
X183617857Y-192207142D02*
X183475000Y-192278571D01*
X183189285Y-192278571D01*
X183046428Y-192207142D01*
X182975000Y-192135714D01*
X182903571Y-191992857D01*
X182903571Y-191564285D01*
X182975000Y-191421428D01*
X183046428Y-191350000D01*
X183189285Y-191278571D01*
X183475000Y-191278571D01*
X183617857Y-191350000D01*
X184260714Y-192278571D02*
X184260714Y-190778571D01*
X184260714Y-191350000D02*
X184403571Y-191278571D01*
X184689285Y-191278571D01*
X184832142Y-191350000D01*
X184903571Y-191421428D01*
X184975000Y-191564285D01*
X184975000Y-191992857D01*
X184903571Y-192135714D01*
X184832142Y-192207142D01*
X184689285Y-192278571D01*
X184403571Y-192278571D01*
X184260714Y-192207142D01*
D10*
D11*
X159400000Y-187400000D02*
X267400000Y-187400000D01*
D10*
D11*
X160760714Y-189507142D02*
X160975000Y-189578571D01*
X161332142Y-189578571D01*
X161475000Y-189507142D01*
X161546428Y-189435714D01*
X161617857Y-189292857D01*
X161617857Y-189150000D01*
X161546428Y-189007142D01*
X161475000Y-188935714D01*
X161332142Y-188864285D01*
X161046428Y-188792857D01*
X160903571Y-188721428D01*
X160832142Y-188650000D01*
X160760714Y-188507142D01*
X160760714Y-188364285D01*
X160832142Y-188221428D01*
X160903571Y-188150000D01*
X161046428Y-188078571D01*
X161403571Y-188078571D01*
X161617857Y-188150000D01*
X162260714Y-189578571D02*
X162260714Y-188078571D01*
X162903571Y-189578571D02*
X162903571Y-188792857D01*
X162832142Y-188650000D01*
X162689285Y-188578571D01*
X162475000Y-188578571D01*
X162332142Y-188650000D01*
X162260714Y-188721428D01*
X164189285Y-189507142D02*
X164046428Y-189578571D01*
X163760714Y-189578571D01*
X163617857Y-189507142D01*
X163546428Y-189364285D01*
X163546428Y-188792857D01*
X163617857Y-188650000D01*
X163760714Y-188578571D01*
X164046428Y-188578571D01*
X164189285Y-188650000D01*
X164260714Y-188792857D01*
X164260714Y-188935714D01*
X163546428Y-189078571D01*
X165475000Y-189507142D02*
X165332142Y-189578571D01*
X165046428Y-189578571D01*
X164903571Y-189507142D01*
X164832142Y-189364285D01*
X164832142Y-188792857D01*
X164903571Y-188650000D01*
X165046428Y-188578571D01*
X165332142Y-188578571D01*
X165475000Y-188650000D01*
X165546428Y-188792857D01*
X165546428Y-188935714D01*
X164832142Y-189078571D01*
X165975000Y-188578571D02*
X166546428Y-188578571D01*
X166189285Y-188078571D02*
X166189285Y-189364285D01*
X166260714Y-189507142D01*
X166403571Y-189578571D01*
X166546428Y-189578571D01*
X167046428Y-189435714D02*
X167117857Y-189507142D01*
X167046428Y-189578571D01*
X166975000Y-189507142D01*
X167046428Y-189435714D01*
X167046428Y-189578571D01*
X167046428Y-188650000D02*
X167117857Y-188721428D01*
X167046428Y-188792857D01*
X166975000Y-188721428D01*
X167046428Y-188650000D01*
X167046428Y-188792857D01*
D10*
D12*
X160952142Y-186578571D02*
X160952142Y-185078571D01*
X161523571Y-185078571D01*
X161666428Y-185150000D01*
X161737857Y-185221428D01*
X161809285Y-185364285D01*
X161809285Y-185578571D01*
X161737857Y-185721428D01*
X161666428Y-185792857D01*
X161523571Y-185864285D01*
X160952142Y-185864285D01*
X163095000Y-186578571D02*
X163095000Y-185792857D01*
X163023571Y-185650000D01*
X162880714Y-185578571D01*
X162595000Y-185578571D01*
X162452142Y-185650000D01*
X163095000Y-186507142D02*
X162952142Y-186578571D01*
X162595000Y-186578571D01*
X162452142Y-186507142D01*
X162380714Y-186364285D01*
X162380714Y-186221428D01*
X162452142Y-186078571D01*
X162595000Y-186007142D01*
X162952142Y-186007142D01*
X163095000Y-185935714D01*
X163666428Y-185578571D02*
X164023571Y-186578571D01*
X164380714Y-185578571D01*
X165523571Y-186507142D02*
X165380714Y-186578571D01*
X165095000Y-186578571D01*
X164952142Y-186507142D01*
X164880714Y-186364285D01*
X164880714Y-185792857D01*
X164952142Y-185650000D01*
X165095000Y-185578571D01*
X165380714Y-185578571D01*
X165523571Y-185650000D01*
X165595000Y-185792857D01*
X165595000Y-185935714D01*
X164880714Y-186078571D01*
X166452142Y-186578571D02*
X166309285Y-186507142D01*
X166237857Y-186364285D01*
X166237857Y-185078571D01*
X168166428Y-185792857D02*
X168666428Y-185792857D01*
X168880714Y-186578571D02*
X168166428Y-186578571D01*
X168166428Y-185078571D01*
X168880714Y-185078571D01*
X169523571Y-186435714D02*
X169595000Y-186507142D01*
X169523571Y-186578571D01*
X169452142Y-186507142D01*
X169523571Y-186435714D01*
X169523571Y-186578571D01*
X171166428Y-185078571D02*
X171666428Y-186578571D01*
X172166428Y-185078571D01*
X173309285Y-186578571D02*
X173309285Y-185792857D01*
X173237857Y-185650000D01*
X173095000Y-185578571D01*
X172809285Y-185578571D01*
X172666428Y-185650000D01*
X173309285Y-186507142D02*
X173166428Y-186578571D01*
X172809285Y-186578571D01*
X172666428Y-186507142D01*
X172595000Y-186364285D01*
X172595000Y-186221428D01*
X172666428Y-186078571D01*
X172809285Y-186007142D01*
X173166428Y-186007142D01*
X173309285Y-185935714D01*
X173095000Y-185007142D02*
X172880714Y-185221428D01*
X173880714Y-185578571D02*
X174666428Y-185578571D01*
X173880714Y-186578571D01*
X174666428Y-186578571D01*
X175880714Y-185578571D02*
X175880714Y-187078571D01*
X175880714Y-186507142D02*
X175737857Y-186578571D01*
X175452142Y-186578571D01*
X175309285Y-186507142D01*
X175237857Y-186435714D01*
X175166428Y-186292857D01*
X175166428Y-185864285D01*
X175237857Y-185721428D01*
X175309285Y-185650000D01*
X175452142Y-185578571D01*
X175737857Y-185578571D01*
X175880714Y-185650000D01*
X177237857Y-185578571D02*
X177237857Y-186578571D01*
X176595000Y-185578571D02*
X176595000Y-186364285D01*
X176666428Y-186507142D01*
X176809285Y-186578571D01*
X177023571Y-186578571D01*
X177166428Y-186507142D01*
X177237857Y-186435714D01*
X178523571Y-186507142D02*
X178380714Y-186578571D01*
X178095000Y-186578571D01*
X177952142Y-186507142D01*
X177880714Y-186364285D01*
X177880714Y-185792857D01*
X177952142Y-185650000D01*
X178095000Y-185578571D01*
X178380714Y-185578571D01*
X178523571Y-185650000D01*
X178595000Y-185792857D01*
X178595000Y-185935714D01*
X177880714Y-186078571D01*
X179095000Y-185578571D02*
X179880714Y-185578571D01*
X179095000Y-186578571D01*
X179880714Y-186578571D01*
X181595000Y-186578571D02*
X181595000Y-185078571D01*
X182095000Y-186150000D01*
X182595000Y-185078571D01*
X182595000Y-186578571D01*
X183952142Y-186578571D02*
X183952142Y-185792857D01*
X183880714Y-185650000D01*
X183737857Y-185578571D01*
X183452142Y-185578571D01*
X183309285Y-185650000D01*
X183952142Y-186507142D02*
X183809285Y-186578571D01*
X183452142Y-186578571D01*
X183309285Y-186507142D01*
X183237857Y-186364285D01*
X183237857Y-186221428D01*
X183309285Y-186078571D01*
X183452142Y-186007142D01*
X183809285Y-186007142D01*
X183952142Y-185935714D01*
X184666428Y-186578571D02*
X184666428Y-185578571D01*
X184666428Y-185864285D02*
X184737857Y-185721428D01*
X184809285Y-185650000D01*
X184952142Y-185578571D01*
X185095000Y-185578571D01*
X185380714Y-185578571D02*
X185952142Y-185578571D01*
X185595000Y-185078571D02*
X185595000Y-186364285D01*
X185666428Y-186507142D01*
X185809285Y-186578571D01*
X185952142Y-186578571D01*
X186452142Y-186578571D02*
X186452142Y-185578571D01*
X186595000Y-185007142D02*
X186380714Y-185221428D01*
X187166428Y-185578571D02*
X187166428Y-186578571D01*
X187166428Y-185721428D02*
X187237857Y-185650000D01*
X187380714Y-185578571D01*
X187595000Y-185578571D01*
X187737857Y-185650000D01*
X187809285Y-185792857D01*
X187809285Y-186578571D01*
X189095000Y-186507142D02*
X188952142Y-186578571D01*
X188666428Y-186578571D01*
X188523571Y-186507142D01*
X188452142Y-186364285D01*
X188452142Y-185792857D01*
X188523571Y-185650000D01*
X188666428Y-185578571D01*
X188952142Y-185578571D01*
X189095000Y-185650000D01*
X189166428Y-185792857D01*
X189166428Y-185935714D01*
X188452142Y-186078571D01*
X189666428Y-185578571D02*
X190452142Y-185578571D01*
X189666428Y-186578571D01*
X190452142Y-186578571D01*
D10*
D11*
X160832142Y-182578571D02*
X160832142Y-184078571D01*
X160832142Y-182650000D02*
X160975000Y-182578571D01*
X161260714Y-182578571D01*
X161403571Y-182650000D01*
X161475000Y-182721428D01*
X161546428Y-182864285D01*
X161546428Y-183292857D01*
X161475000Y-183435714D01*
X161403571Y-183507142D01*
X161260714Y-183578571D01*
X160975000Y-183578571D01*
X160832142Y-183507142D01*
X162832142Y-183578571D02*
X162832142Y-182792857D01*
X162760714Y-182650000D01*
X162617857Y-182578571D01*
X162332142Y-182578571D01*
X162189285Y-182650000D01*
X162832142Y-183507142D02*
X162689285Y-183578571D01*
X162332142Y-183578571D01*
X162189285Y-183507142D01*
X162117857Y-183364285D01*
X162117857Y-183221428D01*
X162189285Y-183078571D01*
X162332142Y-183007142D01*
X162689285Y-183007142D01*
X162832142Y-182935714D01*
X163403571Y-182578571D02*
X163760714Y-183578571D01*
X164117857Y-182578571D01*
X165260714Y-183507142D02*
X165117857Y-183578571D01*
X164832142Y-183578571D01*
X164689285Y-183507142D01*
X164617857Y-183364285D01*
X164617857Y-182792857D01*
X164689285Y-182650000D01*
X164832142Y-182578571D01*
X165117857Y-182578571D01*
X165260714Y-182650000D01*
X165332142Y-182792857D01*
X165332142Y-182935714D01*
X164617857Y-183078571D01*
X166189285Y-183578571D02*
X166046428Y-183507142D01*
X165975000Y-183364285D01*
X165975000Y-182078571D01*
X166403571Y-183721428D02*
X167546428Y-183721428D01*
X168475000Y-183507142D02*
X168332142Y-183578571D01*
X168046428Y-183578571D01*
X167903571Y-183507142D01*
X167832142Y-183364285D01*
X167832142Y-182792857D01*
X167903571Y-182650000D01*
X168046428Y-182578571D01*
X168332142Y-182578571D01*
X168475000Y-182650000D01*
X168546428Y-182792857D01*
X168546428Y-182935714D01*
X167832142Y-183078571D01*
X170117857Y-182864285D02*
X170046428Y-182792857D01*
X169903571Y-182721428D01*
X169760714Y-182721428D01*
X169617857Y-182792857D01*
X169546428Y-182864285D01*
X169475000Y-183007142D01*
X169475000Y-183150000D01*
X169546428Y-183292857D01*
X169617857Y-183364285D01*
X169760714Y-183435714D01*
X169903571Y-183435714D01*
X170046428Y-183364285D01*
X170117857Y-183292857D01*
X170117857Y-182721428D02*
X170117857Y-183292857D01*
X170189285Y-183364285D01*
X170260714Y-183364285D01*
X170403571Y-183292857D01*
X170475000Y-183150000D01*
X170475000Y-182792857D01*
X170332142Y-182578571D01*
X170117857Y-182435714D01*
X169832142Y-182364285D01*
X169546428Y-182435714D01*
X169332142Y-182578571D01*
X169189285Y-182792857D01*
X169117857Y-183078571D01*
X169189285Y-183364285D01*
X169332142Y-183578571D01*
X169546428Y-183721428D01*
X169832142Y-183792857D01*
X170117857Y-183721428D01*
X170332142Y-183578571D01*
X171117857Y-183578571D02*
X171117857Y-182578571D01*
X171117857Y-182864285D02*
X171189285Y-182721428D01*
X171260714Y-182650000D01*
X171403571Y-182578571D01*
X171546428Y-182578571D01*
X172046428Y-183578571D02*
X172046428Y-182578571D01*
X172046428Y-182078571D02*
X171975000Y-182150000D01*
X172046428Y-182221428D01*
X172117857Y-182150000D01*
X172046428Y-182078571D01*
X172046428Y-182221428D01*
X172689285Y-183507142D02*
X172832142Y-183578571D01*
X173117857Y-183578571D01*
X173260714Y-183507142D01*
X173332142Y-183364285D01*
X173332142Y-183292857D01*
X173260714Y-183150000D01*
X173117857Y-183078571D01*
X172903571Y-183078571D01*
X172760714Y-183007142D01*
X172689285Y-182864285D01*
X172689285Y-182792857D01*
X172760714Y-182650000D01*
X172903571Y-182578571D01*
X173117857Y-182578571D01*
X173260714Y-182650000D01*
X174546428Y-183507142D02*
X174403571Y-183578571D01*
X174117857Y-183578571D01*
X173975000Y-183507142D01*
X173903571Y-183364285D01*
X173903571Y-182792857D01*
X173975000Y-182650000D01*
X174117857Y-182578571D01*
X174403571Y-182578571D01*
X174546428Y-182650000D01*
X174617857Y-182792857D01*
X174617857Y-182935714D01*
X173903571Y-183078571D01*
X175903571Y-182578571D02*
X175903571Y-183578571D01*
X175260714Y-182578571D02*
X175260714Y-183364285D01*
X175332142Y-183507142D01*
X175475000Y-183578571D01*
X175689285Y-183578571D01*
X175832142Y-183507142D01*
X175903571Y-183435714D01*
X176617857Y-182578571D02*
X176617857Y-184078571D01*
X176617857Y-182650000D02*
X176760714Y-182578571D01*
X177046428Y-182578571D01*
X177189285Y-182650000D01*
X177260714Y-182721428D01*
X177332142Y-182864285D01*
X177332142Y-183292857D01*
X177260714Y-183435714D01*
X177189285Y-183507142D01*
X177046428Y-183578571D01*
X176760714Y-183578571D01*
X176617857Y-183507142D01*
X177975000Y-183435714D02*
X178046428Y-183507142D01*
X177975000Y-183578571D01*
X177903571Y-183507142D01*
X177975000Y-183435714D01*
X177975000Y-183578571D01*
X178689285Y-182578571D02*
X178689285Y-183578571D01*
X178689285Y-182721428D02*
X178760714Y-182650000D01*
X178903571Y-182578571D01*
X179117857Y-182578571D01*
X179260714Y-182650000D01*
X179332142Y-182792857D01*
X179332142Y-183578571D01*
X180617857Y-183507142D02*
X180475000Y-183578571D01*
X180189285Y-183578571D01*
X180046428Y-183507142D01*
X179975000Y-183364285D01*
X179975000Y-182792857D01*
X180046428Y-182650000D01*
X180189285Y-182578571D01*
X180475000Y-182578571D01*
X180617857Y-182650000D01*
X180689285Y-182792857D01*
X180689285Y-182935714D01*
X179975000Y-183078571D01*
X181117857Y-182578571D02*
X181689285Y-182578571D01*
X181332142Y-182078571D02*
X181332142Y-183364285D01*
X181403571Y-183507142D01*
X181546428Y-183578571D01*
X181689285Y-183578571D01*
D10*
D11*
X179400000Y-197400000D02*
X179400000Y-200400000D01*
D10*
D11*
X243400000Y-197400000D02*
X243400000Y-203900000D01*
D14*
X98200000Y-115350000D02*
X98200000Y-79450000D01*
X154200000Y-115350000D02*
X98200000Y-115350000D01*
X154200000Y-79450000D02*
X154200000Y-115350000D01*
X98200000Y-79450000D02*
X154200000Y-79450000D01*
D11*
X122852380Y-81385714D02*
X122852380Y-82195238D01*
X122804761Y-82290476D01*
X122757142Y-82338095D01*
X122661904Y-82385714D01*
X122519047Y-82385714D01*
X122423809Y-82338095D01*
X122852380Y-82004761D02*
X122757142Y-82052380D01*
X122566666Y-82052380D01*
X122471428Y-82004761D01*
X122423809Y-81957142D01*
X122376190Y-81861904D01*
X122376190Y-81576190D01*
X122423809Y-81480952D01*
X122471428Y-81433333D01*
X122566666Y-81385714D01*
X122757142Y-81385714D01*
X122852380Y-81433333D01*
X123328571Y-82052380D02*
X123328571Y-81385714D01*
X123328571Y-81052380D02*
X123280952Y-81100000D01*
X123328571Y-81147619D01*
X123376190Y-81100000D01*
X123328571Y-81052380D01*
X123328571Y-81147619D01*
X123661904Y-81385714D02*
X124042857Y-81385714D01*
X123804761Y-81052380D02*
X123804761Y-81909523D01*
X123852380Y-82004761D01*
X123947619Y-82052380D01*
X124042857Y-82052380D01*
X124519047Y-82052380D02*
X124423809Y-82004761D01*
X124376190Y-81909523D01*
X124376190Y-81052380D01*
X125328571Y-82052380D02*
X125328571Y-81528571D01*
X125280952Y-81433333D01*
X125185714Y-81385714D01*
X124995238Y-81385714D01*
X124900000Y-81433333D01*
X125328571Y-82004761D02*
X125233333Y-82052380D01*
X124995238Y-82052380D01*
X124900000Y-82004761D01*
X124852380Y-81909523D01*
X124852380Y-81814285D01*
X124900000Y-81719047D01*
X124995238Y-81671428D01*
X125233333Y-81671428D01*
X125328571Y-81623809D01*
X125804761Y-82052380D02*
X125804761Y-81052380D01*
X125804761Y-81433333D02*
X125900000Y-81385714D01*
X126090476Y-81385714D01*
X126185714Y-81433333D01*
X126233333Y-81480952D01*
X126280952Y-81576190D01*
X126280952Y-81861904D01*
X126233333Y-81957142D01*
X126185714Y-82004761D01*
X126090476Y-82052380D01*
X125900000Y-82052380D01*
X125804761Y-82004761D01*
X126709523Y-81957142D02*
X126757142Y-82004761D01*
X126709523Y-82052380D01*
X126661904Y-82004761D01*
X126709523Y-81957142D01*
X126709523Y-82052380D01*
X127614285Y-82004761D02*
X127519047Y-82052380D01*
X127328571Y-82052380D01*
X127233333Y-82004761D01*
X127185714Y-81957142D01*
X127138095Y-81861904D01*
X127138095Y-81576190D01*
X127185714Y-81480952D01*
X127233333Y-81433333D01*
X127328571Y-81385714D01*
X127519047Y-81385714D01*
X127614285Y-81433333D01*
X128185714Y-82052380D02*
X128090476Y-82004761D01*
X128042857Y-81957142D01*
X127995238Y-81861904D01*
X127995238Y-81576190D01*
X128042857Y-81480952D01*
X128090476Y-81433333D01*
X128185714Y-81385714D01*
X128328571Y-81385714D01*
X128423809Y-81433333D01*
X128471428Y-81480952D01*
X128519047Y-81576190D01*
X128519047Y-81861904D01*
X128471428Y-81957142D01*
X128423809Y-82004761D01*
X128328571Y-82052380D01*
X128185714Y-82052380D01*
X128947619Y-82052380D02*
X128947619Y-81385714D01*
X128947619Y-81480952D02*
X128995238Y-81433333D01*
X129090476Y-81385714D01*
X129233333Y-81385714D01*
X129328571Y-81433333D01*
X129376190Y-81528571D01*
X129376190Y-82052380D01*
X129376190Y-81528571D02*
X129423809Y-81433333D01*
X129519047Y-81385714D01*
X129661904Y-81385714D01*
X129757142Y-81433333D01*
X129804761Y-81528571D01*
X129804761Y-82052380D01*
X130995238Y-81004761D02*
X130138095Y-82290476D01*
X131757142Y-82052380D02*
X131757142Y-81052380D01*
X131757142Y-82004761D02*
X131661904Y-82052380D01*
X131471428Y-82052380D01*
X131376190Y-82004761D01*
X131328571Y-81957142D01*
X131280952Y-81861904D01*
X131280952Y-81576190D01*
X131328571Y-81480952D01*
X131376190Y-81433333D01*
X131471428Y-81385714D01*
X131661904Y-81385714D01*
X131757142Y-81433333D01*
X132233333Y-81385714D02*
X132233333Y-82385714D01*
X132233333Y-81433333D02*
X132328571Y-81385714D01*
X132519047Y-81385714D01*
X132614285Y-81433333D01*
X132661904Y-81480952D01*
X132709523Y-81576190D01*
X132709523Y-81861904D01*
X132661904Y-81957142D01*
X132614285Y-82004761D01*
X132519047Y-82052380D01*
X132328571Y-82052380D01*
X132233333Y-82004761D01*
X133042857Y-81385714D02*
X133233333Y-82052380D01*
X133423809Y-81576190D01*
X133614285Y-82052380D01*
X133804761Y-81385714D01*
X134709523Y-82052380D02*
X134138095Y-82052380D01*
X134423809Y-82052380D02*
X134423809Y-81052380D01*
X134328571Y-81195238D01*
X134233333Y-81290476D01*
X134138095Y-81338095D01*
X135185714Y-82052380D02*
X135376190Y-82052380D01*
X135471428Y-82004761D01*
X135519047Y-81957142D01*
X135614285Y-81814285D01*
X135661904Y-81623809D01*
X135661904Y-81242857D01*
X135614285Y-81147619D01*
X135566666Y-81100000D01*
X135471428Y-81052380D01*
X135280952Y-81052380D01*
X135185714Y-81100000D01*
X135138095Y-81147619D01*
X135090476Y-81242857D01*
X135090476Y-81480952D01*
X135138095Y-81576190D01*
X135185714Y-81623809D01*
X135280952Y-81671428D01*
X135471428Y-81671428D01*
X135566666Y-81623809D01*
X135614285Y-81576190D01*
X135661904Y-81480952D01*
X136804761Y-81004761D02*
X135947619Y-82290476D01*
X137280952Y-82052380D02*
X137185714Y-82004761D01*
X137138095Y-81909523D01*
X137138095Y-81052380D01*
X137661904Y-82052380D02*
X137661904Y-81385714D01*
X137661904Y-81480952D02*
X137709523Y-81433333D01*
X137804761Y-81385714D01*
X137947619Y-81385714D01*
X138042857Y-81433333D01*
X138090476Y-81528571D01*
X138090476Y-82052380D01*
X138090476Y-81528571D02*
X138138095Y-81433333D01*
X138233333Y-81385714D01*
X138376190Y-81385714D01*
X138471428Y-81433333D01*
X138519047Y-81528571D01*
X138519047Y-82052380D01*
X138900000Y-81052380D02*
X139519047Y-81052380D01*
X139185714Y-81433333D01*
X139328571Y-81433333D01*
X139423809Y-81480952D01*
X139471428Y-81528571D01*
X139519047Y-81623809D01*
X139519047Y-81861904D01*
X139471428Y-81957142D01*
X139423809Y-82004761D01*
X139328571Y-82052380D01*
X139042857Y-82052380D01*
X138947619Y-82004761D01*
X138900000Y-81957142D01*
X140471428Y-82052380D02*
X139900000Y-82052380D01*
X140185714Y-82052380D02*
X140185714Y-81052380D01*
X140090476Y-81195238D01*
X139995238Y-81290476D01*
X139900000Y-81338095D01*
X140804761Y-81052380D02*
X141471428Y-81052380D01*
X141042857Y-82052380D01*
D12*
X145050000Y-93457142D02*
X144978571Y-93385714D01*
X144764285Y-93242857D01*
X144621428Y-93171428D01*
X144407142Y-93100000D01*
X144050000Y-93028571D01*
X143764285Y-93028571D01*
X143407142Y-93100000D01*
X143192857Y-93171428D01*
X143050000Y-93242857D01*
X142835714Y-93385714D01*
X142764285Y-93457142D01*
X143907142Y-94028571D02*
X143907142Y-95171428D01*
X144478571Y-94600000D02*
X143335714Y-94600000D01*
X145050000Y-95742857D02*
X144978571Y-95814285D01*
X144764285Y-95957142D01*
X144621428Y-96028571D01*
X144407142Y-96100000D01*
X144050000Y-96171428D01*
X143764285Y-96171428D01*
X143407142Y-96100000D01*
X143192857Y-96028571D01*
X143050000Y-95957142D01*
X142835714Y-95814285D01*
X142764285Y-95742857D01*
X145050000Y-103657142D02*
X144978571Y-103585714D01*
X144764285Y-103442857D01*
X144621428Y-103371428D01*
X144407142Y-103300000D01*
X144050000Y-103228571D01*
X143764285Y-103228571D01*
X143407142Y-103300000D01*
X143192857Y-103371428D01*
X143050000Y-103442857D01*
X142835714Y-103585714D01*
X142764285Y-103657142D01*
X143907142Y-104228571D02*
X143907142Y-105371428D01*
X144478571Y-104800000D02*
X143335714Y-104800000D01*
X145050000Y-105942857D02*
X144978571Y-106014285D01*
X144764285Y-106157142D01*
X144621428Y-106228571D01*
X144407142Y-106300000D01*
X144050000Y-106371428D01*
X143764285Y-106371428D01*
X143407142Y-106300000D01*
X143192857Y-106228571D01*
X143050000Y-106157142D01*
X142835714Y-106014285D01*
X142764285Y-105942857D01*
D10*
X127490000Y-87850000D02*
X127490000Y-90550000D01*
X127690000Y-87850000D02*
X127690000Y-90550000D01*
X127590000Y-87850000D02*
X127590000Y-90550000D01*
X133220000Y-89200000D02*
X132010000Y-89200000D01*
X125600000Y-89200000D02*
X126810000Y-89200000D01*
X132010000Y-87850000D02*
X126810000Y-87850000D01*
X132010000Y-90550000D02*
X132010000Y-87850000D01*
X126810000Y-90550000D02*
X132010000Y-90550000D01*
X126810000Y-87850000D02*
X126810000Y-90550000D01*
X140337500Y-92866395D02*
X139837500Y-92866395D01*
X140087500Y-92616395D02*
X140087500Y-93116395D01*
X141500000Y-94750000D02*
G75*
G03*
X141500000Y-94750000I-2500000J0D01*
G01*
X103600000Y-94500000D02*
X108680000Y-94500000D01*
X105850000Y-94500000D02*
G75*
G03*
X105850000Y-94500000I-2250000J0D01*
G01*
X127490000Y-93050000D02*
X127490000Y-95750000D01*
X127690000Y-93050000D02*
X127690000Y-95750000D01*
X127590000Y-93050000D02*
X127590000Y-95750000D01*
X133220000Y-94400000D02*
X132010000Y-94400000D01*
X125600000Y-94400000D02*
X126810000Y-94400000D01*
X132010000Y-93050000D02*
X126810000Y-93050000D01*
X132010000Y-95750000D02*
X132010000Y-93050000D01*
X126810000Y-95750000D02*
X132010000Y-95750000D01*
X126810000Y-93050000D02*
X126810000Y-95750000D01*
X153700000Y-95600000D02*
X153700000Y-93600000D01*
X152700000Y-95600000D02*
X153700000Y-95600000D01*
X152700000Y-93600000D02*
X152700000Y-95600000D01*
X153700000Y-93600000D02*
X152700000Y-93600000D01*
X150538000Y-95555000D02*
X148445000Y-93463000D01*
X150355000Y-95738000D02*
X148262000Y-93646000D01*
X153700000Y-90600000D02*
X153700000Y-88600000D01*
X152700000Y-90600000D02*
X153700000Y-90600000D01*
X152700000Y-88600000D02*
X152700000Y-90600000D01*
X153700000Y-88600000D02*
X152700000Y-88600000D01*
X150538000Y-90555000D02*
X148445000Y-88462000D01*
X150355000Y-90738000D02*
X148262000Y-88645000D01*
X151700000Y-87100000D02*
X151700000Y-97100000D01*
X147400000Y-87100000D02*
X147400000Y-97100000D01*
X145900000Y-87100000D02*
X145900000Y-97100000D01*
X145900000Y-87100000D02*
X153700000Y-87100000D01*
X145400000Y-87600000D02*
X145900000Y-87100000D01*
X145400000Y-97100000D02*
X145400000Y-87600000D01*
X153700000Y-97100000D02*
X145400000Y-97100000D01*
X153700000Y-87100000D02*
X153700000Y-97100000D01*
X150900000Y-94600000D02*
G75*
G03*
X150900000Y-94600000I-1500000J0D01*
G01*
X150900000Y-89600000D02*
G75*
G03*
X150900000Y-89600000I-1500000J0D01*
G01*
X153700000Y-105800000D02*
X153700000Y-103800000D01*
X152700000Y-105800000D02*
X153700000Y-105800000D01*
X152700000Y-103800000D02*
X152700000Y-105800000D01*
X153700000Y-103800000D02*
X152700000Y-103800000D01*
X150538000Y-105755000D02*
X148445000Y-103663000D01*
X150355000Y-105938000D02*
X148262000Y-103846000D01*
X153700000Y-100800000D02*
X153700000Y-98800000D01*
X152700000Y-100800000D02*
X153700000Y-100800000D01*
X152700000Y-98800000D02*
X152700000Y-100800000D01*
X153700000Y-98800000D02*
X152700000Y-98800000D01*
X150538000Y-100755000D02*
X148445000Y-98662000D01*
X150355000Y-100938000D02*
X148262000Y-98845000D01*
X151700000Y-97300000D02*
X151700000Y-107300000D01*
X147400000Y-97300000D02*
X147400000Y-107300000D01*
X145900000Y-97300000D02*
X145900000Y-107300000D01*
X145900000Y-97300000D02*
X153700000Y-97300000D01*
X145400000Y-97800000D02*
X145900000Y-97300000D01*
X145400000Y-107300000D02*
X145400000Y-97800000D01*
X153700000Y-107300000D02*
X145400000Y-107300000D01*
X153700000Y-97300000D02*
X153700000Y-107300000D01*
X150900000Y-104800000D02*
G75*
G03*
X150900000Y-104800000I-1500000J0D01*
G01*
X150900000Y-99800000D02*
G75*
G03*
X150900000Y-99800000I-1500000J0D01*
G01*
X111033000Y-107260000D02*
X107200000Y-109850000D01*
X110144000Y-109165000D02*
X107200000Y-109850000D01*
X107200000Y-105600000D02*
X111033000Y-107260000D01*
X107200000Y-105100000D02*
X107200000Y-105600000D01*
X112938000Y-105101000D02*
X107200000Y-105100000D01*
X114462000Y-98878000D02*
X112938000Y-98878000D01*
X112938000Y-97100000D02*
X112938000Y-105101000D01*
X114462000Y-97100000D02*
X114462000Y-105101000D01*
X120200000Y-114600000D02*
X117256000Y-109165000D01*
X120200000Y-114600000D02*
X116240000Y-112340000D01*
X120200000Y-105600000D02*
X116367000Y-107260000D01*
X114462000Y-105101000D02*
X120200000Y-105100000D01*
X120200000Y-105100000D02*
X120200000Y-105600000D01*
X117256000Y-109165000D02*
X120200000Y-109850000D01*
X116367000Y-107260000D02*
X120200000Y-109850000D01*
X107200000Y-114600000D02*
X110144000Y-109165000D01*
X111160000Y-112340000D02*
X110400000Y-114600000D01*
X107200000Y-114600000D02*
X111160000Y-112340000D01*
X116240000Y-112340000D02*
X117000000Y-114600000D01*
X110400000Y-114600000D02*
X112800000Y-112100000D01*
X117000000Y-114600000D02*
X114600000Y-112100000D01*
X112938000Y-97100000D02*
X112938000Y-89099000D01*
X112938000Y-89099000D02*
X107200000Y-89100000D01*
X107200000Y-89100000D02*
X107200000Y-88600000D01*
X107200000Y-88600000D02*
X111033000Y-86940000D01*
X111033000Y-86940000D02*
X107200000Y-84350000D01*
X110144000Y-85035000D02*
X107200000Y-84350000D01*
X107200000Y-79600000D02*
X110144000Y-85035000D01*
X107200000Y-79600000D02*
X111160000Y-81860000D01*
X111160000Y-81860000D02*
X110400000Y-79600000D01*
X110400000Y-79600000D02*
X112800000Y-82100000D01*
X114462000Y-89099000D02*
X120200000Y-89100000D01*
X114462000Y-97100000D02*
X114462000Y-89099000D01*
X120200000Y-88600000D02*
X116367000Y-86940000D01*
X116367000Y-86940000D02*
X120200000Y-84350000D01*
X120200000Y-79600000D02*
X116240000Y-81860000D01*
X116240000Y-81860000D02*
X117000000Y-79600000D01*
X120200000Y-89100000D02*
X120200000Y-88600000D01*
X117256000Y-85035000D02*
X120200000Y-84350000D01*
X120200000Y-79600000D02*
X117256000Y-85035000D01*
X112938000Y-95322000D02*
X114462000Y-95322000D01*
X117000000Y-79600000D02*
X114600000Y-82100000D01*
X112781613Y-112092720D02*
G75*
G02*
X114600000Y-112100000I918387J2292720D01*
G01*
X114618387Y-82107280D02*
G75*
G02*
X112800000Y-82100000I-918387J-2292720D01*
G01*
X127590000Y-98750000D02*
X127590000Y-101450000D01*
X127790000Y-98750000D02*
X127790000Y-101450000D01*
X127690000Y-98750000D02*
X127690000Y-101450000D01*
X133320000Y-100100000D02*
X132110000Y-100100000D01*
X125700000Y-100100000D02*
X126910000Y-100100000D01*
X132110000Y-98750000D02*
X126910000Y-98750000D01*
X132110000Y-101450000D02*
X132110000Y-98750000D01*
X126910000Y-101450000D02*
X132110000Y-101450000D01*
X126910000Y-98750000D02*
X126910000Y-101450000D01*
X137662500Y-102733605D02*
X138162500Y-102733605D01*
X137912500Y-102983605D02*
X137912500Y-102483605D01*
X141500000Y-100850000D02*
G75*
G03*
X141500000Y-100850000I-2500000J0D01*
G01*
X131200000Y-83250000D02*
X125200000Y-83250000D01*
X131200000Y-85750000D02*
X131200000Y-83250000D01*
X125200000Y-85750000D02*
X131200000Y-85750000D01*
X125200000Y-83250000D02*
X125200000Y-85750000D01*
X114750000Y-95210000D02*
X116020000Y-95210000D01*
X114750000Y-98910000D02*
X116020000Y-98910000D01*
X116020000Y-102060000D02*
X116020000Y-92060000D01*
X114750000Y-92060000D02*
X114750000Y-102060000D01*
X119150000Y-92060000D02*
X114750000Y-92060000D01*
X119150000Y-102060000D02*
X119150000Y-92060000D01*
X114750000Y-102060000D02*
X119150000Y-102060000D01*
X134175000Y-112215000D02*
X134175000Y-107385000D01*
X143705000Y-112215000D02*
X134175000Y-112215000D01*
X143705000Y-107385000D02*
X143705000Y-112215000D01*
X134175000Y-107385000D02*
X143705000Y-107385000D01*
X125700000Y-106500000D02*
X125700000Y-111580000D01*
X127950000Y-106500000D02*
G75*
G03*
X127950000Y-106500000I-2250000J0D01*
G01*
X107330000Y-102169694D02*
X107330000Y-99230306D01*
X107330000Y-100700000D02*
G75*
G03*
X107330000Y-100700000I-2500000J0D01*
G01*
X107330016Y-99230334D02*
G75*
G03*
X107330000Y-102169694I-2500016J-1469666D01*
G01*
D11*
X127157142Y-92052380D02*
X126585714Y-92052380D01*
X126871428Y-92052380D02*
X126871428Y-91052380D01*
X126776190Y-91195238D01*
X126680952Y-91290476D01*
X126585714Y-91338095D01*
X127585714Y-92052380D02*
X127585714Y-91052380D01*
X128157142Y-92052380D01*
X128157142Y-91052380D01*
X129061904Y-91385714D02*
X129061904Y-92052380D01*
X128823809Y-91004761D02*
X128585714Y-91719047D01*
X129204761Y-91719047D01*
X129776190Y-91052380D02*
X129871428Y-91052380D01*
X129966666Y-91100000D01*
X130014285Y-91147619D01*
X130061904Y-91242857D01*
X130109523Y-91433333D01*
X130109523Y-91671428D01*
X130061904Y-91861904D01*
X130014285Y-91957142D01*
X129966666Y-92004761D01*
X129871428Y-92052380D01*
X129776190Y-92052380D01*
X129680952Y-92004761D01*
X129633333Y-91957142D01*
X129585714Y-91861904D01*
X129538095Y-91671428D01*
X129538095Y-91433333D01*
X129585714Y-91242857D01*
X129633333Y-91147619D01*
X129680952Y-91100000D01*
X129776190Y-91052380D01*
X130728571Y-91052380D02*
X130823809Y-91052380D01*
X130919047Y-91100000D01*
X130966666Y-91147619D01*
X131014285Y-91242857D01*
X131061904Y-91433333D01*
X131061904Y-91671428D01*
X131014285Y-91861904D01*
X130966666Y-91957142D01*
X130919047Y-92004761D01*
X130823809Y-92052380D01*
X130728571Y-92052380D01*
X130633333Y-92004761D01*
X130585714Y-91957142D01*
X130538095Y-91861904D01*
X130490476Y-91671428D01*
X130490476Y-91433333D01*
X130538095Y-91242857D01*
X130585714Y-91147619D01*
X130633333Y-91100000D01*
X130728571Y-91052380D01*
X132014285Y-92052380D02*
X131442857Y-92052380D01*
X131728571Y-92052380D02*
X131728571Y-91052380D01*
X131633333Y-91195238D01*
X131538095Y-91290476D01*
X131442857Y-91338095D01*
X122938095Y-89652380D02*
X122938095Y-88652380D01*
X123509523Y-89652380D02*
X123080952Y-89080952D01*
X123509523Y-88652380D02*
X122938095Y-89223809D01*
X122961904Y-91952380D02*
X122961904Y-90952380D01*
X123200000Y-90952380D01*
X123342857Y-91000000D01*
X123438095Y-91095238D01*
X123485714Y-91190476D01*
X123533333Y-91380952D01*
X123533333Y-91523809D01*
X123485714Y-91714285D01*
X123438095Y-91809523D01*
X123342857Y-91904761D01*
X123200000Y-91952380D01*
X122961904Y-91952380D01*
X123914285Y-91047619D02*
X123961904Y-91000000D01*
X124057142Y-90952380D01*
X124295238Y-90952380D01*
X124390476Y-91000000D01*
X124438095Y-91047619D01*
X124485714Y-91142857D01*
X124485714Y-91238095D01*
X124438095Y-91380952D01*
X123866666Y-91952380D01*
X124485714Y-91952380D01*
X138833333Y-90952380D02*
X138261904Y-90952380D01*
X138547619Y-90952380D02*
X138547619Y-89952380D01*
X138452380Y-90095238D01*
X138357142Y-90190476D01*
X138261904Y-90238095D01*
X139690476Y-90285714D02*
X139690476Y-90952380D01*
X139261904Y-90285714D02*
X139261904Y-90809523D01*
X139309523Y-90904761D01*
X139404761Y-90952380D01*
X139547619Y-90952380D01*
X139642857Y-90904761D01*
X139690476Y-90857142D01*
X136457142Y-92466666D02*
X136504761Y-92514285D01*
X136552380Y-92657142D01*
X136552380Y-92752380D01*
X136504761Y-92895238D01*
X136409523Y-92990476D01*
X136314285Y-93038095D01*
X136123809Y-93085714D01*
X135980952Y-93085714D01*
X135790476Y-93038095D01*
X135695238Y-92990476D01*
X135600000Y-92895238D01*
X135552380Y-92752380D01*
X135552380Y-92657142D01*
X135600000Y-92514285D01*
X135647619Y-92466666D01*
X135552380Y-92133333D02*
X135552380Y-91514285D01*
X135933333Y-91847619D01*
X135933333Y-91704761D01*
X135980952Y-91609523D01*
X136028571Y-91561904D01*
X136123809Y-91514285D01*
X136361904Y-91514285D01*
X136457142Y-91561904D01*
X136504761Y-91609523D01*
X136552380Y-91704761D01*
X136552380Y-91990476D01*
X136504761Y-92085714D01*
X136457142Y-92133333D01*
X103871428Y-91552380D02*
X103538095Y-91076190D01*
X103300000Y-91552380D02*
X103300000Y-90552380D01*
X103680952Y-90552380D01*
X103776190Y-90600000D01*
X103823809Y-90647619D01*
X103871428Y-90742857D01*
X103871428Y-90885714D01*
X103823809Y-90980952D01*
X103776190Y-91028571D01*
X103680952Y-91076190D01*
X103300000Y-91076190D01*
X104061904Y-91647619D02*
X104823809Y-91647619D01*
X105538095Y-91552380D02*
X105061904Y-91552380D01*
X105061904Y-90552380D01*
X105871428Y-91028571D02*
X106204761Y-91028571D01*
X106347619Y-91552380D02*
X105871428Y-91552380D01*
X105871428Y-90552380D01*
X106347619Y-90552380D01*
X106776190Y-91552380D02*
X106776190Y-90552380D01*
X107014285Y-90552380D01*
X107157142Y-90600000D01*
X107252380Y-90695238D01*
X107300000Y-90790476D01*
X107347619Y-90980952D01*
X107347619Y-91123809D01*
X107300000Y-91314285D01*
X107252380Y-91409523D01*
X107157142Y-91504761D01*
X107014285Y-91552380D01*
X106776190Y-91552380D01*
X106513333Y-93052380D02*
X106180000Y-92576190D01*
X105941904Y-93052380D02*
X105941904Y-92052380D01*
X106322857Y-92052380D01*
X106418095Y-92100000D01*
X106465714Y-92147619D01*
X106513333Y-92242857D01*
X106513333Y-92385714D01*
X106465714Y-92480952D01*
X106418095Y-92528571D01*
X106322857Y-92576190D01*
X105941904Y-92576190D01*
X107465714Y-93052380D02*
X106894285Y-93052380D01*
X107180000Y-93052380D02*
X107180000Y-92052380D01*
X107084761Y-92195238D01*
X106989523Y-92290476D01*
X106894285Y-92338095D01*
X127257142Y-97352380D02*
X126685714Y-97352380D01*
X126971428Y-97352380D02*
X126971428Y-96352380D01*
X126876190Y-96495238D01*
X126780952Y-96590476D01*
X126685714Y-96638095D01*
X127685714Y-97352380D02*
X127685714Y-96352380D01*
X128257142Y-97352380D01*
X128257142Y-96352380D01*
X129161904Y-96685714D02*
X129161904Y-97352380D01*
X128923809Y-96304761D02*
X128685714Y-97019047D01*
X129304761Y-97019047D01*
X129876190Y-96352380D02*
X129971428Y-96352380D01*
X130066666Y-96400000D01*
X130114285Y-96447619D01*
X130161904Y-96542857D01*
X130209523Y-96733333D01*
X130209523Y-96971428D01*
X130161904Y-97161904D01*
X130114285Y-97257142D01*
X130066666Y-97304761D01*
X129971428Y-97352380D01*
X129876190Y-97352380D01*
X129780952Y-97304761D01*
X129733333Y-97257142D01*
X129685714Y-97161904D01*
X129638095Y-96971428D01*
X129638095Y-96733333D01*
X129685714Y-96542857D01*
X129733333Y-96447619D01*
X129780952Y-96400000D01*
X129876190Y-96352380D01*
X130828571Y-96352380D02*
X130923809Y-96352380D01*
X131019047Y-96400000D01*
X131066666Y-96447619D01*
X131114285Y-96542857D01*
X131161904Y-96733333D01*
X131161904Y-96971428D01*
X131114285Y-97161904D01*
X131066666Y-97257142D01*
X131019047Y-97304761D01*
X130923809Y-97352380D01*
X130828571Y-97352380D01*
X130733333Y-97304761D01*
X130685714Y-97257142D01*
X130638095Y-97161904D01*
X130590476Y-96971428D01*
X130590476Y-96733333D01*
X130638095Y-96542857D01*
X130685714Y-96447619D01*
X130733333Y-96400000D01*
X130828571Y-96352380D01*
X132114285Y-97352380D02*
X131542857Y-97352380D01*
X131828571Y-97352380D02*
X131828571Y-96352380D01*
X131733333Y-96495238D01*
X131638095Y-96590476D01*
X131542857Y-96638095D01*
X122938095Y-94752380D02*
X122938095Y-93752380D01*
X123509523Y-94752380D02*
X123080952Y-94180952D01*
X123509523Y-93752380D02*
X122938095Y-94323809D01*
X122961904Y-97252380D02*
X122961904Y-96252380D01*
X123200000Y-96252380D01*
X123342857Y-96300000D01*
X123438095Y-96395238D01*
X123485714Y-96490476D01*
X123533333Y-96680952D01*
X123533333Y-96823809D01*
X123485714Y-97014285D01*
X123438095Y-97109523D01*
X123342857Y-97204761D01*
X123200000Y-97252380D01*
X122961904Y-97252380D01*
X123866666Y-96252380D02*
X124485714Y-96252380D01*
X124152380Y-96633333D01*
X124295238Y-96633333D01*
X124390476Y-96680952D01*
X124438095Y-96728571D01*
X124485714Y-96823809D01*
X124485714Y-97061904D01*
X124438095Y-97157142D01*
X124390476Y-97204761D01*
X124295238Y-97252380D01*
X124009523Y-97252380D01*
X123914285Y-97204761D01*
X123866666Y-97157142D01*
X143752380Y-89885714D02*
X144752380Y-89552380D01*
X143752380Y-89219047D01*
X144752380Y-88885714D02*
X144085714Y-88885714D01*
X144276190Y-88885714D02*
X144180952Y-88838095D01*
X144133333Y-88790476D01*
X144085714Y-88695238D01*
X144085714Y-88600000D01*
X144752380Y-88266666D02*
X144085714Y-88266666D01*
X143752380Y-88266666D02*
X143800000Y-88314285D01*
X143847619Y-88266666D01*
X143800000Y-88219047D01*
X143752380Y-88266666D01*
X143847619Y-88266666D01*
X144704761Y-87838095D02*
X144752380Y-87742857D01*
X144752380Y-87552380D01*
X144704761Y-87457142D01*
X144609523Y-87409523D01*
X144561904Y-87409523D01*
X144466666Y-87457142D01*
X144419047Y-87552380D01*
X144419047Y-87695238D01*
X144371428Y-87790476D01*
X144276190Y-87838095D01*
X144228571Y-87838095D01*
X144133333Y-87790476D01*
X144085714Y-87695238D01*
X144085714Y-87552380D01*
X144133333Y-87457142D01*
X142252380Y-88633333D02*
X142966666Y-88633333D01*
X143109523Y-88680952D01*
X143204761Y-88776190D01*
X143252380Y-88919047D01*
X143252380Y-89014285D01*
X143252380Y-87633333D02*
X143252380Y-88204761D01*
X143252380Y-87919047D02*
X142252380Y-87919047D01*
X142395238Y-88014285D01*
X142490476Y-88109523D01*
X142538095Y-88204761D01*
X143752380Y-101123809D02*
X144752380Y-100790476D01*
X143752380Y-100457142D01*
X144752380Y-100123809D02*
X144085714Y-100123809D01*
X144276190Y-100123809D02*
X144180952Y-100076190D01*
X144133333Y-100028571D01*
X144085714Y-99933333D01*
X144085714Y-99838095D01*
X144704761Y-99123809D02*
X144752380Y-99219047D01*
X144752380Y-99409523D01*
X144704761Y-99504761D01*
X144609523Y-99552380D01*
X144228571Y-99552380D01*
X144133333Y-99504761D01*
X144085714Y-99409523D01*
X144085714Y-99219047D01*
X144133333Y-99123809D01*
X144228571Y-99076190D01*
X144323809Y-99076190D01*
X144419047Y-99552380D01*
X144085714Y-98219047D02*
X144895238Y-98219047D01*
X144990476Y-98266666D01*
X145038095Y-98314285D01*
X145085714Y-98409523D01*
X145085714Y-98552380D01*
X145038095Y-98647619D01*
X144704761Y-98219047D02*
X144752380Y-98314285D01*
X144752380Y-98504761D01*
X144704761Y-98600000D01*
X144657142Y-98647619D01*
X144561904Y-98695238D01*
X144276190Y-98695238D01*
X144180952Y-98647619D01*
X144133333Y-98600000D01*
X144085714Y-98504761D01*
X144085714Y-98314285D01*
X144133333Y-98219047D01*
X142452380Y-99733333D02*
X143166666Y-99733333D01*
X143309523Y-99780952D01*
X143404761Y-99876190D01*
X143452380Y-100019047D01*
X143452380Y-100114285D01*
X142547619Y-99304761D02*
X142500000Y-99257142D01*
X142452380Y-99161904D01*
X142452380Y-98923809D01*
X142500000Y-98828571D01*
X142547619Y-98780952D01*
X142642857Y-98733333D01*
X142738095Y-98733333D01*
X142880952Y-98780952D01*
X143452380Y-99352380D01*
X143452380Y-98733333D01*
X127457142Y-103152380D02*
X126885714Y-103152380D01*
X127171428Y-103152380D02*
X127171428Y-102152380D01*
X127076190Y-102295238D01*
X126980952Y-102390476D01*
X126885714Y-102438095D01*
X127885714Y-103152380D02*
X127885714Y-102152380D01*
X128457142Y-103152380D01*
X128457142Y-102152380D01*
X129361904Y-102485714D02*
X129361904Y-103152380D01*
X129123809Y-102104761D02*
X128885714Y-102819047D01*
X129504761Y-102819047D01*
X130076190Y-102152380D02*
X130171428Y-102152380D01*
X130266666Y-102200000D01*
X130314285Y-102247619D01*
X130361904Y-102342857D01*
X130409523Y-102533333D01*
X130409523Y-102771428D01*
X130361904Y-102961904D01*
X130314285Y-103057142D01*
X130266666Y-103104761D01*
X130171428Y-103152380D01*
X130076190Y-103152380D01*
X129980952Y-103104761D01*
X129933333Y-103057142D01*
X129885714Y-102961904D01*
X129838095Y-102771428D01*
X129838095Y-102533333D01*
X129885714Y-102342857D01*
X129933333Y-102247619D01*
X129980952Y-102200000D01*
X130076190Y-102152380D01*
X131028571Y-102152380D02*
X131123809Y-102152380D01*
X131219047Y-102200000D01*
X131266666Y-102247619D01*
X131314285Y-102342857D01*
X131361904Y-102533333D01*
X131361904Y-102771428D01*
X131314285Y-102961904D01*
X131266666Y-103057142D01*
X131219047Y-103104761D01*
X131123809Y-103152380D01*
X131028571Y-103152380D01*
X130933333Y-103104761D01*
X130885714Y-103057142D01*
X130838095Y-102961904D01*
X130790476Y-102771428D01*
X130790476Y-102533333D01*
X130838095Y-102342857D01*
X130885714Y-102247619D01*
X130933333Y-102200000D01*
X131028571Y-102152380D01*
X132314285Y-103152380D02*
X131742857Y-103152380D01*
X132028571Y-103152380D02*
X132028571Y-102152380D01*
X131933333Y-102295238D01*
X131838095Y-102390476D01*
X131742857Y-102438095D01*
X123038095Y-100552380D02*
X123038095Y-99552380D01*
X123609523Y-100552380D02*
X123180952Y-99980952D01*
X123609523Y-99552380D02*
X123038095Y-100123809D01*
X123161904Y-102852380D02*
X123161904Y-101852380D01*
X123400000Y-101852380D01*
X123542857Y-101900000D01*
X123638095Y-101995238D01*
X123685714Y-102090476D01*
X123733333Y-102280952D01*
X123733333Y-102423809D01*
X123685714Y-102614285D01*
X123638095Y-102709523D01*
X123542857Y-102804761D01*
X123400000Y-102852380D01*
X123161904Y-102852380D01*
X124590476Y-102185714D02*
X124590476Y-102852380D01*
X124352380Y-101804761D02*
X124114285Y-102519047D01*
X124733333Y-102519047D01*
X138357142Y-105152380D02*
X137785714Y-105152380D01*
X138071428Y-105152380D02*
X138071428Y-104152380D01*
X137976190Y-104295238D01*
X137880952Y-104390476D01*
X137785714Y-104438095D01*
X138976190Y-104152380D02*
X139071428Y-104152380D01*
X139166666Y-104200000D01*
X139214285Y-104247619D01*
X139261904Y-104342857D01*
X139309523Y-104533333D01*
X139309523Y-104771428D01*
X139261904Y-104961904D01*
X139214285Y-105057142D01*
X139166666Y-105104761D01*
X139071428Y-105152380D01*
X138976190Y-105152380D01*
X138880952Y-105104761D01*
X138833333Y-105057142D01*
X138785714Y-104961904D01*
X138738095Y-104771428D01*
X138738095Y-104533333D01*
X138785714Y-104342857D01*
X138833333Y-104247619D01*
X138880952Y-104200000D01*
X138976190Y-104152380D01*
X140166666Y-104485714D02*
X140166666Y-105152380D01*
X139738095Y-104485714D02*
X139738095Y-105009523D01*
X139785714Y-105104761D01*
X139880952Y-105152380D01*
X140023809Y-105152380D01*
X140119047Y-105104761D01*
X140166666Y-105057142D01*
X136157142Y-103066666D02*
X136204761Y-103114285D01*
X136252380Y-103257142D01*
X136252380Y-103352380D01*
X136204761Y-103495238D01*
X136109523Y-103590476D01*
X136014285Y-103638095D01*
X135823809Y-103685714D01*
X135680952Y-103685714D01*
X135490476Y-103638095D01*
X135395238Y-103590476D01*
X135300000Y-103495238D01*
X135252380Y-103352380D01*
X135252380Y-103257142D01*
X135300000Y-103114285D01*
X135347619Y-103066666D01*
X135347619Y-102685714D02*
X135300000Y-102638095D01*
X135252380Y-102542857D01*
X135252380Y-102304761D01*
X135300000Y-102209523D01*
X135347619Y-102161904D01*
X135442857Y-102114285D01*
X135538095Y-102114285D01*
X135680952Y-102161904D01*
X136252380Y-102733333D01*
X136252380Y-102114285D01*
X132685714Y-84752380D02*
X132780952Y-84752380D01*
X132876190Y-84800000D01*
X132923809Y-84847619D01*
X132971428Y-84942857D01*
X133019047Y-85133333D01*
X133019047Y-85371428D01*
X132971428Y-85561904D01*
X132923809Y-85657142D01*
X132876190Y-85704761D01*
X132780952Y-85752380D01*
X132685714Y-85752380D01*
X132590476Y-85704761D01*
X132542857Y-85657142D01*
X132495238Y-85561904D01*
X132447619Y-85371428D01*
X132447619Y-85133333D01*
X132495238Y-84942857D01*
X132542857Y-84847619D01*
X132590476Y-84800000D01*
X132685714Y-84752380D01*
X133447619Y-85657142D02*
X133495238Y-85704761D01*
X133447619Y-85752380D01*
X133400000Y-85704761D01*
X133447619Y-85657142D01*
X133447619Y-85752380D01*
X134447619Y-85752380D02*
X133876190Y-85752380D01*
X134161904Y-85752380D02*
X134161904Y-84752380D01*
X134066666Y-84895238D01*
X133971428Y-84990476D01*
X133876190Y-85038095D01*
X135304761Y-85085714D02*
X135304761Y-85752380D01*
X134876190Y-85085714D02*
X134876190Y-85609523D01*
X134923809Y-85704761D01*
X135019047Y-85752380D01*
X135161904Y-85752380D01*
X135257142Y-85704761D01*
X135304761Y-85657142D01*
X133033333Y-84157142D02*
X132985714Y-84204761D01*
X132842857Y-84252380D01*
X132747619Y-84252380D01*
X132604761Y-84204761D01*
X132509523Y-84109523D01*
X132461904Y-84014285D01*
X132414285Y-83823809D01*
X132414285Y-83680952D01*
X132461904Y-83490476D01*
X132509523Y-83395238D01*
X132604761Y-83300000D01*
X132747619Y-83252380D01*
X132842857Y-83252380D01*
X132985714Y-83300000D01*
X133033333Y-83347619D01*
X133985714Y-84252380D02*
X133414285Y-84252380D01*
X133700000Y-84252380D02*
X133700000Y-83252380D01*
X133604761Y-83395238D01*
X133509523Y-83490476D01*
X133414285Y-83538095D01*
X120952380Y-96090476D02*
X120952380Y-96566666D01*
X119952380Y-96566666D01*
X120952380Y-95757142D02*
X119952380Y-95757142D01*
X120666666Y-95423809D01*
X119952380Y-95090476D01*
X120952380Y-95090476D01*
X119952380Y-94709523D02*
X119952380Y-94090476D01*
X120333333Y-94423809D01*
X120333333Y-94280952D01*
X120380952Y-94185714D01*
X120428571Y-94138095D01*
X120523809Y-94090476D01*
X120761904Y-94090476D01*
X120857142Y-94138095D01*
X120904761Y-94185714D01*
X120952380Y-94280952D01*
X120952380Y-94566666D01*
X120904761Y-94661904D01*
X120857142Y-94709523D01*
X120952380Y-93138095D02*
X120952380Y-93709523D01*
X120952380Y-93423809D02*
X119952380Y-93423809D01*
X120095238Y-93519047D01*
X120190476Y-93614285D01*
X120238095Y-93709523D01*
X119952380Y-92804761D02*
X119952380Y-92138095D01*
X120952380Y-92566666D01*
X119952380Y-102061904D02*
X120761904Y-102061904D01*
X120857142Y-102014285D01*
X120904761Y-101966666D01*
X120952380Y-101871428D01*
X120952380Y-101680952D01*
X120904761Y-101585714D01*
X120857142Y-101538095D01*
X120761904Y-101490476D01*
X119952380Y-101490476D01*
X120952380Y-100490476D02*
X120952380Y-101061904D01*
X120952380Y-100776190D02*
X119952380Y-100776190D01*
X120095238Y-100871428D01*
X120190476Y-100966666D01*
X120238095Y-101061904D01*
X140838095Y-105852380D02*
X140361904Y-105852380D01*
X140314285Y-106328571D01*
X140361904Y-106280952D01*
X140457142Y-106233333D01*
X140695238Y-106233333D01*
X140790476Y-106280952D01*
X140838095Y-106328571D01*
X140885714Y-106423809D01*
X140885714Y-106661904D01*
X140838095Y-106757142D01*
X140790476Y-106804761D01*
X140695238Y-106852380D01*
X140457142Y-106852380D01*
X140361904Y-106804761D01*
X140314285Y-106757142D01*
X141314285Y-106852380D02*
X141314285Y-105852380D01*
X141885714Y-106852380D02*
X141457142Y-106280952D01*
X141885714Y-105852380D02*
X141314285Y-106423809D01*
X139392380Y-110395238D02*
X138916190Y-110728571D01*
X139392380Y-110966666D02*
X138392380Y-110966666D01*
X138392380Y-110585714D01*
X138440000Y-110490476D01*
X138487619Y-110442857D01*
X138582857Y-110395238D01*
X138725714Y-110395238D01*
X138820952Y-110442857D01*
X138868571Y-110490476D01*
X138916190Y-110585714D01*
X138916190Y-110966666D01*
X138392380Y-110109523D02*
X139392380Y-109776190D01*
X138392380Y-109442857D01*
X139392380Y-108585714D02*
X139392380Y-109157142D01*
X139392380Y-108871428D02*
X138392380Y-108871428D01*
X138535238Y-108966666D01*
X138630476Y-109061904D01*
X138678095Y-109157142D01*
X128647619Y-106738095D02*
X128600000Y-106690476D01*
X128552380Y-106595238D01*
X128552380Y-106357142D01*
X128600000Y-106261904D01*
X128647619Y-106214285D01*
X128742857Y-106166666D01*
X128838095Y-106166666D01*
X128980952Y-106214285D01*
X129552380Y-106785714D01*
X129552380Y-106166666D01*
X128885714Y-105309523D02*
X129552380Y-105309523D01*
X128504761Y-105547619D02*
X129219047Y-105785714D01*
X129219047Y-105166666D01*
X128552380Y-104595238D02*
X128552380Y-104500000D01*
X128600000Y-104404761D01*
X128647619Y-104357142D01*
X128742857Y-104309523D01*
X128933333Y-104261904D01*
X129171428Y-104261904D01*
X129361904Y-104309523D01*
X129457142Y-104357142D01*
X129504761Y-104404761D01*
X129552380Y-104500000D01*
X129552380Y-104595238D01*
X129504761Y-104690476D01*
X129457142Y-104738095D01*
X129361904Y-104785714D01*
X129171428Y-104833333D01*
X128933333Y-104833333D01*
X128742857Y-104785714D01*
X128647619Y-104738095D01*
X128600000Y-104690476D01*
X128552380Y-104595238D01*
X129552380Y-111366666D02*
X129076190Y-111700000D01*
X129552380Y-111938095D02*
X128552380Y-111938095D01*
X128552380Y-111557142D01*
X128600000Y-111461904D01*
X128647619Y-111414285D01*
X128742857Y-111366666D01*
X128885714Y-111366666D01*
X128980952Y-111414285D01*
X129028571Y-111461904D01*
X129076190Y-111557142D01*
X129076190Y-111938095D01*
X128647619Y-110985714D02*
X128600000Y-110938095D01*
X128552380Y-110842857D01*
X128552380Y-110604761D01*
X128600000Y-110509523D01*
X128647619Y-110461904D01*
X128742857Y-110414285D01*
X128838095Y-110414285D01*
X128980952Y-110461904D01*
X129552380Y-111033333D01*
X129552380Y-110414285D01*
X109352380Y-101342857D02*
X109352380Y-101819047D01*
X108352380Y-101819047D01*
X108828571Y-101009523D02*
X108828571Y-100676190D01*
X109352380Y-100533333D02*
X109352380Y-101009523D01*
X108352380Y-101009523D01*
X108352380Y-100533333D01*
X109352380Y-100104761D02*
X108352380Y-100104761D01*
X108352380Y-99866666D01*
X108400000Y-99723809D01*
X108495238Y-99628571D01*
X108590476Y-99580952D01*
X108780952Y-99533333D01*
X108923809Y-99533333D01*
X109114285Y-99580952D01*
X109209523Y-99628571D01*
X109304761Y-99723809D01*
X109352380Y-99866666D01*
X109352380Y-100104761D01*
M02*
