EESchema Schematic File Version 4
EELAYER 30 0
EELAYER END
$Descr A4 11693 8268
encoding utf-8
Sheet 1 1
Title ""
Date ""
Rev ""
Comp ""
Comment1 ""
Comment2 ""
Comment3 ""
Comment4 ""
$EndDescr
Text GLabel 3450 4050 1    50   Input ~ 0
vris
$Comp
L pspice:0 #GND02
U 1 1 5F9C5326
P 3450 5100
F 0 "#GND02" H 3450 5000 50  0001 C CNN
F 1 "0" H 3450 5189 50  0000 C CNN
F 2 "" H 3450 5100 50  0001 C CNN
F 3 "~" H 3450 5100 50  0001 C CNN
	1    3450 5100
	1    0    0    -1  
$EndComp
Wire Wire Line
	3450 5100 3450 4850
$Comp
L Regulator_Linear:LM317_TO-220 U1
U 1 1 5F9BE50C
P 5750 3900
F 0 "U1" H 5750 4142 50  0000 C CNN
F 1 "LM317_TO-220" H 5750 4051 50  0000 C CNN
F 2 "Package_TO_SOT_THT:TO-220-3_Vertical" H 5750 4150 50  0001 C CIN
F 3 "http://www.ti.com/lit/ds/symlink/lm317.pdf" H 5750 3900 50  0001 C CNN
F 4 "X" H 5750 3900 50  0001 C CNN "Spice_Primitive"
F 5 "LM317-MOT" H 5750 3900 50  0001 C CNN "Spice_Model"
F 6 "Y" H 5750 3900 50  0001 C CNN "Spice_Netlist_Enabled"
F 7 "/home/fenix/git/fuentes/simulacion/models/regulators.lib" H 5750 3900 50  0001 C CNN "Spice_Lib_File"
F 8 "3 1 2" H 5750 3900 50  0001 C CNN "Spice_Node_Sequence"
	1    5750 3900
	1    0    0    -1  
$EndComp
$Comp
L pspice:R R2
U 1 1 5F9BF4CB
P 6400 4150
F 0 "R2" H 6468 4196 50  0000 L CNN
F 1 "240" H 6468 4105 50  0000 L CNN
F 2 "" H 6400 4150 50  0001 C CNN
F 3 "~" H 6400 4150 50  0001 C CNN
	1    6400 4150
	1    0    0    -1  
$EndComp
Wire Wire Line
	6400 3900 6050 3900
Connection ~ 6400 3900
$Comp
L pspice:R R1
U 1 1 5F9BFDFA
P 5750 4900
F 0 "R1" H 5818 4946 50  0000 L CNN
F 1 "2064" H 5818 4855 50  0000 L CNN
F 2 "" H 5750 4900 50  0001 C CNN
F 3 "~" H 5750 4900 50  0001 C CNN
	1    5750 4900
	1    0    0    -1  
$EndComp
$Comp
L pspice:0 #GND01
U 1 1 5F9C038E
P 5750 5350
F 0 "#GND01" H 5750 5250 50  0001 C CNN
F 1 "0" H 5750 5439 50  0000 C CNN
F 2 "" H 5750 5350 50  0001 C CNN
F 3 "~" H 5750 5350 50  0001 C CNN
	1    5750 5350
	1    0    0    -1  
$EndComp
Wire Wire Line
	6400 4400 6400 4650
Wire Wire Line
	6400 4650 5750 4650
Connection ~ 5750 4650
Wire Wire Line
	5750 4650 5750 4200
Wire Wire Line
	5750 5150 5750 5350
Text GLabel 4450 3900 0    50   Input ~ 0
vris
Text GLabel 8150 3900 2    50   Input ~ 0
Vreg
Wire Wire Line
	6400 3900 7200 3900
Wire Wire Line
	3450 4050 3450 4250
$Comp
L pspice:C C1
U 1 1 5F99D50D
P 4600 4650
F 0 "C1" H 4778 4696 50  0000 L CNN
F 1 "0.1u" H 4778 4605 50  0000 L CNN
F 2 "" H 4600 4650 50  0001 C CNN
F 3 "~" H 4600 4650 50  0001 C CNN
	1    4600 4650
	1    0    0    -1  
$EndComp
$Comp
L pspice:0 #GND03
U 1 1 5F99DD94
P 4600 5350
F 0 "#GND03" H 4600 5250 50  0001 C CNN
F 1 "0" H 4600 5439 50  0000 C CNN
F 2 "" H 4600 5350 50  0001 C CNN
F 3 "~" H 4600 5350 50  0001 C CNN
	1    4600 5350
	1    0    0    -1  
$EndComp
Wire Wire Line
	4600 5350 4600 4900
$Comp
L pspice:C C3
U 1 1 5F99E2E8
P 7200 4600
F 0 "C3" H 7378 4646 50  0000 L CNN
F 1 "1u" H 7378 4555 50  0000 L CNN
F 2 "" H 7200 4600 50  0001 C CNN
F 3 "~" H 7200 4600 50  0001 C CNN
	1    7200 4600
	1    0    0    -1  
$EndComp
Wire Wire Line
	7200 4350 7200 3900
Connection ~ 7200 3900
$Comp
L pspice:0 #GND05
U 1 1 5F99EB5F
P 7200 5350
F 0 "#GND05" H 7200 5250 50  0001 C CNN
F 1 "0" H 7200 5439 50  0000 C CNN
F 2 "" H 7200 5350 50  0001 C CNN
F 3 "~" H 7200 5350 50  0001 C CNN
	1    7200 5350
	1    0    0    -1  
$EndComp
Wire Wire Line
	7200 5350 7200 4850
$Comp
L pspice:C C2
U 1 1 5F99F153
P 6400 5000
F 0 "C2" H 6578 5046 50  0000 L CNN
F 1 "10u" H 6578 4955 50  0000 L CNN
F 2 "" H 6400 5000 50  0001 C CNN
F 3 "~" H 6400 5000 50  0001 C CNN
	1    6400 5000
	1    0    0    -1  
$EndComp
$Comp
L pspice:0 #GND04
U 1 1 5F99F519
P 6400 5350
F 0 "#GND04" H 6400 5250 50  0001 C CNN
F 1 "0" H 6400 5439 50  0000 C CNN
F 2 "" H 6400 5350 50  0001 C CNN
F 3 "~" H 6400 5350 50  0001 C CNN
	1    6400 5350
	1    0    0    -1  
$EndComp
Wire Wire Line
	6400 5350 6400 5250
Wire Wire Line
	6400 4750 6400 4650
Connection ~ 6400 4650
Wire Wire Line
	4600 3900 4450 3900
Wire Wire Line
	4600 4400 4600 3900
$Comp
L pspice:VSOURCE V1
U 1 1 5F9C3E9E
P 3450 4550
F 0 "V1" H 3678 4596 50  0000 L CNN
F 1 "24" H 3678 4505 50  0000 L CNN
F 2 "" H 3450 4550 50  0001 C CNN
F 3 "~" H 3450 4550 50  0001 C CNN
	1    3450 4550
	1    0    0    -1  
$EndComp
Text Notes 3400 5400 0    50   ~ 0
.tran 1m 1
Wire Wire Line
	7200 3900 7850 3900
$Comp
L pspice:R RL1
U 1 1 5FA4900A
P 7850 4650
F 0 "RL1" H 7918 4696 50  0000 L CNN
F 1 "10" H 7918 4605 50  0000 L CNN
F 2 "" H 7850 4650 50  0001 C CNN
F 3 "~" H 7850 4650 50  0001 C CNN
	1    7850 4650
	1    0    0    -1  
$EndComp
$Comp
L pspice:0 #GND06
U 1 1 5FA49010
P 7850 5350
F 0 "#GND06" H 7850 5250 50  0001 C CNN
F 1 "0" H 7850 5439 50  0000 C CNN
F 2 "" H 7850 5350 50  0001 C CNN
F 3 "~" H 7850 5350 50  0001 C CNN
	1    7850 5350
	1    0    0    -1  
$EndComp
Wire Wire Line
	7850 4900 7850 5350
Wire Wire Line
	7850 4400 7850 3900
Connection ~ 7850 3900
Wire Wire Line
	7850 3900 8150 3900
Text Notes 3450 5850 0    50   ~ 0
Valores tentativos de Vris \nsin(20 0.001 60)
$Comp
L Transistor_BJT:TIP42 Q1
U 1 1 5FA5327B
P 5250 3250
F 0 "Q1" V 5578 3250 50  0000 C CNN
F 1 "TIP42" V 5487 3250 50  0000 C CNN
F 2 "Package_TO_SOT_THT:TO-220-3_Vertical" H 5500 3175 50  0001 L CIN
F 3 "https://www.centralsemi.com/get_document.php?cmp=1&mergetype=pd&mergepath=pd&pdf_id=TIP42.PDF" H 5250 3250 50  0001 L CNN
F 4 "X" H 5250 3250 50  0001 C CNN "Spice_Primitive"
F 5 "TIP42F" H 5250 3250 50  0001 C CNN "Spice_Model"
F 6 "Y" H 5250 3250 50  0001 C CNN "Spice_Netlist_Enabled"
F 7 "2 1 3" H 5250 3250 50  0001 C CNN "Spice_Node_Sequence"
F 8 "/home/fenix/git/fuentes/simulacion/models/POWBJT.LIB" H 5250 3250 50  0001 C CNN "Spice_Lib_File"
	1    5250 3250
	0    1    -1   0   
$EndComp
$Comp
L pspice:R R3
U 1 1 5FA53BEF
P 5000 3900
F 0 "R3" H 5068 3946 50  0000 L CNN
F 1 "10" H 5068 3855 50  0000 L CNN
F 2 "" H 5000 3900 50  0001 C CNN
F 3 "~" H 5000 3900 50  0001 C CNN
	1    5000 3900
	0    1    1    0   
$EndComp
Wire Wire Line
	5250 3900 5450 3900
Wire Wire Line
	4750 3900 4600 3900
Connection ~ 4600 3900
Wire Wire Line
	5250 3450 5250 3900
Connection ~ 5250 3900
Wire Wire Line
	5050 3150 4600 3150
Wire Wire Line
	4600 3150 4600 3900
Wire Wire Line
	5450 3150 7200 3150
Wire Wire Line
	7200 3150 7200 3900
$EndSCHEMATC
