EESchema Schematic File Version 4
EELAYER 30 0
EELAYER END
$Descr USLetter 11000 8500
encoding utf-8
Sheet 1 1
Title "lm317 esquemático"
Date "2020-09-16"
Rev "01"
Comp "Pavel E. Vázquz Mtz."
Comment1 "pavel_e@riseup.net"
Comment2 ""
Comment3 ""
Comment4 ""
$EndDescr
$Comp
L power:PWR_FLAG #FLG01
U 1 1 5D74E388
P 5850 4700
F 0 "#FLG01" H 5850 4775 50  0001 C CNN
F 1 "PWR_FLAG" H 5850 4873 50  0000 C CNN
F 2 "" H 5850 4700 50  0001 C CNN
F 3 "~" H 5850 4700 50  0001 C CNN
	1    5850 4700
	1    0    0    -1  
$EndComp
$Comp
L power:GND #PWR01
U 1 1 5D74EC2C
P 5850 4900
F 0 "#PWR01" H 5850 4650 50  0001 C CNN
F 1 "GND" H 5855 4727 50  0000 C CNN
F 2 "" H 5850 4900 50  0001 C CNN
F 3 "" H 5850 4900 50  0001 C CNN
	1    5850 4900
	1    0    0    -1  
$EndComp
Wire Wire Line
	5850 4900 5850 4700
$Comp
L power:GND #PWR04
U 1 1 5DE787DF
P 7000 3700
F 0 "#PWR04" H 7000 3450 50  0001 C CNN
F 1 "GND" H 7005 3527 50  0000 C CNN
F 2 "" H 7000 3700 50  0001 C CNN
F 3 "" H 7000 3700 50  0001 C CNN
	1    7000 3700
	1    0    0    -1  
$EndComp
$Comp
L Device:LED D1
U 1 1 5DE73D2A
P 7000 3400
F 0 "D1" H 6993 3145 50  0000 C CNN
F 1 "LED" H 6993 3236 50  0000 C CNN
F 2 "LED_THT:LED_D5.0mm" H 7000 3400 50  0001 C CNN
F 3 "~" H 7000 3400 50  0001 C CNN
	1    7000 3400
	0    -1   -1   0   
$EndComp
$Comp
L Device:R R1
U 1 1 5DE73809
P 7000 3000
F 0 "R1" H 7070 3046 50  0000 L CNN
F 1 "R_LED" H 7070 2955 50  0000 L CNN
F 2 "Resistor_THT:R_Axial_DIN0414_L11.9mm_D4.5mm_P5.08mm_Vertical" V 6930 3000 50  0001 C CNN
F 3 "~" H 7000 3000 50  0001 C CNN
	1    7000 3000
	-1   0    0    1   
$EndComp
Wire Wire Line
	5950 3000 6300 3000
Connection ~ 5950 3000
Wire Wire Line
	5950 3150 5950 3000
Wire Wire Line
	5500 3000 5950 3000
Wire Wire Line
	6300 3200 6300 3000
Wire Wire Line
	6300 4000 6300 3500
$Comp
L Device:R R2
U 1 1 5DE6D48B
P 5950 3300
F 0 "R2" H 6020 3346 50  0000 L CNN
F 1 "240" H 6020 3255 50  0000 L CNN
F 2 "Resistor_THT:R_Axial_DIN0414_L11.9mm_D4.5mm_P5.08mm_Vertical" V 5880 3300 50  0001 C CNN
F 3 "~" H 5950 3300 50  0001 C CNN
	1    5950 3300
	1    0    0    -1  
$EndComp
Wire Wire Line
	4700 3450 4700 3300
Connection ~ 4700 3450
Connection ~ 5500 3450
Wire Wire Line
	5500 3450 4700 3450
Wire Wire Line
	5500 3450 5500 3600
Wire Wire Line
	4150 3000 4400 3000
Connection ~ 4150 3000
Wire Wire Line
	4150 2350 4150 3000
Wire Wire Line
	4550 2350 4150 2350
Wire Wire Line
	5500 2350 4850 2350
Wire Wire Line
	5500 3000 5500 2350
Wire Wire Line
	5500 4000 5500 3900
Wire Wire Line
	5500 3000 5000 3000
Connection ~ 5500 3000
Wire Wire Line
	5500 3150 5500 3000
$Comp
L Device:CP C2
U 1 1 5DE5AB96
P 5500 3750
F 0 "C2" H 5618 3796 50  0000 L CNN
F 1 "10u" H 5618 3705 50  0000 L CNN
F 2 "Capacitor_THT:CP_Radial_D5.0mm_P2.50mm" H 5538 3600 50  0001 C CNN
F 3 "~" H 5500 3750 50  0001 C CNN
	1    5500 3750
	1    0    0    -1  
$EndComp
$Comp
L Device:CP C3
U 1 1 5DE57D91
P 6300 3350
F 0 "C3" H 6418 3396 50  0000 L CNN
F 1 "1u" H 6418 3305 50  0000 L CNN
F 2 "Capacitor_THT:CP_Radial_D5.0mm_P2.50mm" H 6338 3200 50  0001 C CNN
F 3 "~" H 6300 3350 50  0001 C CNN
	1    6300 3350
	1    0    0    -1  
$EndComp
$Comp
L Device:D D4
U 1 1 5DE569BB
P 5500 3300
F 0 "D4" H 5500 3516 50  0000 C CNN
F 1 "1N4001" H 5500 3425 50  0000 C CNN
F 2 "Diode_THT:D_DO-41_SOD81_P7.62mm_Horizontal" H 5500 3300 50  0001 C CNN
F 3 "~" H 5500 3300 50  0001 C CNN
	1    5500 3300
	0    1    1    0   
$EndComp
$Comp
L Device:D D3
U 1 1 5DE55D68
P 4700 2350
F 0 "D3" H 4700 2566 50  0000 C CNN
F 1 "1N4001" H 4700 2475 50  0000 C CNN
F 2 "Diode_THT:D_DO-41_SOD81_P7.62mm_Horizontal" H 4700 2350 50  0001 C CNN
F 3 "~" H 4700 2350 50  0001 C CNN
	1    4700 2350
	1    0    0    -1  
$EndComp
Wire Wire Line
	4950 3700 4950 4000
Wire Wire Line
	4850 3700 4950 3700
Wire Wire Line
	4700 3850 4700 4000
Wire Wire Line
	4700 3550 4700 3450
$Comp
L Device:R_POT RV1
U 1 1 5DDEC713
P 4700 3700
F 0 "RV1" H 4630 3654 50  0000 R CNN
F 1 "5K" H 4630 3745 50  0000 R CNN
F 2 "Potentiometer_THT:Potentiometer_Bourns_3386C_Horizontal" H 4700 3700 50  0001 C CNN
F 3 "~" H 4700 3700 50  0001 C CNN
	1    4700 3700
	1    0    0    -1  
$EndComp
Wire Wire Line
	4100 4950 4100 4800
$Comp
L Regulator_Linear:LM317_3PinPackage U1
U 1 1 5DDE087F
P 4700 3000
F 0 "U1" H 4700 3242 50  0000 C CNN
F 1 "LM317" H 4700 3151 50  0000 C CNN
F 2 "Package_TO_SOT_THT:TO-220-3_Vertical" H 4700 3250 50  0001 C CIN
F 3 "http://www.ti.com/lit/ds/symlink/lm317.pdf" H 4700 3000 50  0001 C CNN
	1    4700 3000
	1    0    0    -1  
$EndComp
$Comp
L Connector_Generic:Conn_01x02 J2
U 1 1 5DE80C60
P 5050 4800
F 0 "J2" H 4968 5017 50  0000 C CNN
F 1 "Vreg" H 4968 4926 50  0000 C CNN
F 2 "TerminalBlock_MetzConnect:TerminalBlock_MetzConnect_Type094_RT03502HBLU_1x02_P5.00mm_Horizontal" H 5050 4800 50  0001 C CNN
F 3 "~" H 5050 4800 50  0001 C CNN
	1    5050 4800
	1    0    0    1   
$EndComp
Wire Wire Line
	4850 4800 4850 4950
$Comp
L Connector_Generic:Conn_01x02 J1
U 1 1 5DDE14B8
P 3900 4800
F 0 "J1" H 3818 5017 50  0000 C CNN
F 1 "Vris" H 3818 4926 50  0000 C CNN
F 2 "TerminalBlock_MetzConnect:TerminalBlock_MetzConnect_Type094_RT03502HBLU_1x02_P5.00mm_Horizontal" H 3900 4800 50  0001 C CNN
F 3 "~" H 3900 4800 50  0001 C CNN
	1    3900 4800
	-1   0    0    1   
$EndComp
$Comp
L Device:C C1
U 1 1 5DE88711
P 4150 3500
F 0 "C1" H 4265 3546 50  0000 L CNN
F 1 "0.1u" H 4265 3455 50  0000 L CNN
F 2 "Capacitor_THT:C_Disc_D6.0mm_W2.5mm_P5.00mm" H 4188 3350 50  0001 C CNN
F 3 "~" H 4150 3500 50  0001 C CNN
	1    4150 3500
	1    0    0    -1  
$EndComp
Wire Wire Line
	4150 3000 4150 3350
Wire Wire Line
	4150 3650 4150 3950
Wire Wire Line
	5950 3450 5500 3450
$Comp
L power:VCC #PWR06
U 1 1 5DEA7E2E
P 4150 2350
F 0 "#PWR06" H 4150 2200 50  0001 C CNN
F 1 "VCC" H 4167 2523 50  0000 C CNN
F 2 "" H 4150 2350 50  0001 C CNN
F 3 "" H 4150 2350 50  0001 C CNN
	1    4150 2350
	1    0    0    -1  
$EndComp
$Comp
L power:VCC #PWR02
U 1 1 5DEAD220
P 6300 4900
F 0 "#PWR02" H 6300 4750 50  0001 C CNN
F 1 "VCC" H 6318 5073 50  0000 C CNN
F 2 "" H 6300 4900 50  0001 C CNN
F 3 "" H 6300 4900 50  0001 C CNN
	1    6300 4900
	-1   0    0    1   
$EndComp
$Comp
L power:PWR_FLAG #FLG02
U 1 1 5DEB1A7B
P 6300 4700
F 0 "#FLG02" H 6300 4775 50  0001 C CNN
F 1 "PWR_FLAG" H 6300 4873 50  0000 C CNN
F 2 "" H 6300 4700 50  0001 C CNN
F 3 "~" H 6300 4700 50  0001 C CNN
	1    6300 4700
	1    0    0    -1  
$EndComp
Wire Wire Line
	6300 4700 6300 4900
$Comp
L power:GND #PWR012
U 1 1 5DE859EA
P 4850 4950
F 0 "#PWR012" H 4850 4700 50  0001 C CNN
F 1 "GND" H 4855 4777 50  0000 C CNN
F 2 "" H 4850 4950 50  0001 C CNN
F 3 "" H 4850 4950 50  0001 C CNN
	1    4850 4950
	1    0    0    -1  
$EndComp
$Comp
L power:GND #PWR011
U 1 1 5DE99E01
P 6300 4000
F 0 "#PWR011" H 6300 3750 50  0001 C CNN
F 1 "GND" H 6305 3827 50  0000 C CNN
F 2 "" H 6300 4000 50  0001 C CNN
F 3 "" H 6300 4000 50  0001 C CNN
	1    6300 4000
	1    0    0    -1  
$EndComp
$Comp
L power:GND #PWR010
U 1 1 5DE9ACF9
P 5500 4000
F 0 "#PWR010" H 5500 3750 50  0001 C CNN
F 1 "GND" H 5505 3827 50  0000 C CNN
F 2 "" H 5500 4000 50  0001 C CNN
F 3 "" H 5500 4000 50  0001 C CNN
	1    5500 4000
	1    0    0    -1  
$EndComp
$Comp
L power:GND #PWR09
U 1 1 5DE9AEC1
P 4950 4000
F 0 "#PWR09" H 4950 3750 50  0001 C CNN
F 1 "GND" H 4955 3827 50  0000 C CNN
F 2 "" H 4950 4000 50  0001 C CNN
F 3 "" H 4950 4000 50  0001 C CNN
	1    4950 4000
	1    0    0    -1  
$EndComp
$Comp
L power:GND #PWR08
U 1 1 5DE9B1F7
P 4700 4000
F 0 "#PWR08" H 4700 3750 50  0001 C CNN
F 1 "GND" H 4705 3827 50  0000 C CNN
F 2 "" H 4700 4000 50  0001 C CNN
F 3 "" H 4700 4000 50  0001 C CNN
	1    4700 4000
	1    0    0    -1  
$EndComp
$Comp
L power:GND #PWR07
U 1 1 5DE9B38F
P 4150 3950
F 0 "#PWR07" H 4150 3700 50  0001 C CNN
F 1 "GND" H 4155 3777 50  0000 C CNN
F 2 "" H 4150 3950 50  0001 C CNN
F 3 "" H 4150 3950 50  0001 C CNN
	1    4150 3950
	1    0    0    -1  
$EndComp
$Comp
L power:GND #PWR05
U 1 1 5DE9B6A5
P 4100 4950
F 0 "#PWR05" H 4100 4700 50  0001 C CNN
F 1 "GND" H 4105 4777 50  0000 C CNN
F 2 "" H 4100 4950 50  0001 C CNN
F 3 "" H 4100 4950 50  0001 C CNN
	1    4100 4950
	1    0    0    -1  
$EndComp
$Comp
L Device:D D2
U 1 1 5E7C9584
P 3900 3000
F 0 "D2" H 3900 3216 50  0000 C CNN
F 1 "1N4001" H 3900 3125 50  0000 C CNN
F 2 "Diode_THT:D_DO-41_SOD81_P7.62mm_Horizontal" H 3900 3000 50  0001 C CNN
F 3 "~" H 3900 3000 50  0001 C CNN
	1    3900 3000
	-1   0    0    1   
$EndComp
Wire Wire Line
	4050 3000 4150 3000
Connection ~ 4150 2350
Wire Wire Line
	7000 3700 7000 3550
Wire Wire Line
	7000 3250 7000 3150
$Comp
L power:VCC #PWR03
U 1 1 5E7F0160
P 7000 2700
F 0 "#PWR03" H 7000 2550 50  0001 C CNN
F 1 "VCC" H 7017 2873 50  0000 C CNN
F 2 "" H 7000 2700 50  0001 C CNN
F 3 "" H 7000 2700 50  0001 C CNN
	1    7000 2700
	1    0    0    -1  
$EndComp
Wire Wire Line
	7000 2700 7000 2850
Text GLabel 6300 3000 2    50   Input ~ 0
Vo
Text GLabel 4850 4700 0    50   Input ~ 0
Vo
Text GLabel 3750 3000 0    50   Input ~ 0
Vi
Text GLabel 4100 4700 2    50   Input ~ 0
Vi
Wire Notes Line
	7650 2050 7650 4300
Wire Notes Line
	3600 2050 7650 2050
Wire Notes Line
	3600 4300 7650 4300
Text Notes 6700 2350 0    50   ~ 0
Elegir Rled para que su\ncorriente sea aprox\n20  mA
Text Notes 6650 4100 0    50   ~ 0
R_led = (Vi - 1.2 V) / (20 m A)
Text Notes 3600 4600 0    79   ~ 0
Vi\nMáximo 37 [V]
Text Notes 4550 4600 0    79   ~ 0
Vo\n1.2  a 37 [V]
Wire Notes Line
	3600 5200 6600 5200
Wire Notes Line
	6600 2050 6600 5200
Wire Notes Line
	3600 2050 3600 5200
Wire Notes Line
	5450 4300 5450 5200
Wire Notes Line
	4500 4300 4500 5200
Text Notes 3700 1850 0    79   ~ 0
Regulador de voltaje variable basado en el LM317\nEl voltaje de entradapuede ser entre 1.2 [V] y 37 [V]\n\nEl voltaje de salida es variable por medio de Rv1 y va\nde 1.2 [V] al voltaje máximo de entrada
$EndSCHEMATC
