(kicad_symbol_lib (version 20220914) (generator kicad_symbol_editor)
  (symbol "CP-Device" (pin_numbers hide) (pin_names (offset 0.254)) (in_bom yes) (on_board yes)
    (property "Reference" "C" (at 0.635 2.54 0)
      (effects (font (size 1.27 1.27)) (justify left))
    )
    (property "Value" "Device_CP" (at 0.635 -2.54 0)
      (effects (font (size 1.27 1.27)) (justify left))
    )
    (property "Footprint" "" (at 0.9652 -3.81 0)
      (effects (font (size 1.27 1.27)) hide)
    )
    (property "Datasheet" "" (at 0 0 0)
      (effects (font (size 1.27 1.27)) hide)
    )
    (property "ki_fp_filters" "CP_*" (at 0 0 0)
      (effects (font (size 1.27 1.27)) hide)
    )
    (symbol "CP-Device_0_1"
      (rectangle (start -2.286 0.508) (end 2.286 1.016)
        (stroke (width 0) (type solid))
        (fill (type none))
      )
      (polyline
        (pts
          (xy -1.778 2.286)
          (xy -0.762 2.286)
        )
        (stroke (width 0) (type solid))
        (fill (type none))
      )
      (polyline
        (pts
          (xy -1.27 2.794)
          (xy -1.27 1.778)
        )
        (stroke (width 0) (type solid))
        (fill (type none))
      )
      (rectangle (start 2.286 -0.508) (end -2.286 -1.016)
        (stroke (width 0) (type solid))
        (fill (type outline))
      )
    )
    (symbol "CP-Device_1_1"
      (pin passive line (at 0 3.81 270) (length 2.794)
        (name "~" (effects (font (size 1.27 1.27))))
        (number "1" (effects (font (size 1.27 1.27))))
      )
      (pin passive line (at 0 -3.81 90) (length 2.794)
        (name "~" (effects (font (size 1.27 1.27))))
        (number "2" (effects (font (size 1.27 1.27))))
      )
    )
  )
  (symbol "LM317_3PinPackage-Regulator_Linear" (pin_names (offset 0.254)) (in_bom yes) (on_board yes)
    (property "Reference" "U" (at -3.81 3.175 0)
      (effects (font (size 1.27 1.27)))
    )
    (property "Value" "Regulator_Linear_LM317_3PinPackage" (at 0 3.175 0)
      (effects (font (size 1.27 1.27)) (justify left))
    )
    (property "Footprint" "" (at 0 6.35 0)
      (effects (font (size 1.27 1.27) italic) hide)
    )
    (property "Datasheet" "" (at 0 0 0)
      (effects (font (size 1.27 1.27)) hide)
    )
    (property "ki_fp_filters" "SOT?223* SOT?89* TO?220* TO?252* TO?263*" (at 0 0 0)
      (effects (font (size 1.27 1.27)) hide)
    )
    (symbol "LM317_3PinPackage-Regulator_Linear_0_1"
      (rectangle (start -5.08 1.905) (end 5.08 -5.08)
        (stroke (width 0.254) (type solid))
        (fill (type background))
      )
    )
    (symbol "LM317_3PinPackage-Regulator_Linear_1_1"
      (pin input line (at 0 -7.62 90) (length 2.54)
        (name "ADJ" (effects (font (size 1.27 1.27))))
        (number "1" (effects (font (size 1.27 1.27))))
      )
      (pin power_out line (at 7.62 0 180) (length 2.54)
        (name "VO" (effects (font (size 1.27 1.27))))
        (number "2" (effects (font (size 1.27 1.27))))
      )
      (pin power_in line (at -7.62 0 0) (length 2.54)
        (name "VI" (effects (font (size 1.27 1.27))))
        (number "3" (effects (font (size 1.27 1.27))))
      )
    )
  )
  (symbol "R_POT-Device" (pin_names (offset 1.016) hide) (in_bom yes) (on_board yes)
    (property "Reference" "RV" (at -4.445 0 90)
      (effects (font (size 1.27 1.27)))
    )
    (property "Value" "Device_R_POT" (at -2.54 0 90)
      (effects (font (size 1.27 1.27)))
    )
    (property "Footprint" "" (at 0 0 0)
      (effects (font (size 1.27 1.27)) hide)
    )
    (property "Datasheet" "" (at 0 0 0)
      (effects (font (size 1.27 1.27)) hide)
    )
    (property "ki_fp_filters" "Potentiometer*" (at 0 0 0)
      (effects (font (size 1.27 1.27)) hide)
    )
    (symbol "R_POT-Device_0_1"
      (polyline
        (pts
          (xy 2.54 0)
          (xy 1.524 0)
        )
        (stroke (width 0) (type solid))
        (fill (type none))
      )
      (polyline
        (pts
          (xy 1.143 0)
          (xy 2.286 0.508)
          (xy 2.286 -0.508)
          (xy 1.143 0)
        )
        (stroke (width 0) (type solid))
        (fill (type outline))
      )
      (rectangle (start 1.016 2.54) (end -1.016 -2.54)
        (stroke (width 0.254) (type solid))
        (fill (type none))
      )
    )
    (symbol "R_POT-Device_1_1"
      (pin passive line (at 0 3.81 270) (length 1.27)
        (name "1" (effects (font (size 1.27 1.27))))
        (number "1" (effects (font (size 1.27 1.27))))
      )
      (pin passive line (at 3.81 0 180) (length 1.27)
        (name "2" (effects (font (size 1.27 1.27))))
        (number "2" (effects (font (size 1.27 1.27))))
      )
      (pin passive line (at 0 -3.81 90) (length 1.27)
        (name "3" (effects (font (size 1.27 1.27))))
        (number "3" (effects (font (size 1.27 1.27))))
      )
    )
  )
)
