%TF.GenerationSoftware,KiCad,Pcbnew,5.1.8*%
%TF.CreationDate,2020-11-27T12:19:12-06:00*%
%TF.ProjectId,kicad,6b696361-642e-46b6-9963-61645f706362,rev?*%
%TF.SameCoordinates,Original*%
%TF.FileFunction,Soldermask,Top*%
%TF.FilePolarity,Negative*%
%FSLAX46Y46*%
G04 Gerber Fmt 4.6, Leading zero omitted, Abs format (unit mm)*
G04 Created by KiCad (PCBNEW 5.1.8) date 2020-11-27 12:19:12*
%MOMM*%
%LPD*%
G01*
G04 APERTURE LIST*
%TA.AperFunction,Profile*%
%ADD10C,0.050000*%
%TD*%
%ADD11O,1.700000X2.100000*%
%ADD12C,6.100000*%
%ADD13O,3.100000X4.100000*%
%ADD14C,2.500000*%
%ADD15O,2.600000X1.700000*%
%ADD16C,2.900000*%
%ADD17O,2.300000X3.100000*%
%ADD18O,4.100000X3.100000*%
%ADD19O,2.100000X2.005000*%
%ADD20O,1.700000X2.600000*%
%ADD21C,3.300000*%
%ADD22O,1.600000X2.600000*%
%ADD23C,1.700000*%
G04 APERTURE END LIST*
D10*
X94000000Y-147500000D02*
X94000000Y-137500000D01*
X194000000Y-147500000D02*
X94000000Y-147500000D01*
X194000000Y-137500000D02*
X194000000Y-147500000D01*
X94000000Y-87500000D02*
X194000000Y-87500000D01*
X94000000Y-137500000D02*
X94000000Y-87500000D01*
X194000000Y-87500000D02*
X194000000Y-137500000D01*
D11*
%TO.C,C8*%
X105200000Y-140800000D03*
X105200000Y-135800000D03*
%TD*%
D12*
%TO.C,REF\u002A\u002A*%
X186800000Y-129400000D03*
X186800000Y-104000000D03*
%TD*%
D11*
%TO.C,C7*%
X168000000Y-129300000D03*
X168000000Y-124300000D03*
%TD*%
D13*
%TO.C,F1*%
X135520000Y-119800000D03*
X140600000Y-119800000D03*
%TD*%
%TO.C,J4*%
X110200000Y-140700000D03*
X115280000Y-140700000D03*
%TD*%
D14*
%TO.C,C1*%
X134900000Y-95200000D03*
G36*
G01*
X136100000Y-103950000D02*
X133700000Y-103950000D01*
G75*
G02*
X133650000Y-103900000I0J50000D01*
G01*
X133650000Y-101500000D01*
G75*
G02*
X133700000Y-101450000I50000J0D01*
G01*
X136100000Y-101450000D01*
G75*
G02*
X136150000Y-101500000I0J-50000D01*
G01*
X136150000Y-103900000D01*
G75*
G02*
X136100000Y-103950000I-50000J0D01*
G01*
G37*
%TD*%
%TO.C,C2*%
G36*
G01*
X115600000Y-103950000D02*
X113200000Y-103950000D01*
G75*
G02*
X113150000Y-103900000I0J50000D01*
G01*
X113150000Y-101500000D01*
G75*
G02*
X113200000Y-101450000I50000J0D01*
G01*
X115600000Y-101450000D01*
G75*
G02*
X115650000Y-101500000I0J-50000D01*
G01*
X115650000Y-103900000D01*
G75*
G02*
X115600000Y-103950000I-50000J0D01*
G01*
G37*
X114400000Y-95200000D03*
%TD*%
D15*
%TO.C,C3*%
X148600000Y-118500000D03*
X148600000Y-121000000D03*
%TD*%
%TO.C,C4*%
X161900000Y-126700000D03*
X161900000Y-124200000D03*
%TD*%
%TO.C,C5*%
X165400000Y-102300000D03*
X165400000Y-99800000D03*
%TD*%
%TO.C,C6*%
X146800000Y-137900000D03*
X146800000Y-140400000D03*
%TD*%
D16*
%TO.C,D1*%
X126500000Y-128200000D03*
X126500000Y-115500000D03*
G36*
G01*
X115250000Y-114100000D02*
X115250000Y-116900000D01*
G75*
G02*
X115200000Y-116950000I-50000J0D01*
G01*
X112400000Y-116950000D01*
G75*
G02*
X112350000Y-116900000I0J50000D01*
G01*
X112350000Y-114100000D01*
G75*
G02*
X112400000Y-114050000I50000J0D01*
G01*
X115200000Y-114050000D01*
G75*
G02*
X115250000Y-114100000I0J-50000D01*
G01*
G37*
X113800000Y-128200000D03*
%TD*%
D17*
%TO.C,D2*%
X176600000Y-92200000D03*
X176600000Y-102360000D03*
%TD*%
D18*
%TO.C,J1*%
X104100000Y-128100000D03*
X104100000Y-123020000D03*
%TD*%
D13*
%TO.C,J5*%
X174180000Y-139800000D03*
X169100000Y-139800000D03*
%TD*%
%TO.C,Q1*%
G36*
G01*
X181500000Y-113117500D02*
X183500000Y-113117500D01*
G75*
G02*
X183550000Y-113167500I0J-50000D01*
G01*
X183550000Y-115072500D01*
G75*
G02*
X183500000Y-115122500I-50000J0D01*
G01*
X181500000Y-115122500D01*
G75*
G02*
X181450000Y-115072500I0J50000D01*
G01*
X181450000Y-113167500D01*
G75*
G02*
X181500000Y-113117500I50000J0D01*
G01*
G37*
D19*
X182500000Y-116660000D03*
X182500000Y-119200000D03*
%TD*%
D15*
%TO.C,R1*%
X159000000Y-114400000D03*
X148840000Y-114400000D03*
%TD*%
D20*
%TO.C,R2*%
X171000000Y-92200000D03*
X171000000Y-102360000D03*
%TD*%
%TO.C,R3*%
X149100000Y-109360000D03*
X149100000Y-99200000D03*
%TD*%
D15*
%TO.C,R4*%
X143840000Y-129100000D03*
X154000000Y-129100000D03*
%TD*%
D20*
%TO.C,R5*%
X132600000Y-142960000D03*
X132600000Y-132800000D03*
%TD*%
D13*
%TO.C,RV1*%
X164600000Y-113100000D03*
X169680000Y-113100000D03*
X174760000Y-113100000D03*
%TD*%
%TO.C,U1*%
G36*
G01*
X156120000Y-102050000D02*
X154920000Y-102050000D01*
G75*
G02*
X154870000Y-102000000I0J50000D01*
G01*
X154870000Y-99800000D01*
G75*
G02*
X154920000Y-99750000I50000J0D01*
G01*
X156120000Y-99750000D01*
G75*
G02*
X156170000Y-99800000I0J-50000D01*
G01*
X156170000Y-102000000D01*
G75*
G02*
X156120000Y-102050000I-50000J0D01*
G01*
G37*
G36*
G01*
X160680000Y-102050000D02*
X159480000Y-102050000D01*
G75*
G02*
X159430000Y-102000000I0J50000D01*
G01*
X159430000Y-99800000D01*
G75*
G02*
X159480000Y-99750000I50000J0D01*
G01*
X160680000Y-99750000D01*
G75*
G02*
X160730000Y-99800000I0J-50000D01*
G01*
X160730000Y-102000000D01*
G75*
G02*
X160680000Y-102050000I-50000J0D01*
G01*
G37*
G36*
G01*
X160700000Y-97850000D02*
X154900000Y-97850000D01*
G75*
G02*
X154850000Y-97800000I0J50000D01*
G01*
X154850000Y-91400000D01*
G75*
G02*
X154900000Y-91350000I50000J0D01*
G01*
X160700000Y-91350000D01*
G75*
G02*
X160750000Y-91400000I0J-50000D01*
G01*
X160750000Y-97800000D01*
G75*
G02*
X160700000Y-97850000I-50000J0D01*
G01*
G37*
%TD*%
D20*
%TO.C,D4*%
X137700000Y-142900000D03*
X137700000Y-135280000D03*
%TD*%
D21*
%TO.C,H1*%
X190200000Y-143600000D03*
%TD*%
%TO.C,H2*%
X98000000Y-91500000D03*
%TD*%
%TO.C,H3*%
X190000000Y-91500000D03*
%TD*%
%TO.C,H4*%
X97900000Y-143600000D03*
%TD*%
D13*
%TO.C,D3*%
X159100000Y-139700000D03*
X154020000Y-139700000D03*
%TD*%
D22*
%TO.C,Q2*%
X123560000Y-139300000D03*
X121020000Y-139300000D03*
X126100000Y-139300000D03*
%TD*%
D23*
%TO.C,C9*%
X104400000Y-110650000D03*
X104400000Y-115650000D03*
X104400000Y-109400000D03*
X104400000Y-116900000D03*
%TD*%
M02*
