%TF.GenerationSoftware,KiCad,Pcbnew,5.1.8*%
%TF.CreationDate,2020-11-27T12:19:12-06:00*%
%TF.ProjectId,kicad,6b696361-642e-46b6-9963-61645f706362,rev?*%
%TF.SameCoordinates,Original*%
%TF.FileFunction,Legend,Top*%
%TF.FilePolarity,Positive*%
%FSLAX46Y46*%
G04 Gerber Fmt 4.6, Leading zero omitted, Abs format (unit mm)*
G04 Created by KiCad (PCBNEW 5.1.8) date 2020-11-27 12:19:12*
%MOMM*%
%LPD*%
G01*
G04 APERTURE LIST*
%ADD10C,0.300000*%
%ADD11C,0.100000*%
%TA.AperFunction,Profile*%
%ADD12C,0.050000*%
%TD*%
%ADD13C,0.120000*%
G04 APERTURE END LIST*
D10*
X153200000Y-145614285D02*
X152342857Y-145614285D01*
X152342857Y-143814285D01*
X153800000Y-145614285D02*
X153800000Y-143814285D01*
X154400000Y-145100000D01*
X155000000Y-143814285D01*
X155000000Y-145614285D01*
X155685714Y-143814285D02*
X156800000Y-143814285D01*
X156200000Y-144500000D01*
X156457142Y-144500000D01*
X156628571Y-144585714D01*
X156714285Y-144671428D01*
X156800000Y-144842857D01*
X156800000Y-145271428D01*
X156714285Y-145442857D01*
X156628571Y-145528571D01*
X156457142Y-145614285D01*
X155942857Y-145614285D01*
X155771428Y-145528571D01*
X155685714Y-145442857D01*
X158514285Y-145614285D02*
X157485714Y-145614285D01*
X158000000Y-145614285D02*
X158000000Y-143814285D01*
X157828571Y-144071428D01*
X157657142Y-144242857D01*
X157485714Y-144328571D01*
X159114285Y-143814285D02*
X160314285Y-143814285D01*
X159542857Y-145614285D01*
X162971428Y-144671428D02*
X163228571Y-144757142D01*
X163314285Y-144842857D01*
X163400000Y-145014285D01*
X163400000Y-145271428D01*
X163314285Y-145442857D01*
X163228571Y-145528571D01*
X163057142Y-145614285D01*
X162371428Y-145614285D01*
X162371428Y-143814285D01*
X162971428Y-143814285D01*
X163142857Y-143900000D01*
X163228571Y-143985714D01*
X163314285Y-144157142D01*
X163314285Y-144328571D01*
X163228571Y-144500000D01*
X163142857Y-144585714D01*
X162971428Y-144671428D01*
X162371428Y-144671428D01*
X164428571Y-145614285D02*
X164257142Y-145528571D01*
X164171428Y-145442857D01*
X164085714Y-145271428D01*
X164085714Y-144757142D01*
X164171428Y-144585714D01*
X164257142Y-144500000D01*
X164428571Y-144414285D01*
X164685714Y-144414285D01*
X164857142Y-144500000D01*
X164942857Y-144585714D01*
X165028571Y-144757142D01*
X165028571Y-145271428D01*
X164942857Y-145442857D01*
X164857142Y-145528571D01*
X164685714Y-145614285D01*
X164428571Y-145614285D01*
X165714285Y-145528571D02*
X165885714Y-145614285D01*
X166228571Y-145614285D01*
X166400000Y-145528571D01*
X166485714Y-145357142D01*
X166485714Y-145271428D01*
X166400000Y-145100000D01*
X166228571Y-145014285D01*
X165971428Y-145014285D01*
X165800000Y-144928571D01*
X165714285Y-144757142D01*
X165714285Y-144671428D01*
X165800000Y-144500000D01*
X165971428Y-144414285D01*
X166228571Y-144414285D01*
X166400000Y-144500000D01*
X167000000Y-144414285D02*
X167685714Y-144414285D01*
X167257142Y-143814285D02*
X167257142Y-145357142D01*
X167342857Y-145528571D01*
X167514285Y-145614285D01*
X167685714Y-145614285D01*
X170685714Y-145442857D02*
X170600000Y-145528571D01*
X170342857Y-145614285D01*
X170171428Y-145614285D01*
X169914285Y-145528571D01*
X169742857Y-145357142D01*
X169657142Y-145185714D01*
X169571428Y-144842857D01*
X169571428Y-144585714D01*
X169657142Y-144242857D01*
X169742857Y-144071428D01*
X169914285Y-143900000D01*
X170171428Y-143814285D01*
X170342857Y-143814285D01*
X170600000Y-143900000D01*
X170685714Y-143985714D01*
X172228571Y-144414285D02*
X172228571Y-145614285D01*
X171457142Y-144414285D02*
X171457142Y-145357142D01*
X171542857Y-145528571D01*
X171714285Y-145614285D01*
X171971428Y-145614285D01*
X172142857Y-145528571D01*
X172228571Y-145442857D01*
X173085714Y-145614285D02*
X173085714Y-144414285D01*
X173085714Y-144757142D02*
X173171428Y-144585714D01*
X173257142Y-144500000D01*
X173428571Y-144414285D01*
X173600000Y-144414285D01*
X174200000Y-145614285D02*
X174200000Y-144414285D01*
X174200000Y-144757142D02*
X174285714Y-144585714D01*
X174371428Y-144500000D01*
X174542857Y-144414285D01*
X174714285Y-144414285D01*
X176000000Y-145528571D02*
X175828571Y-145614285D01*
X175485714Y-145614285D01*
X175314285Y-145528571D01*
X175228571Y-145357142D01*
X175228571Y-144671428D01*
X175314285Y-144500000D01*
X175485714Y-144414285D01*
X175828571Y-144414285D01*
X176000000Y-144500000D01*
X176085714Y-144671428D01*
X176085714Y-144842857D01*
X175228571Y-145014285D01*
X176857142Y-144414285D02*
X176857142Y-145614285D01*
X176857142Y-144585714D02*
X176942857Y-144500000D01*
X177114285Y-144414285D01*
X177371428Y-144414285D01*
X177542857Y-144500000D01*
X177628571Y-144671428D01*
X177628571Y-145614285D01*
X178228571Y-144414285D02*
X178914285Y-144414285D01*
X178485714Y-143814285D02*
X178485714Y-145357142D01*
X178571428Y-145528571D01*
X178742857Y-145614285D01*
X178914285Y-145614285D01*
X97314285Y-134771428D02*
X98771428Y-134771428D01*
X98942857Y-134857142D01*
X99028571Y-134942857D01*
X99114285Y-135114285D01*
X99114285Y-135371428D01*
X99028571Y-135542857D01*
X98428571Y-134771428D02*
X98514285Y-134942857D01*
X98514285Y-135285714D01*
X98428571Y-135457142D01*
X98342857Y-135542857D01*
X98171428Y-135628571D01*
X97657142Y-135628571D01*
X97485714Y-135542857D01*
X97400000Y-135457142D01*
X97314285Y-135285714D01*
X97314285Y-134942857D01*
X97400000Y-134771428D01*
X98514285Y-133914285D02*
X97314285Y-133914285D01*
X96714285Y-133914285D02*
X96800000Y-134000000D01*
X96885714Y-133914285D01*
X96800000Y-133828571D01*
X96714285Y-133914285D01*
X96885714Y-133914285D01*
X97314285Y-133314285D02*
X97314285Y-132628571D01*
X96714285Y-133057142D02*
X98257142Y-133057142D01*
X98428571Y-132971428D01*
X98514285Y-132800000D01*
X98514285Y-132628571D01*
X98514285Y-131771428D02*
X98428571Y-131942857D01*
X98257142Y-132028571D01*
X96714285Y-132028571D01*
X98514285Y-130314285D02*
X97571428Y-130314285D01*
X97400000Y-130400000D01*
X97314285Y-130571428D01*
X97314285Y-130914285D01*
X97400000Y-131085714D01*
X98428571Y-130314285D02*
X98514285Y-130485714D01*
X98514285Y-130914285D01*
X98428571Y-131085714D01*
X98257142Y-131171428D01*
X98085714Y-131171428D01*
X97914285Y-131085714D01*
X97828571Y-130914285D01*
X97828571Y-130485714D01*
X97742857Y-130314285D01*
X98514285Y-129457142D02*
X96714285Y-129457142D01*
X97400000Y-129457142D02*
X97314285Y-129285714D01*
X97314285Y-128942857D01*
X97400000Y-128771428D01*
X97485714Y-128685714D01*
X97657142Y-128600000D01*
X98171428Y-128600000D01*
X98342857Y-128685714D01*
X98428571Y-128771428D01*
X98514285Y-128942857D01*
X98514285Y-129285714D01*
X98428571Y-129457142D01*
X98342857Y-127828571D02*
X98428571Y-127742857D01*
X98514285Y-127828571D01*
X98428571Y-127914285D01*
X98342857Y-127828571D01*
X98514285Y-127828571D01*
X98428571Y-126200000D02*
X98514285Y-126371428D01*
X98514285Y-126714285D01*
X98428571Y-126885714D01*
X98342857Y-126971428D01*
X98171428Y-127057142D01*
X97657142Y-127057142D01*
X97485714Y-126971428D01*
X97400000Y-126885714D01*
X97314285Y-126714285D01*
X97314285Y-126371428D01*
X97400000Y-126200000D01*
X98514285Y-125171428D02*
X98428571Y-125342857D01*
X98342857Y-125428571D01*
X98171428Y-125514285D01*
X97657142Y-125514285D01*
X97485714Y-125428571D01*
X97400000Y-125342857D01*
X97314285Y-125171428D01*
X97314285Y-124914285D01*
X97400000Y-124742857D01*
X97485714Y-124657142D01*
X97657142Y-124571428D01*
X98171428Y-124571428D01*
X98342857Y-124657142D01*
X98428571Y-124742857D01*
X98514285Y-124914285D01*
X98514285Y-125171428D01*
X98514285Y-123800000D02*
X97314285Y-123800000D01*
X97485714Y-123800000D02*
X97400000Y-123714285D01*
X97314285Y-123542857D01*
X97314285Y-123285714D01*
X97400000Y-123114285D01*
X97571428Y-123028571D01*
X98514285Y-123028571D01*
X97571428Y-123028571D02*
X97400000Y-122942857D01*
X97314285Y-122771428D01*
X97314285Y-122514285D01*
X97400000Y-122342857D01*
X97571428Y-122257142D01*
X98514285Y-122257142D01*
X96628571Y-120114285D02*
X98942857Y-121657142D01*
X98514285Y-118742857D02*
X96714285Y-118742857D01*
X98428571Y-118742857D02*
X98514285Y-118914285D01*
X98514285Y-119257142D01*
X98428571Y-119428571D01*
X98342857Y-119514285D01*
X98171428Y-119600000D01*
X97657142Y-119600000D01*
X97485714Y-119514285D01*
X97400000Y-119428571D01*
X97314285Y-119257142D01*
X97314285Y-118914285D01*
X97400000Y-118742857D01*
X97314285Y-117885714D02*
X99114285Y-117885714D01*
X97400000Y-117885714D02*
X97314285Y-117714285D01*
X97314285Y-117371428D01*
X97400000Y-117200000D01*
X97485714Y-117114285D01*
X97657142Y-117028571D01*
X98171428Y-117028571D01*
X98342857Y-117114285D01*
X98428571Y-117200000D01*
X98514285Y-117371428D01*
X98514285Y-117714285D01*
X98428571Y-117885714D01*
X97314285Y-116428571D02*
X98514285Y-116085714D01*
X97657142Y-115742857D01*
X98514285Y-115400000D01*
X97314285Y-115057142D01*
X98514285Y-113428571D02*
X98514285Y-114457142D01*
X98514285Y-113942857D02*
X96714285Y-113942857D01*
X96971428Y-114114285D01*
X97142857Y-114285714D01*
X97228571Y-114457142D01*
X98514285Y-112571428D02*
X98514285Y-112228571D01*
X98428571Y-112057142D01*
X98342857Y-111971428D01*
X98085714Y-111800000D01*
X97742857Y-111714285D01*
X97057142Y-111714285D01*
X96885714Y-111800000D01*
X96800000Y-111885714D01*
X96714285Y-112057142D01*
X96714285Y-112400000D01*
X96800000Y-112571428D01*
X96885714Y-112657142D01*
X97057142Y-112742857D01*
X97485714Y-112742857D01*
X97657142Y-112657142D01*
X97742857Y-112571428D01*
X97828571Y-112400000D01*
X97828571Y-112057142D01*
X97742857Y-111885714D01*
X97657142Y-111800000D01*
X97485714Y-111714285D01*
X96628571Y-109657142D02*
X98942857Y-111200000D01*
X97314285Y-109314285D02*
X97314285Y-108628571D01*
X98514285Y-109057142D02*
X96971428Y-109057142D01*
X96800000Y-108971428D01*
X96714285Y-108800000D01*
X96714285Y-108628571D01*
X97314285Y-107257142D02*
X98514285Y-107257142D01*
X97314285Y-108028571D02*
X98257142Y-108028571D01*
X98428571Y-107942857D01*
X98514285Y-107771428D01*
X98514285Y-107514285D01*
X98428571Y-107342857D01*
X98342857Y-107257142D01*
X98428571Y-105714285D02*
X98514285Y-105885714D01*
X98514285Y-106228571D01*
X98428571Y-106400000D01*
X98257142Y-106485714D01*
X97571428Y-106485714D01*
X97400000Y-106400000D01*
X97314285Y-106228571D01*
X97314285Y-105885714D01*
X97400000Y-105714285D01*
X97571428Y-105628571D01*
X97742857Y-105628571D01*
X97914285Y-106485714D01*
X97314285Y-104857142D02*
X98514285Y-104857142D01*
X97485714Y-104857142D02*
X97400000Y-104771428D01*
X97314285Y-104600000D01*
X97314285Y-104342857D01*
X97400000Y-104171428D01*
X97571428Y-104085714D01*
X98514285Y-104085714D01*
X97314285Y-103485714D02*
X97314285Y-102800000D01*
X96714285Y-103228571D02*
X98257142Y-103228571D01*
X98428571Y-103142857D01*
X98514285Y-102971428D01*
X98514285Y-102800000D01*
X98428571Y-101514285D02*
X98514285Y-101685714D01*
X98514285Y-102028571D01*
X98428571Y-102200000D01*
X98257142Y-102285714D01*
X97571428Y-102285714D01*
X97400000Y-102200000D01*
X97314285Y-102028571D01*
X97314285Y-101685714D01*
X97400000Y-101514285D01*
X97571428Y-101428571D01*
X97742857Y-101428571D01*
X97914285Y-102285714D01*
X98428571Y-100742857D02*
X98514285Y-100571428D01*
X98514285Y-100228571D01*
X98428571Y-100057142D01*
X98257142Y-99971428D01*
X98171428Y-99971428D01*
X98000000Y-100057142D01*
X97914285Y-100228571D01*
X97914285Y-100485714D01*
X97828571Y-100657142D01*
X97657142Y-100742857D01*
X97571428Y-100742857D01*
X97400000Y-100657142D01*
X97314285Y-100485714D01*
X97314285Y-100228571D01*
X97400000Y-100057142D01*
X173228571Y-135600000D02*
X173142857Y-135514285D01*
X172971428Y-135257142D01*
X172885714Y-135085714D01*
X172800000Y-134828571D01*
X172714285Y-134400000D01*
X172714285Y-134057142D01*
X172800000Y-133628571D01*
X172885714Y-133371428D01*
X172971428Y-133200000D01*
X173142857Y-132942857D01*
X173228571Y-132857142D01*
X173914285Y-134228571D02*
X175285714Y-134228571D01*
X174600000Y-134914285D02*
X174600000Y-133542857D01*
X175971428Y-135600000D02*
X176057142Y-135514285D01*
X176228571Y-135257142D01*
X176314285Y-135085714D01*
X176400000Y-134828571D01*
X176485714Y-134400000D01*
X176485714Y-134057142D01*
X176400000Y-133628571D01*
X176314285Y-133371428D01*
X176228571Y-133200000D01*
X176057142Y-132942857D01*
X175971428Y-132857142D01*
X152528571Y-135600000D02*
X152442857Y-135514285D01*
X152271428Y-135257142D01*
X152185714Y-135085714D01*
X152100000Y-134828571D01*
X152014285Y-134400000D01*
X152014285Y-134057142D01*
X152100000Y-133628571D01*
X152185714Y-133371428D01*
X152271428Y-133200000D01*
X152442857Y-132942857D01*
X152528571Y-132857142D01*
X153214285Y-134228571D02*
X154585714Y-134228571D01*
X153900000Y-134914285D02*
X153900000Y-133542857D01*
X155271428Y-135600000D02*
X155357142Y-135514285D01*
X155528571Y-135257142D01*
X155614285Y-135085714D01*
X155700000Y-134828571D01*
X155785714Y-134400000D01*
X155785714Y-134057142D01*
X155700000Y-133628571D01*
X155614285Y-133371428D01*
X155528571Y-133200000D01*
X155357142Y-132942857D01*
X155271428Y-132857142D01*
X114028571Y-136800000D02*
X113942857Y-136714285D01*
X113771428Y-136457142D01*
X113685714Y-136285714D01*
X113600000Y-136028571D01*
X113514285Y-135600000D01*
X113514285Y-135257142D01*
X113600000Y-134828571D01*
X113685714Y-134571428D01*
X113771428Y-134400000D01*
X113942857Y-134142857D01*
X114028571Y-134057142D01*
X114714285Y-135428571D02*
X116085714Y-135428571D01*
X115400000Y-136114285D02*
X115400000Y-134742857D01*
X116771428Y-136800000D02*
X116857142Y-136714285D01*
X117028571Y-136457142D01*
X117114285Y-136285714D01*
X117200000Y-136028571D01*
X117285714Y-135600000D01*
X117285714Y-135257142D01*
X117200000Y-134828571D01*
X117114285Y-134571428D01*
X117028571Y-134400000D01*
X116857142Y-134142857D01*
X116771428Y-134057142D01*
D11*
G36*
X186200000Y-143700000D02*
G01*
X184400000Y-145500000D01*
X184400000Y-141900000D01*
X186200000Y-143700000D01*
G37*
X186200000Y-143700000D02*
X184400000Y-145500000D01*
X184400000Y-141900000D01*
X186200000Y-143700000D01*
G36*
X191800000Y-97100000D02*
G01*
X188200000Y-97100000D01*
X190000000Y-95300000D01*
X191800000Y-97100000D01*
G37*
X191800000Y-97100000D02*
X188200000Y-97100000D01*
X190000000Y-95300000D01*
X191800000Y-97100000D01*
G36*
X97900000Y-139900000D02*
G01*
X96100000Y-138100000D01*
X99700000Y-138100000D01*
X97900000Y-139900000D01*
G37*
X97900000Y-139900000D02*
X96100000Y-138100000D01*
X99700000Y-138100000D01*
X97900000Y-139900000D01*
G36*
X99800000Y-97800000D02*
G01*
X96200000Y-97800000D01*
X98000000Y-96000000D01*
X99800000Y-97800000D01*
G37*
X99800000Y-97800000D02*
X96200000Y-97800000D01*
X98000000Y-96000000D01*
X99800000Y-97800000D01*
D12*
X94000000Y-147500000D02*
X94000000Y-137500000D01*
X194000000Y-147500000D02*
X94000000Y-147500000D01*
X194000000Y-137500000D02*
X194000000Y-147500000D01*
X94000000Y-87500000D02*
X194000000Y-87500000D01*
X94000000Y-137500000D02*
X94000000Y-87500000D01*
X194000000Y-87500000D02*
X194000000Y-137500000D01*
D13*
%TO.C,C8*%
X106570000Y-135680000D02*
X106570000Y-140920000D01*
X103830000Y-135680000D02*
X103830000Y-140920000D01*
X106570000Y-135680000D02*
X106255000Y-135680000D01*
X104145000Y-135680000D02*
X103830000Y-135680000D01*
X106570000Y-140920000D02*
X106255000Y-140920000D01*
X104145000Y-140920000D02*
X103830000Y-140920000D01*
%TO.C,REF\u002A\u002A*%
X190070000Y-99080000D02*
X188180000Y-101040000D01*
X190220000Y-99170000D02*
X190070000Y-99080000D01*
X189540000Y-101220000D02*
X190220000Y-99170000D01*
X193310000Y-99070000D02*
X189540000Y-101220000D01*
X193430000Y-99190000D02*
X193310000Y-99070000D01*
X190550000Y-104490000D02*
X193430000Y-99190000D01*
X193350000Y-103830000D02*
X190550000Y-104490000D01*
X193410000Y-104010000D02*
X193350000Y-103830000D01*
X189690000Y-106510000D02*
X193410000Y-104010000D01*
X193400000Y-108130000D02*
X189690000Y-106520000D01*
X193400000Y-108800000D02*
X193400000Y-108130000D01*
X187650000Y-108800000D02*
X193400000Y-108800000D01*
X187650000Y-116700000D02*
X187650000Y-108800000D01*
X180200000Y-108800000D02*
X180200000Y-108130000D01*
X185950000Y-108800000D02*
X180200000Y-108800000D01*
X185950000Y-116700000D02*
X185950000Y-108800000D01*
X180200000Y-108130000D02*
X183910000Y-106520000D01*
X183380000Y-99170000D02*
X183530000Y-99080000D01*
X180170000Y-99190000D02*
X180290000Y-99070000D01*
X180290000Y-99070000D02*
X184060000Y-101220000D01*
X184060000Y-101220000D02*
X183380000Y-99170000D01*
X183530000Y-99080000D02*
X185420000Y-101040000D01*
X183050000Y-104490000D02*
X180170000Y-99190000D01*
X183910000Y-106510000D02*
X180190000Y-104010000D01*
X180190000Y-104010000D02*
X180250000Y-103830000D01*
X180250000Y-103830000D02*
X183050000Y-104490000D01*
X187650000Y-116700000D02*
X187650000Y-124600000D01*
X193400000Y-125270000D02*
X189690000Y-126880000D01*
X193400000Y-124600000D02*
X193400000Y-125270000D01*
X187650000Y-124600000D02*
X193400000Y-124600000D01*
X185950000Y-116700000D02*
X185950000Y-124600000D01*
X184060000Y-132180000D02*
X183380000Y-134230000D01*
X180170000Y-134210000D02*
X180290000Y-134330000D01*
X183380000Y-134230000D02*
X183530000Y-134320000D01*
X180290000Y-134330000D02*
X184060000Y-132180000D01*
X183530000Y-134320000D02*
X185420000Y-132360000D01*
X183910000Y-126890000D02*
X180190000Y-129390000D01*
X180250000Y-129570000D02*
X183050000Y-128910000D01*
X180190000Y-129390000D02*
X180250000Y-129570000D01*
X183050000Y-128910000D02*
X180170000Y-134210000D01*
X180200000Y-124600000D02*
X180200000Y-125270000D01*
X185950000Y-124600000D02*
X180200000Y-124600000D01*
X180200000Y-125270000D02*
X183910000Y-126880000D01*
X193430000Y-134210000D02*
X193310000Y-134330000D01*
X190070000Y-134320000D02*
X188180000Y-132360000D01*
X189540000Y-132180000D02*
X190220000Y-134230000D01*
X190220000Y-134230000D02*
X190070000Y-134320000D01*
X193310000Y-134330000D02*
X189540000Y-132180000D01*
X190550000Y-128910000D02*
X193430000Y-134210000D01*
X193350000Y-129570000D02*
X190550000Y-128910000D01*
X193410000Y-129390000D02*
X193350000Y-129570000D01*
X189690000Y-126890000D02*
X193410000Y-129390000D01*
%TO.C,C7*%
X169370000Y-124180000D02*
X169370000Y-129420000D01*
X166630000Y-124180000D02*
X166630000Y-129420000D01*
X169370000Y-124180000D02*
X169055000Y-124180000D01*
X166945000Y-124180000D02*
X166630000Y-124180000D01*
X169370000Y-129420000D02*
X169055000Y-129420000D01*
X166945000Y-129420000D02*
X166630000Y-129420000D01*
%TO.C,F1*%
X132980000Y-117260000D02*
X143140000Y-117260000D01*
X132980000Y-115990000D02*
X132980000Y-123610000D01*
X132980000Y-123610000D02*
X143140000Y-123610000D01*
X143140000Y-123610000D02*
X143140000Y-115990000D01*
X143140000Y-115990000D02*
X132980000Y-115990000D01*
%TO.C,J4*%
X117820000Y-136890000D02*
X107660000Y-136890000D01*
X117820000Y-144510000D02*
X117820000Y-136890000D01*
X107660000Y-144510000D02*
X117820000Y-144510000D01*
X107660000Y-136890000D02*
X107660000Y-144510000D01*
X107660000Y-138160000D02*
X117820000Y-138160000D01*
%TO.C,C1*%
X128885000Y-107809440D02*
X130685000Y-107809440D01*
X129785000Y-108709440D02*
X129785000Y-106909440D01*
X134860000Y-89830000D02*
X134940000Y-89830000D01*
X134086000Y-89870000D02*
X135714000Y-89870000D01*
X133734000Y-89910000D02*
X136066000Y-89910000D01*
X133465000Y-89950000D02*
X136335000Y-89950000D01*
X133239000Y-89990000D02*
X136561000Y-89990000D01*
X133040000Y-90030000D02*
X136760000Y-90030000D01*
X132861000Y-90070000D02*
X136939000Y-90070000D01*
X132697000Y-90110000D02*
X137103000Y-90110000D01*
X132545000Y-90150000D02*
X137255000Y-90150000D01*
X132402000Y-90190000D02*
X137398000Y-90190000D01*
X132268000Y-90230000D02*
X137532000Y-90230000D01*
X132141000Y-90270000D02*
X137659000Y-90270000D01*
X132020000Y-90310000D02*
X137780000Y-90310000D01*
X131904000Y-90350000D02*
X137896000Y-90350000D01*
X131793000Y-90390000D02*
X138007000Y-90390000D01*
X131686000Y-90430000D02*
X138114000Y-90430000D01*
X131583000Y-90470000D02*
X138217000Y-90470000D01*
X131484000Y-90510000D02*
X138316000Y-90510000D01*
X131388000Y-90550000D02*
X138412000Y-90550000D01*
X131295000Y-90590000D02*
X138505000Y-90590000D01*
X131204000Y-90630000D02*
X138596000Y-90630000D01*
X131116000Y-90670000D02*
X138684000Y-90670000D01*
X131031000Y-90710000D02*
X138769000Y-90710000D01*
X130948000Y-90750000D02*
X138852000Y-90750000D01*
X130867000Y-90789000D02*
X138933000Y-90789000D01*
X130787000Y-90829000D02*
X139013000Y-90829000D01*
X130710000Y-90869000D02*
X139090000Y-90869000D01*
X130635000Y-90909000D02*
X139165000Y-90909000D01*
X130561000Y-90949000D02*
X139239000Y-90949000D01*
X130488000Y-90989000D02*
X139312000Y-90989000D01*
X130418000Y-91029000D02*
X139382000Y-91029000D01*
X130348000Y-91069000D02*
X139452000Y-91069000D01*
X130280000Y-91109000D02*
X139520000Y-91109000D01*
X130214000Y-91149000D02*
X139586000Y-91149000D01*
X130148000Y-91189000D02*
X139652000Y-91189000D01*
X130084000Y-91229000D02*
X139716000Y-91229000D01*
X130021000Y-91269000D02*
X139779000Y-91269000D01*
X129959000Y-91309000D02*
X139841000Y-91309000D01*
X129898000Y-91349000D02*
X139902000Y-91349000D01*
X129838000Y-91389000D02*
X139962000Y-91389000D01*
X129780000Y-91429000D02*
X140020000Y-91429000D01*
X129722000Y-91469000D02*
X140078000Y-91469000D01*
X129665000Y-91509000D02*
X140135000Y-91509000D01*
X129609000Y-91549000D02*
X140191000Y-91549000D01*
X129554000Y-91589000D02*
X140246000Y-91589000D01*
X129500000Y-91629000D02*
X140300000Y-91629000D01*
X129446000Y-91669000D02*
X140354000Y-91669000D01*
X129394000Y-91709000D02*
X140406000Y-91709000D01*
X129342000Y-91749000D02*
X140458000Y-91749000D01*
X129291000Y-91789000D02*
X140509000Y-91789000D01*
X129240000Y-91829000D02*
X140560000Y-91829000D01*
X129191000Y-91869000D02*
X140609000Y-91869000D01*
X129142000Y-91909000D02*
X140658000Y-91909000D01*
X129094000Y-91949000D02*
X140706000Y-91949000D01*
X129046000Y-91989000D02*
X140754000Y-91989000D01*
X128999000Y-92029000D02*
X140801000Y-92029000D01*
X128953000Y-92069000D02*
X140847000Y-92069000D01*
X128907000Y-92109000D02*
X140893000Y-92109000D01*
X128862000Y-92149000D02*
X140938000Y-92149000D01*
X128818000Y-92189000D02*
X140982000Y-92189000D01*
X128774000Y-92229000D02*
X141026000Y-92229000D01*
X128730000Y-92269000D02*
X141070000Y-92269000D01*
X128688000Y-92309000D02*
X141112000Y-92309000D01*
X128646000Y-92349000D02*
X141154000Y-92349000D01*
X128604000Y-92389000D02*
X141196000Y-92389000D01*
X128563000Y-92429000D02*
X141237000Y-92429000D01*
X128522000Y-92469000D02*
X141278000Y-92469000D01*
X128482000Y-92509000D02*
X141318000Y-92509000D01*
X128442000Y-92549000D02*
X141358000Y-92549000D01*
X128403000Y-92589000D02*
X141397000Y-92589000D01*
X128364000Y-92629000D02*
X141436000Y-92629000D01*
X128326000Y-92669000D02*
X141474000Y-92669000D01*
X128288000Y-92709000D02*
X141512000Y-92709000D01*
X128251000Y-92749000D02*
X141549000Y-92749000D01*
X128214000Y-92789000D02*
X141586000Y-92789000D01*
X128178000Y-92829000D02*
X141622000Y-92829000D01*
X128142000Y-92869000D02*
X141658000Y-92869000D01*
X128106000Y-92909000D02*
X141694000Y-92909000D01*
X128071000Y-92949000D02*
X141729000Y-92949000D01*
X128036000Y-92989000D02*
X141764000Y-92989000D01*
X128002000Y-93029000D02*
X141798000Y-93029000D01*
X127968000Y-93069000D02*
X141832000Y-93069000D01*
X127935000Y-93109000D02*
X141865000Y-93109000D01*
X127901000Y-93149000D02*
X141899000Y-93149000D01*
X127869000Y-93189000D02*
X141931000Y-93189000D01*
X127836000Y-93229000D02*
X141964000Y-93229000D01*
X127804000Y-93269000D02*
X141996000Y-93269000D01*
X127773000Y-93309000D02*
X142027000Y-93309000D01*
X127741000Y-93349000D02*
X142059000Y-93349000D01*
X127710000Y-93389000D02*
X142090000Y-93389000D01*
X127680000Y-93429000D02*
X142120000Y-93429000D01*
X127650000Y-93469000D02*
X142150000Y-93469000D01*
X127620000Y-93509000D02*
X142180000Y-93509000D01*
X127590000Y-93549000D02*
X142210000Y-93549000D01*
X127561000Y-93589000D02*
X142239000Y-93589000D01*
X127532000Y-93629000D02*
X142268000Y-93629000D01*
X127503000Y-93669000D02*
X142297000Y-93669000D01*
X127475000Y-93709000D02*
X142325000Y-93709000D01*
X127447000Y-93749000D02*
X142353000Y-93749000D01*
X136340000Y-93789000D02*
X142380000Y-93789000D01*
X127420000Y-93789000D02*
X133460000Y-93789000D01*
X136340000Y-93829000D02*
X142408000Y-93829000D01*
X127392000Y-93829000D02*
X133460000Y-93829000D01*
X136340000Y-93869000D02*
X142435000Y-93869000D01*
X127365000Y-93869000D02*
X133460000Y-93869000D01*
X136340000Y-93909000D02*
X142461000Y-93909000D01*
X127339000Y-93909000D02*
X133460000Y-93909000D01*
X136340000Y-93949000D02*
X142488000Y-93949000D01*
X127312000Y-93949000D02*
X133460000Y-93949000D01*
X136340000Y-93989000D02*
X142514000Y-93989000D01*
X127286000Y-93989000D02*
X133460000Y-93989000D01*
X136340000Y-94029000D02*
X142540000Y-94029000D01*
X127260000Y-94029000D02*
X133460000Y-94029000D01*
X136340000Y-94069000D02*
X142565000Y-94069000D01*
X127235000Y-94069000D02*
X133460000Y-94069000D01*
X136340000Y-94109000D02*
X142590000Y-94109000D01*
X127210000Y-94109000D02*
X133460000Y-94109000D01*
X136340000Y-94149000D02*
X142615000Y-94149000D01*
X127185000Y-94149000D02*
X133460000Y-94149000D01*
X136340000Y-94189000D02*
X142640000Y-94189000D01*
X127160000Y-94189000D02*
X133460000Y-94189000D01*
X136340000Y-94229000D02*
X142664000Y-94229000D01*
X127136000Y-94229000D02*
X133460000Y-94229000D01*
X136340000Y-94269000D02*
X142688000Y-94269000D01*
X127112000Y-94269000D02*
X133460000Y-94269000D01*
X136340000Y-94309000D02*
X142712000Y-94309000D01*
X127088000Y-94309000D02*
X133460000Y-94309000D01*
X136340000Y-94349000D02*
X142735000Y-94349000D01*
X127065000Y-94349000D02*
X133460000Y-94349000D01*
X136340000Y-94389000D02*
X142759000Y-94389000D01*
X127041000Y-94389000D02*
X133460000Y-94389000D01*
X136340000Y-94429000D02*
X142782000Y-94429000D01*
X127018000Y-94429000D02*
X133460000Y-94429000D01*
X136340000Y-94469000D02*
X142804000Y-94469000D01*
X126996000Y-94469000D02*
X133460000Y-94469000D01*
X136340000Y-94509000D02*
X142827000Y-94509000D01*
X126973000Y-94509000D02*
X133460000Y-94509000D01*
X136340000Y-94549000D02*
X142849000Y-94549000D01*
X126951000Y-94549000D02*
X133460000Y-94549000D01*
X136340000Y-94589000D02*
X142871000Y-94589000D01*
X126929000Y-94589000D02*
X133460000Y-94589000D01*
X136340000Y-94629000D02*
X142892000Y-94629000D01*
X126908000Y-94629000D02*
X133460000Y-94629000D01*
X136340000Y-94669000D02*
X142914000Y-94669000D01*
X126886000Y-94669000D02*
X133460000Y-94669000D01*
X136340000Y-94709000D02*
X142935000Y-94709000D01*
X126865000Y-94709000D02*
X133460000Y-94709000D01*
X136340000Y-94749000D02*
X142956000Y-94749000D01*
X126844000Y-94749000D02*
X133460000Y-94749000D01*
X136340000Y-94789000D02*
X142976000Y-94789000D01*
X126824000Y-94789000D02*
X133460000Y-94789000D01*
X136340000Y-94829000D02*
X142997000Y-94829000D01*
X126803000Y-94829000D02*
X133460000Y-94829000D01*
X136340000Y-94869000D02*
X143017000Y-94869000D01*
X126783000Y-94869000D02*
X133460000Y-94869000D01*
X136340000Y-94909000D02*
X143037000Y-94909000D01*
X126763000Y-94909000D02*
X133460000Y-94909000D01*
X136340000Y-94949000D02*
X143056000Y-94949000D01*
X126744000Y-94949000D02*
X133460000Y-94949000D01*
X136340000Y-94989000D02*
X143076000Y-94989000D01*
X126724000Y-94989000D02*
X133460000Y-94989000D01*
X136340000Y-95029000D02*
X143095000Y-95029000D01*
X126705000Y-95029000D02*
X133460000Y-95029000D01*
X136340000Y-95069000D02*
X143114000Y-95069000D01*
X126686000Y-95069000D02*
X133460000Y-95069000D01*
X136340000Y-95109000D02*
X143133000Y-95109000D01*
X126667000Y-95109000D02*
X133460000Y-95109000D01*
X136340000Y-95149000D02*
X143151000Y-95149000D01*
X126649000Y-95149000D02*
X133460000Y-95149000D01*
X136340000Y-95189000D02*
X143169000Y-95189000D01*
X126631000Y-95189000D02*
X133460000Y-95189000D01*
X136340000Y-95229000D02*
X143187000Y-95229000D01*
X126613000Y-95229000D02*
X133460000Y-95229000D01*
X136340000Y-95269000D02*
X143205000Y-95269000D01*
X126595000Y-95269000D02*
X133460000Y-95269000D01*
X136340000Y-95309000D02*
X143223000Y-95309000D01*
X126577000Y-95309000D02*
X133460000Y-95309000D01*
X136340000Y-95349000D02*
X143240000Y-95349000D01*
X126560000Y-95349000D02*
X133460000Y-95349000D01*
X136340000Y-95389000D02*
X143257000Y-95389000D01*
X126543000Y-95389000D02*
X133460000Y-95389000D01*
X136340000Y-95429000D02*
X143274000Y-95429000D01*
X126526000Y-95429000D02*
X133460000Y-95429000D01*
X136340000Y-95469000D02*
X143290000Y-95469000D01*
X126510000Y-95469000D02*
X133460000Y-95469000D01*
X136340000Y-95509000D02*
X143307000Y-95509000D01*
X126493000Y-95509000D02*
X133460000Y-95509000D01*
X136340000Y-95549000D02*
X143323000Y-95549000D01*
X126477000Y-95549000D02*
X133460000Y-95549000D01*
X136340000Y-95589000D02*
X143339000Y-95589000D01*
X126461000Y-95589000D02*
X133460000Y-95589000D01*
X136340000Y-95629000D02*
X143355000Y-95629000D01*
X126445000Y-95629000D02*
X133460000Y-95629000D01*
X136340000Y-95669000D02*
X143370000Y-95669000D01*
X126430000Y-95669000D02*
X133460000Y-95669000D01*
X136340000Y-95709000D02*
X143386000Y-95709000D01*
X126414000Y-95709000D02*
X133460000Y-95709000D01*
X136340000Y-95749000D02*
X143401000Y-95749000D01*
X126399000Y-95749000D02*
X133460000Y-95749000D01*
X136340000Y-95789000D02*
X143416000Y-95789000D01*
X126384000Y-95789000D02*
X133460000Y-95789000D01*
X136340000Y-95829000D02*
X143430000Y-95829000D01*
X126370000Y-95829000D02*
X133460000Y-95829000D01*
X136340000Y-95869000D02*
X143445000Y-95869000D01*
X126355000Y-95869000D02*
X133460000Y-95869000D01*
X136340000Y-95909000D02*
X143459000Y-95909000D01*
X126341000Y-95909000D02*
X133460000Y-95909000D01*
X136340000Y-95949000D02*
X143473000Y-95949000D01*
X126327000Y-95949000D02*
X133460000Y-95949000D01*
X136340000Y-95989000D02*
X143487000Y-95989000D01*
X126313000Y-95989000D02*
X133460000Y-95989000D01*
X136340000Y-96029000D02*
X143500000Y-96029000D01*
X126300000Y-96029000D02*
X133460000Y-96029000D01*
X136340000Y-96069000D02*
X143514000Y-96069000D01*
X126286000Y-96069000D02*
X133460000Y-96069000D01*
X136340000Y-96109000D02*
X143527000Y-96109000D01*
X126273000Y-96109000D02*
X133460000Y-96109000D01*
X136340000Y-96149000D02*
X143540000Y-96149000D01*
X126260000Y-96149000D02*
X133460000Y-96149000D01*
X136340000Y-96189000D02*
X143553000Y-96189000D01*
X126247000Y-96189000D02*
X133460000Y-96189000D01*
X136340000Y-96229000D02*
X143565000Y-96229000D01*
X126235000Y-96229000D02*
X133460000Y-96229000D01*
X136340000Y-96269000D02*
X143578000Y-96269000D01*
X126222000Y-96269000D02*
X133460000Y-96269000D01*
X136340000Y-96309000D02*
X143590000Y-96309000D01*
X126210000Y-96309000D02*
X133460000Y-96309000D01*
X136340000Y-96349000D02*
X143602000Y-96349000D01*
X126198000Y-96349000D02*
X133460000Y-96349000D01*
X136340000Y-96389000D02*
X143614000Y-96389000D01*
X126186000Y-96389000D02*
X133460000Y-96389000D01*
X136340000Y-96429000D02*
X143625000Y-96429000D01*
X126175000Y-96429000D02*
X133460000Y-96429000D01*
X136340000Y-96469000D02*
X143637000Y-96469000D01*
X126163000Y-96469000D02*
X133460000Y-96469000D01*
X136340000Y-96509000D02*
X143648000Y-96509000D01*
X126152000Y-96509000D02*
X133460000Y-96509000D01*
X136340000Y-96549000D02*
X143659000Y-96549000D01*
X126141000Y-96549000D02*
X133460000Y-96549000D01*
X136340000Y-96589000D02*
X143670000Y-96589000D01*
X126130000Y-96589000D02*
X133460000Y-96589000D01*
X136340000Y-96629000D02*
X143680000Y-96629000D01*
X126120000Y-96629000D02*
X133460000Y-96629000D01*
X126109000Y-96669000D02*
X143691000Y-96669000D01*
X126099000Y-96709000D02*
X143701000Y-96709000D01*
X126089000Y-96749000D02*
X143711000Y-96749000D01*
X126079000Y-96789000D02*
X143721000Y-96789000D01*
X126069000Y-96829000D02*
X143731000Y-96829000D01*
X126060000Y-96869000D02*
X143740000Y-96869000D01*
X126051000Y-96909000D02*
X143749000Y-96909000D01*
X126042000Y-96949000D02*
X143758000Y-96949000D01*
X126033000Y-96989000D02*
X143767000Y-96989000D01*
X126024000Y-97029000D02*
X143776000Y-97029000D01*
X126015000Y-97069000D02*
X143785000Y-97069000D01*
X126007000Y-97109000D02*
X143793000Y-97109000D01*
X125999000Y-97149000D02*
X143801000Y-97149000D01*
X125991000Y-97189000D02*
X143809000Y-97189000D01*
X125983000Y-97229000D02*
X143817000Y-97229000D01*
X125976000Y-97269000D02*
X143824000Y-97269000D01*
X125968000Y-97309000D02*
X143832000Y-97309000D01*
X125961000Y-97349000D02*
X143839000Y-97349000D01*
X125954000Y-97389000D02*
X143846000Y-97389000D01*
X125947000Y-97429000D02*
X143853000Y-97429000D01*
X125940000Y-97469000D02*
X143860000Y-97469000D01*
X125934000Y-97509000D02*
X143866000Y-97509000D01*
X125928000Y-97549000D02*
X143872000Y-97549000D01*
X125921000Y-97589000D02*
X143879000Y-97589000D01*
X125916000Y-97629000D02*
X143884000Y-97629000D01*
X125910000Y-97669000D02*
X143890000Y-97669000D01*
X125904000Y-97709000D02*
X143896000Y-97709000D01*
X125899000Y-97749000D02*
X143901000Y-97749000D01*
X125894000Y-97789000D02*
X143906000Y-97789000D01*
X125889000Y-97829000D02*
X143911000Y-97829000D01*
X125884000Y-97869000D02*
X143916000Y-97869000D01*
X125879000Y-97909000D02*
X143921000Y-97909000D01*
X125874000Y-97949000D02*
X143926000Y-97949000D01*
X125870000Y-97989000D02*
X143930000Y-97989000D01*
X125866000Y-98029000D02*
X143934000Y-98029000D01*
X125862000Y-98069000D02*
X143938000Y-98069000D01*
X125858000Y-98109000D02*
X143942000Y-98109000D01*
X125855000Y-98149000D02*
X143945000Y-98149000D01*
X125851000Y-98189000D02*
X143949000Y-98189000D01*
X125848000Y-98229000D02*
X143952000Y-98229000D01*
X125845000Y-98270000D02*
X143955000Y-98270000D01*
X125842000Y-98310000D02*
X143958000Y-98310000D01*
X125839000Y-98350000D02*
X143961000Y-98350000D01*
X125837000Y-98390000D02*
X143963000Y-98390000D01*
X125834000Y-98430000D02*
X143966000Y-98430000D01*
X125832000Y-98470000D02*
X143968000Y-98470000D01*
X125830000Y-98510000D02*
X143970000Y-98510000D01*
X125828000Y-98550000D02*
X143972000Y-98550000D01*
X125827000Y-98590000D02*
X143973000Y-98590000D01*
X125825000Y-98630000D02*
X143975000Y-98630000D01*
X125824000Y-98670000D02*
X143976000Y-98670000D01*
X125823000Y-98710000D02*
X143977000Y-98710000D01*
X125822000Y-98750000D02*
X143978000Y-98750000D01*
X125821000Y-98790000D02*
X143979000Y-98790000D01*
X125820000Y-98830000D02*
X143980000Y-98830000D01*
X125820000Y-98870000D02*
X143980000Y-98870000D01*
X125820000Y-98910000D02*
X143980000Y-98910000D01*
X125819000Y-98950000D02*
X143981000Y-98950000D01*
X144020000Y-98950000D02*
G75*
G03*
X144020000Y-98950000I-9120000J0D01*
G01*
%TO.C,C2*%
X123520000Y-98950000D02*
G75*
G03*
X123520000Y-98950000I-9120000J0D01*
G01*
X105319000Y-98950000D02*
X123481000Y-98950000D01*
X105320000Y-98910000D02*
X123480000Y-98910000D01*
X105320000Y-98870000D02*
X123480000Y-98870000D01*
X105320000Y-98830000D02*
X123480000Y-98830000D01*
X105321000Y-98790000D02*
X123479000Y-98790000D01*
X105322000Y-98750000D02*
X123478000Y-98750000D01*
X105323000Y-98710000D02*
X123477000Y-98710000D01*
X105324000Y-98670000D02*
X123476000Y-98670000D01*
X105325000Y-98630000D02*
X123475000Y-98630000D01*
X105327000Y-98590000D02*
X123473000Y-98590000D01*
X105328000Y-98550000D02*
X123472000Y-98550000D01*
X105330000Y-98510000D02*
X123470000Y-98510000D01*
X105332000Y-98470000D02*
X123468000Y-98470000D01*
X105334000Y-98430000D02*
X123466000Y-98430000D01*
X105337000Y-98390000D02*
X123463000Y-98390000D01*
X105339000Y-98350000D02*
X123461000Y-98350000D01*
X105342000Y-98310000D02*
X123458000Y-98310000D01*
X105345000Y-98270000D02*
X123455000Y-98270000D01*
X105348000Y-98229000D02*
X123452000Y-98229000D01*
X105351000Y-98189000D02*
X123449000Y-98189000D01*
X105355000Y-98149000D02*
X123445000Y-98149000D01*
X105358000Y-98109000D02*
X123442000Y-98109000D01*
X105362000Y-98069000D02*
X123438000Y-98069000D01*
X105366000Y-98029000D02*
X123434000Y-98029000D01*
X105370000Y-97989000D02*
X123430000Y-97989000D01*
X105374000Y-97949000D02*
X123426000Y-97949000D01*
X105379000Y-97909000D02*
X123421000Y-97909000D01*
X105384000Y-97869000D02*
X123416000Y-97869000D01*
X105389000Y-97829000D02*
X123411000Y-97829000D01*
X105394000Y-97789000D02*
X123406000Y-97789000D01*
X105399000Y-97749000D02*
X123401000Y-97749000D01*
X105404000Y-97709000D02*
X123396000Y-97709000D01*
X105410000Y-97669000D02*
X123390000Y-97669000D01*
X105416000Y-97629000D02*
X123384000Y-97629000D01*
X105421000Y-97589000D02*
X123379000Y-97589000D01*
X105428000Y-97549000D02*
X123372000Y-97549000D01*
X105434000Y-97509000D02*
X123366000Y-97509000D01*
X105440000Y-97469000D02*
X123360000Y-97469000D01*
X105447000Y-97429000D02*
X123353000Y-97429000D01*
X105454000Y-97389000D02*
X123346000Y-97389000D01*
X105461000Y-97349000D02*
X123339000Y-97349000D01*
X105468000Y-97309000D02*
X123332000Y-97309000D01*
X105476000Y-97269000D02*
X123324000Y-97269000D01*
X105483000Y-97229000D02*
X123317000Y-97229000D01*
X105491000Y-97189000D02*
X123309000Y-97189000D01*
X105499000Y-97149000D02*
X123301000Y-97149000D01*
X105507000Y-97109000D02*
X123293000Y-97109000D01*
X105515000Y-97069000D02*
X123285000Y-97069000D01*
X105524000Y-97029000D02*
X123276000Y-97029000D01*
X105533000Y-96989000D02*
X123267000Y-96989000D01*
X105542000Y-96949000D02*
X123258000Y-96949000D01*
X105551000Y-96909000D02*
X123249000Y-96909000D01*
X105560000Y-96869000D02*
X123240000Y-96869000D01*
X105569000Y-96829000D02*
X123231000Y-96829000D01*
X105579000Y-96789000D02*
X123221000Y-96789000D01*
X105589000Y-96749000D02*
X123211000Y-96749000D01*
X105599000Y-96709000D02*
X123201000Y-96709000D01*
X105609000Y-96669000D02*
X123191000Y-96669000D01*
X105620000Y-96629000D02*
X112960000Y-96629000D01*
X115840000Y-96629000D02*
X123180000Y-96629000D01*
X105630000Y-96589000D02*
X112960000Y-96589000D01*
X115840000Y-96589000D02*
X123170000Y-96589000D01*
X105641000Y-96549000D02*
X112960000Y-96549000D01*
X115840000Y-96549000D02*
X123159000Y-96549000D01*
X105652000Y-96509000D02*
X112960000Y-96509000D01*
X115840000Y-96509000D02*
X123148000Y-96509000D01*
X105663000Y-96469000D02*
X112960000Y-96469000D01*
X115840000Y-96469000D02*
X123137000Y-96469000D01*
X105675000Y-96429000D02*
X112960000Y-96429000D01*
X115840000Y-96429000D02*
X123125000Y-96429000D01*
X105686000Y-96389000D02*
X112960000Y-96389000D01*
X115840000Y-96389000D02*
X123114000Y-96389000D01*
X105698000Y-96349000D02*
X112960000Y-96349000D01*
X115840000Y-96349000D02*
X123102000Y-96349000D01*
X105710000Y-96309000D02*
X112960000Y-96309000D01*
X115840000Y-96309000D02*
X123090000Y-96309000D01*
X105722000Y-96269000D02*
X112960000Y-96269000D01*
X115840000Y-96269000D02*
X123078000Y-96269000D01*
X105735000Y-96229000D02*
X112960000Y-96229000D01*
X115840000Y-96229000D02*
X123065000Y-96229000D01*
X105747000Y-96189000D02*
X112960000Y-96189000D01*
X115840000Y-96189000D02*
X123053000Y-96189000D01*
X105760000Y-96149000D02*
X112960000Y-96149000D01*
X115840000Y-96149000D02*
X123040000Y-96149000D01*
X105773000Y-96109000D02*
X112960000Y-96109000D01*
X115840000Y-96109000D02*
X123027000Y-96109000D01*
X105786000Y-96069000D02*
X112960000Y-96069000D01*
X115840000Y-96069000D02*
X123014000Y-96069000D01*
X105800000Y-96029000D02*
X112960000Y-96029000D01*
X115840000Y-96029000D02*
X123000000Y-96029000D01*
X105813000Y-95989000D02*
X112960000Y-95989000D01*
X115840000Y-95989000D02*
X122987000Y-95989000D01*
X105827000Y-95949000D02*
X112960000Y-95949000D01*
X115840000Y-95949000D02*
X122973000Y-95949000D01*
X105841000Y-95909000D02*
X112960000Y-95909000D01*
X115840000Y-95909000D02*
X122959000Y-95909000D01*
X105855000Y-95869000D02*
X112960000Y-95869000D01*
X115840000Y-95869000D02*
X122945000Y-95869000D01*
X105870000Y-95829000D02*
X112960000Y-95829000D01*
X115840000Y-95829000D02*
X122930000Y-95829000D01*
X105884000Y-95789000D02*
X112960000Y-95789000D01*
X115840000Y-95789000D02*
X122916000Y-95789000D01*
X105899000Y-95749000D02*
X112960000Y-95749000D01*
X115840000Y-95749000D02*
X122901000Y-95749000D01*
X105914000Y-95709000D02*
X112960000Y-95709000D01*
X115840000Y-95709000D02*
X122886000Y-95709000D01*
X105930000Y-95669000D02*
X112960000Y-95669000D01*
X115840000Y-95669000D02*
X122870000Y-95669000D01*
X105945000Y-95629000D02*
X112960000Y-95629000D01*
X115840000Y-95629000D02*
X122855000Y-95629000D01*
X105961000Y-95589000D02*
X112960000Y-95589000D01*
X115840000Y-95589000D02*
X122839000Y-95589000D01*
X105977000Y-95549000D02*
X112960000Y-95549000D01*
X115840000Y-95549000D02*
X122823000Y-95549000D01*
X105993000Y-95509000D02*
X112960000Y-95509000D01*
X115840000Y-95509000D02*
X122807000Y-95509000D01*
X106010000Y-95469000D02*
X112960000Y-95469000D01*
X115840000Y-95469000D02*
X122790000Y-95469000D01*
X106026000Y-95429000D02*
X112960000Y-95429000D01*
X115840000Y-95429000D02*
X122774000Y-95429000D01*
X106043000Y-95389000D02*
X112960000Y-95389000D01*
X115840000Y-95389000D02*
X122757000Y-95389000D01*
X106060000Y-95349000D02*
X112960000Y-95349000D01*
X115840000Y-95349000D02*
X122740000Y-95349000D01*
X106077000Y-95309000D02*
X112960000Y-95309000D01*
X115840000Y-95309000D02*
X122723000Y-95309000D01*
X106095000Y-95269000D02*
X112960000Y-95269000D01*
X115840000Y-95269000D02*
X122705000Y-95269000D01*
X106113000Y-95229000D02*
X112960000Y-95229000D01*
X115840000Y-95229000D02*
X122687000Y-95229000D01*
X106131000Y-95189000D02*
X112960000Y-95189000D01*
X115840000Y-95189000D02*
X122669000Y-95189000D01*
X106149000Y-95149000D02*
X112960000Y-95149000D01*
X115840000Y-95149000D02*
X122651000Y-95149000D01*
X106167000Y-95109000D02*
X112960000Y-95109000D01*
X115840000Y-95109000D02*
X122633000Y-95109000D01*
X106186000Y-95069000D02*
X112960000Y-95069000D01*
X115840000Y-95069000D02*
X122614000Y-95069000D01*
X106205000Y-95029000D02*
X112960000Y-95029000D01*
X115840000Y-95029000D02*
X122595000Y-95029000D01*
X106224000Y-94989000D02*
X112960000Y-94989000D01*
X115840000Y-94989000D02*
X122576000Y-94989000D01*
X106244000Y-94949000D02*
X112960000Y-94949000D01*
X115840000Y-94949000D02*
X122556000Y-94949000D01*
X106263000Y-94909000D02*
X112960000Y-94909000D01*
X115840000Y-94909000D02*
X122537000Y-94909000D01*
X106283000Y-94869000D02*
X112960000Y-94869000D01*
X115840000Y-94869000D02*
X122517000Y-94869000D01*
X106303000Y-94829000D02*
X112960000Y-94829000D01*
X115840000Y-94829000D02*
X122497000Y-94829000D01*
X106324000Y-94789000D02*
X112960000Y-94789000D01*
X115840000Y-94789000D02*
X122476000Y-94789000D01*
X106344000Y-94749000D02*
X112960000Y-94749000D01*
X115840000Y-94749000D02*
X122456000Y-94749000D01*
X106365000Y-94709000D02*
X112960000Y-94709000D01*
X115840000Y-94709000D02*
X122435000Y-94709000D01*
X106386000Y-94669000D02*
X112960000Y-94669000D01*
X115840000Y-94669000D02*
X122414000Y-94669000D01*
X106408000Y-94629000D02*
X112960000Y-94629000D01*
X115840000Y-94629000D02*
X122392000Y-94629000D01*
X106429000Y-94589000D02*
X112960000Y-94589000D01*
X115840000Y-94589000D02*
X122371000Y-94589000D01*
X106451000Y-94549000D02*
X112960000Y-94549000D01*
X115840000Y-94549000D02*
X122349000Y-94549000D01*
X106473000Y-94509000D02*
X112960000Y-94509000D01*
X115840000Y-94509000D02*
X122327000Y-94509000D01*
X106496000Y-94469000D02*
X112960000Y-94469000D01*
X115840000Y-94469000D02*
X122304000Y-94469000D01*
X106518000Y-94429000D02*
X112960000Y-94429000D01*
X115840000Y-94429000D02*
X122282000Y-94429000D01*
X106541000Y-94389000D02*
X112960000Y-94389000D01*
X115840000Y-94389000D02*
X122259000Y-94389000D01*
X106565000Y-94349000D02*
X112960000Y-94349000D01*
X115840000Y-94349000D02*
X122235000Y-94349000D01*
X106588000Y-94309000D02*
X112960000Y-94309000D01*
X115840000Y-94309000D02*
X122212000Y-94309000D01*
X106612000Y-94269000D02*
X112960000Y-94269000D01*
X115840000Y-94269000D02*
X122188000Y-94269000D01*
X106636000Y-94229000D02*
X112960000Y-94229000D01*
X115840000Y-94229000D02*
X122164000Y-94229000D01*
X106660000Y-94189000D02*
X112960000Y-94189000D01*
X115840000Y-94189000D02*
X122140000Y-94189000D01*
X106685000Y-94149000D02*
X112960000Y-94149000D01*
X115840000Y-94149000D02*
X122115000Y-94149000D01*
X106710000Y-94109000D02*
X112960000Y-94109000D01*
X115840000Y-94109000D02*
X122090000Y-94109000D01*
X106735000Y-94069000D02*
X112960000Y-94069000D01*
X115840000Y-94069000D02*
X122065000Y-94069000D01*
X106760000Y-94029000D02*
X112960000Y-94029000D01*
X115840000Y-94029000D02*
X122040000Y-94029000D01*
X106786000Y-93989000D02*
X112960000Y-93989000D01*
X115840000Y-93989000D02*
X122014000Y-93989000D01*
X106812000Y-93949000D02*
X112960000Y-93949000D01*
X115840000Y-93949000D02*
X121988000Y-93949000D01*
X106839000Y-93909000D02*
X112960000Y-93909000D01*
X115840000Y-93909000D02*
X121961000Y-93909000D01*
X106865000Y-93869000D02*
X112960000Y-93869000D01*
X115840000Y-93869000D02*
X121935000Y-93869000D01*
X106892000Y-93829000D02*
X112960000Y-93829000D01*
X115840000Y-93829000D02*
X121908000Y-93829000D01*
X106920000Y-93789000D02*
X112960000Y-93789000D01*
X115840000Y-93789000D02*
X121880000Y-93789000D01*
X106947000Y-93749000D02*
X121853000Y-93749000D01*
X106975000Y-93709000D02*
X121825000Y-93709000D01*
X107003000Y-93669000D02*
X121797000Y-93669000D01*
X107032000Y-93629000D02*
X121768000Y-93629000D01*
X107061000Y-93589000D02*
X121739000Y-93589000D01*
X107090000Y-93549000D02*
X121710000Y-93549000D01*
X107120000Y-93509000D02*
X121680000Y-93509000D01*
X107150000Y-93469000D02*
X121650000Y-93469000D01*
X107180000Y-93429000D02*
X121620000Y-93429000D01*
X107210000Y-93389000D02*
X121590000Y-93389000D01*
X107241000Y-93349000D02*
X121559000Y-93349000D01*
X107273000Y-93309000D02*
X121527000Y-93309000D01*
X107304000Y-93269000D02*
X121496000Y-93269000D01*
X107336000Y-93229000D02*
X121464000Y-93229000D01*
X107369000Y-93189000D02*
X121431000Y-93189000D01*
X107401000Y-93149000D02*
X121399000Y-93149000D01*
X107435000Y-93109000D02*
X121365000Y-93109000D01*
X107468000Y-93069000D02*
X121332000Y-93069000D01*
X107502000Y-93029000D02*
X121298000Y-93029000D01*
X107536000Y-92989000D02*
X121264000Y-92989000D01*
X107571000Y-92949000D02*
X121229000Y-92949000D01*
X107606000Y-92909000D02*
X121194000Y-92909000D01*
X107642000Y-92869000D02*
X121158000Y-92869000D01*
X107678000Y-92829000D02*
X121122000Y-92829000D01*
X107714000Y-92789000D02*
X121086000Y-92789000D01*
X107751000Y-92749000D02*
X121049000Y-92749000D01*
X107788000Y-92709000D02*
X121012000Y-92709000D01*
X107826000Y-92669000D02*
X120974000Y-92669000D01*
X107864000Y-92629000D02*
X120936000Y-92629000D01*
X107903000Y-92589000D02*
X120897000Y-92589000D01*
X107942000Y-92549000D02*
X120858000Y-92549000D01*
X107982000Y-92509000D02*
X120818000Y-92509000D01*
X108022000Y-92469000D02*
X120778000Y-92469000D01*
X108063000Y-92429000D02*
X120737000Y-92429000D01*
X108104000Y-92389000D02*
X120696000Y-92389000D01*
X108146000Y-92349000D02*
X120654000Y-92349000D01*
X108188000Y-92309000D02*
X120612000Y-92309000D01*
X108230000Y-92269000D02*
X120570000Y-92269000D01*
X108274000Y-92229000D02*
X120526000Y-92229000D01*
X108318000Y-92189000D02*
X120482000Y-92189000D01*
X108362000Y-92149000D02*
X120438000Y-92149000D01*
X108407000Y-92109000D02*
X120393000Y-92109000D01*
X108453000Y-92069000D02*
X120347000Y-92069000D01*
X108499000Y-92029000D02*
X120301000Y-92029000D01*
X108546000Y-91989000D02*
X120254000Y-91989000D01*
X108594000Y-91949000D02*
X120206000Y-91949000D01*
X108642000Y-91909000D02*
X120158000Y-91909000D01*
X108691000Y-91869000D02*
X120109000Y-91869000D01*
X108740000Y-91829000D02*
X120060000Y-91829000D01*
X108791000Y-91789000D02*
X120009000Y-91789000D01*
X108842000Y-91749000D02*
X119958000Y-91749000D01*
X108894000Y-91709000D02*
X119906000Y-91709000D01*
X108946000Y-91669000D02*
X119854000Y-91669000D01*
X109000000Y-91629000D02*
X119800000Y-91629000D01*
X109054000Y-91589000D02*
X119746000Y-91589000D01*
X109109000Y-91549000D02*
X119691000Y-91549000D01*
X109165000Y-91509000D02*
X119635000Y-91509000D01*
X109222000Y-91469000D02*
X119578000Y-91469000D01*
X109280000Y-91429000D02*
X119520000Y-91429000D01*
X109338000Y-91389000D02*
X119462000Y-91389000D01*
X109398000Y-91349000D02*
X119402000Y-91349000D01*
X109459000Y-91309000D02*
X119341000Y-91309000D01*
X109521000Y-91269000D02*
X119279000Y-91269000D01*
X109584000Y-91229000D02*
X119216000Y-91229000D01*
X109648000Y-91189000D02*
X119152000Y-91189000D01*
X109714000Y-91149000D02*
X119086000Y-91149000D01*
X109780000Y-91109000D02*
X119020000Y-91109000D01*
X109848000Y-91069000D02*
X118952000Y-91069000D01*
X109918000Y-91029000D02*
X118882000Y-91029000D01*
X109988000Y-90989000D02*
X118812000Y-90989000D01*
X110061000Y-90949000D02*
X118739000Y-90949000D01*
X110135000Y-90909000D02*
X118665000Y-90909000D01*
X110210000Y-90869000D02*
X118590000Y-90869000D01*
X110287000Y-90829000D02*
X118513000Y-90829000D01*
X110367000Y-90789000D02*
X118433000Y-90789000D01*
X110448000Y-90750000D02*
X118352000Y-90750000D01*
X110531000Y-90710000D02*
X118269000Y-90710000D01*
X110616000Y-90670000D02*
X118184000Y-90670000D01*
X110704000Y-90630000D02*
X118096000Y-90630000D01*
X110795000Y-90590000D02*
X118005000Y-90590000D01*
X110888000Y-90550000D02*
X117912000Y-90550000D01*
X110984000Y-90510000D02*
X117816000Y-90510000D01*
X111083000Y-90470000D02*
X117717000Y-90470000D01*
X111186000Y-90430000D02*
X117614000Y-90430000D01*
X111293000Y-90390000D02*
X117507000Y-90390000D01*
X111404000Y-90350000D02*
X117396000Y-90350000D01*
X111520000Y-90310000D02*
X117280000Y-90310000D01*
X111641000Y-90270000D02*
X117159000Y-90270000D01*
X111768000Y-90230000D02*
X117032000Y-90230000D01*
X111902000Y-90190000D02*
X116898000Y-90190000D01*
X112045000Y-90150000D02*
X116755000Y-90150000D01*
X112197000Y-90110000D02*
X116603000Y-90110000D01*
X112361000Y-90070000D02*
X116439000Y-90070000D01*
X112540000Y-90030000D02*
X116260000Y-90030000D01*
X112739000Y-89990000D02*
X116061000Y-89990000D01*
X112965000Y-89950000D02*
X115835000Y-89950000D01*
X113234000Y-89910000D02*
X115566000Y-89910000D01*
X113586000Y-89870000D02*
X115214000Y-89870000D01*
X114360000Y-89830000D02*
X114440000Y-89830000D01*
X109285000Y-108709440D02*
X109285000Y-106909440D01*
X108385000Y-107809440D02*
X110185000Y-107809440D01*
%TO.C,C3*%
X151220000Y-119750000D02*
G75*
G03*
X151220000Y-119750000I-2620000J0D01*
G01*
X151180000Y-119750000D02*
X146020000Y-119750000D01*
X151180000Y-119790000D02*
X146020000Y-119790000D01*
X151179000Y-119830000D02*
X146021000Y-119830000D01*
X151178000Y-119870000D02*
X146022000Y-119870000D01*
X151176000Y-119910000D02*
X146024000Y-119910000D01*
X151173000Y-119950000D02*
X146027000Y-119950000D01*
X151169000Y-119990000D02*
X149640000Y-119990000D01*
X147560000Y-119990000D02*
X146031000Y-119990000D01*
X151165000Y-120030000D02*
X149640000Y-120030000D01*
X147560000Y-120030000D02*
X146035000Y-120030000D01*
X151161000Y-120070000D02*
X149640000Y-120070000D01*
X147560000Y-120070000D02*
X146039000Y-120070000D01*
X151156000Y-120110000D02*
X149640000Y-120110000D01*
X147560000Y-120110000D02*
X146044000Y-120110000D01*
X151150000Y-120150000D02*
X149640000Y-120150000D01*
X147560000Y-120150000D02*
X146050000Y-120150000D01*
X151143000Y-120190000D02*
X149640000Y-120190000D01*
X147560000Y-120190000D02*
X146057000Y-120190000D01*
X151136000Y-120230000D02*
X149640000Y-120230000D01*
X147560000Y-120230000D02*
X146064000Y-120230000D01*
X151128000Y-120270000D02*
X149640000Y-120270000D01*
X147560000Y-120270000D02*
X146072000Y-120270000D01*
X151120000Y-120310000D02*
X149640000Y-120310000D01*
X147560000Y-120310000D02*
X146080000Y-120310000D01*
X151111000Y-120350000D02*
X149640000Y-120350000D01*
X147560000Y-120350000D02*
X146089000Y-120350000D01*
X151101000Y-120390000D02*
X149640000Y-120390000D01*
X147560000Y-120390000D02*
X146099000Y-120390000D01*
X151091000Y-120430000D02*
X149640000Y-120430000D01*
X147560000Y-120430000D02*
X146109000Y-120430000D01*
X151080000Y-120471000D02*
X149640000Y-120471000D01*
X147560000Y-120471000D02*
X146120000Y-120471000D01*
X151068000Y-120511000D02*
X149640000Y-120511000D01*
X147560000Y-120511000D02*
X146132000Y-120511000D01*
X151055000Y-120551000D02*
X149640000Y-120551000D01*
X147560000Y-120551000D02*
X146145000Y-120551000D01*
X151042000Y-120591000D02*
X149640000Y-120591000D01*
X147560000Y-120591000D02*
X146158000Y-120591000D01*
X151028000Y-120631000D02*
X149640000Y-120631000D01*
X147560000Y-120631000D02*
X146172000Y-120631000D01*
X151014000Y-120671000D02*
X149640000Y-120671000D01*
X147560000Y-120671000D02*
X146186000Y-120671000D01*
X150998000Y-120711000D02*
X149640000Y-120711000D01*
X147560000Y-120711000D02*
X146202000Y-120711000D01*
X150982000Y-120751000D02*
X149640000Y-120751000D01*
X147560000Y-120751000D02*
X146218000Y-120751000D01*
X150965000Y-120791000D02*
X149640000Y-120791000D01*
X147560000Y-120791000D02*
X146235000Y-120791000D01*
X150948000Y-120831000D02*
X149640000Y-120831000D01*
X147560000Y-120831000D02*
X146252000Y-120831000D01*
X150929000Y-120871000D02*
X149640000Y-120871000D01*
X147560000Y-120871000D02*
X146271000Y-120871000D01*
X150910000Y-120911000D02*
X149640000Y-120911000D01*
X147560000Y-120911000D02*
X146290000Y-120911000D01*
X150890000Y-120951000D02*
X149640000Y-120951000D01*
X147560000Y-120951000D02*
X146310000Y-120951000D01*
X150868000Y-120991000D02*
X149640000Y-120991000D01*
X147560000Y-120991000D02*
X146332000Y-120991000D01*
X150847000Y-121031000D02*
X149640000Y-121031000D01*
X147560000Y-121031000D02*
X146353000Y-121031000D01*
X150824000Y-121071000D02*
X149640000Y-121071000D01*
X147560000Y-121071000D02*
X146376000Y-121071000D01*
X150800000Y-121111000D02*
X149640000Y-121111000D01*
X147560000Y-121111000D02*
X146400000Y-121111000D01*
X150775000Y-121151000D02*
X149640000Y-121151000D01*
X147560000Y-121151000D02*
X146425000Y-121151000D01*
X150749000Y-121191000D02*
X149640000Y-121191000D01*
X147560000Y-121191000D02*
X146451000Y-121191000D01*
X150722000Y-121231000D02*
X149640000Y-121231000D01*
X147560000Y-121231000D02*
X146478000Y-121231000D01*
X150695000Y-121271000D02*
X149640000Y-121271000D01*
X147560000Y-121271000D02*
X146505000Y-121271000D01*
X150665000Y-121311000D02*
X149640000Y-121311000D01*
X147560000Y-121311000D02*
X146535000Y-121311000D01*
X150635000Y-121351000D02*
X149640000Y-121351000D01*
X147560000Y-121351000D02*
X146565000Y-121351000D01*
X150604000Y-121391000D02*
X149640000Y-121391000D01*
X147560000Y-121391000D02*
X146596000Y-121391000D01*
X150571000Y-121431000D02*
X149640000Y-121431000D01*
X147560000Y-121431000D02*
X146629000Y-121431000D01*
X150537000Y-121471000D02*
X149640000Y-121471000D01*
X147560000Y-121471000D02*
X146663000Y-121471000D01*
X150501000Y-121511000D02*
X149640000Y-121511000D01*
X147560000Y-121511000D02*
X146699000Y-121511000D01*
X150464000Y-121551000D02*
X149640000Y-121551000D01*
X147560000Y-121551000D02*
X146736000Y-121551000D01*
X150426000Y-121591000D02*
X149640000Y-121591000D01*
X147560000Y-121591000D02*
X146774000Y-121591000D01*
X150385000Y-121631000D02*
X149640000Y-121631000D01*
X147560000Y-121631000D02*
X146815000Y-121631000D01*
X150343000Y-121671000D02*
X149640000Y-121671000D01*
X147560000Y-121671000D02*
X146857000Y-121671000D01*
X150299000Y-121711000D02*
X149640000Y-121711000D01*
X147560000Y-121711000D02*
X146901000Y-121711000D01*
X150253000Y-121751000D02*
X149640000Y-121751000D01*
X147560000Y-121751000D02*
X146947000Y-121751000D01*
X150205000Y-121791000D02*
X149640000Y-121791000D01*
X147560000Y-121791000D02*
X146995000Y-121791000D01*
X150154000Y-121831000D02*
X149640000Y-121831000D01*
X147560000Y-121831000D02*
X147046000Y-121831000D01*
X150100000Y-121871000D02*
X149640000Y-121871000D01*
X147560000Y-121871000D02*
X147100000Y-121871000D01*
X150043000Y-121911000D02*
X149640000Y-121911000D01*
X147560000Y-121911000D02*
X147157000Y-121911000D01*
X149983000Y-121951000D02*
X149640000Y-121951000D01*
X147560000Y-121951000D02*
X147217000Y-121951000D01*
X149919000Y-121991000D02*
X149640000Y-121991000D01*
X147560000Y-121991000D02*
X147281000Y-121991000D01*
X149851000Y-122031000D02*
X149640000Y-122031000D01*
X147560000Y-122031000D02*
X147349000Y-122031000D01*
X149778000Y-122071000D02*
X147422000Y-122071000D01*
X149698000Y-122111000D02*
X147502000Y-122111000D01*
X149611000Y-122151000D02*
X147589000Y-122151000D01*
X149515000Y-122191000D02*
X147685000Y-122191000D01*
X149405000Y-122231000D02*
X147795000Y-122231000D01*
X149277000Y-122271000D02*
X147923000Y-122271000D01*
X149118000Y-122311000D02*
X148082000Y-122311000D01*
X148884000Y-122351000D02*
X148316000Y-122351000D01*
X150075000Y-116945225D02*
X150075000Y-117445225D01*
X150325000Y-117195225D02*
X149825000Y-117195225D01*
%TO.C,C4*%
X163625000Y-122895225D02*
X163125000Y-122895225D01*
X163375000Y-122645225D02*
X163375000Y-123145225D01*
X162184000Y-128051000D02*
X161616000Y-128051000D01*
X162418000Y-128011000D02*
X161382000Y-128011000D01*
X162577000Y-127971000D02*
X161223000Y-127971000D01*
X162705000Y-127931000D02*
X161095000Y-127931000D01*
X162815000Y-127891000D02*
X160985000Y-127891000D01*
X162911000Y-127851000D02*
X160889000Y-127851000D01*
X162998000Y-127811000D02*
X160802000Y-127811000D01*
X163078000Y-127771000D02*
X160722000Y-127771000D01*
X160860000Y-127731000D02*
X160649000Y-127731000D01*
X163151000Y-127731000D02*
X162940000Y-127731000D01*
X160860000Y-127691000D02*
X160581000Y-127691000D01*
X163219000Y-127691000D02*
X162940000Y-127691000D01*
X160860000Y-127651000D02*
X160517000Y-127651000D01*
X163283000Y-127651000D02*
X162940000Y-127651000D01*
X160860000Y-127611000D02*
X160457000Y-127611000D01*
X163343000Y-127611000D02*
X162940000Y-127611000D01*
X160860000Y-127571000D02*
X160400000Y-127571000D01*
X163400000Y-127571000D02*
X162940000Y-127571000D01*
X160860000Y-127531000D02*
X160346000Y-127531000D01*
X163454000Y-127531000D02*
X162940000Y-127531000D01*
X160860000Y-127491000D02*
X160295000Y-127491000D01*
X163505000Y-127491000D02*
X162940000Y-127491000D01*
X160860000Y-127451000D02*
X160247000Y-127451000D01*
X163553000Y-127451000D02*
X162940000Y-127451000D01*
X160860000Y-127411000D02*
X160201000Y-127411000D01*
X163599000Y-127411000D02*
X162940000Y-127411000D01*
X160860000Y-127371000D02*
X160157000Y-127371000D01*
X163643000Y-127371000D02*
X162940000Y-127371000D01*
X160860000Y-127331000D02*
X160115000Y-127331000D01*
X163685000Y-127331000D02*
X162940000Y-127331000D01*
X160860000Y-127291000D02*
X160074000Y-127291000D01*
X163726000Y-127291000D02*
X162940000Y-127291000D01*
X160860000Y-127251000D02*
X160036000Y-127251000D01*
X163764000Y-127251000D02*
X162940000Y-127251000D01*
X160860000Y-127211000D02*
X159999000Y-127211000D01*
X163801000Y-127211000D02*
X162940000Y-127211000D01*
X160860000Y-127171000D02*
X159963000Y-127171000D01*
X163837000Y-127171000D02*
X162940000Y-127171000D01*
X160860000Y-127131000D02*
X159929000Y-127131000D01*
X163871000Y-127131000D02*
X162940000Y-127131000D01*
X160860000Y-127091000D02*
X159896000Y-127091000D01*
X163904000Y-127091000D02*
X162940000Y-127091000D01*
X160860000Y-127051000D02*
X159865000Y-127051000D01*
X163935000Y-127051000D02*
X162940000Y-127051000D01*
X160860000Y-127011000D02*
X159835000Y-127011000D01*
X163965000Y-127011000D02*
X162940000Y-127011000D01*
X160860000Y-126971000D02*
X159805000Y-126971000D01*
X163995000Y-126971000D02*
X162940000Y-126971000D01*
X160860000Y-126931000D02*
X159778000Y-126931000D01*
X164022000Y-126931000D02*
X162940000Y-126931000D01*
X160860000Y-126891000D02*
X159751000Y-126891000D01*
X164049000Y-126891000D02*
X162940000Y-126891000D01*
X160860000Y-126851000D02*
X159725000Y-126851000D01*
X164075000Y-126851000D02*
X162940000Y-126851000D01*
X160860000Y-126811000D02*
X159700000Y-126811000D01*
X164100000Y-126811000D02*
X162940000Y-126811000D01*
X160860000Y-126771000D02*
X159676000Y-126771000D01*
X164124000Y-126771000D02*
X162940000Y-126771000D01*
X160860000Y-126731000D02*
X159653000Y-126731000D01*
X164147000Y-126731000D02*
X162940000Y-126731000D01*
X160860000Y-126691000D02*
X159632000Y-126691000D01*
X164168000Y-126691000D02*
X162940000Y-126691000D01*
X160860000Y-126651000D02*
X159610000Y-126651000D01*
X164190000Y-126651000D02*
X162940000Y-126651000D01*
X160860000Y-126611000D02*
X159590000Y-126611000D01*
X164210000Y-126611000D02*
X162940000Y-126611000D01*
X160860000Y-126571000D02*
X159571000Y-126571000D01*
X164229000Y-126571000D02*
X162940000Y-126571000D01*
X160860000Y-126531000D02*
X159552000Y-126531000D01*
X164248000Y-126531000D02*
X162940000Y-126531000D01*
X160860000Y-126491000D02*
X159535000Y-126491000D01*
X164265000Y-126491000D02*
X162940000Y-126491000D01*
X160860000Y-126451000D02*
X159518000Y-126451000D01*
X164282000Y-126451000D02*
X162940000Y-126451000D01*
X160860000Y-126411000D02*
X159502000Y-126411000D01*
X164298000Y-126411000D02*
X162940000Y-126411000D01*
X160860000Y-126371000D02*
X159486000Y-126371000D01*
X164314000Y-126371000D02*
X162940000Y-126371000D01*
X160860000Y-126331000D02*
X159472000Y-126331000D01*
X164328000Y-126331000D02*
X162940000Y-126331000D01*
X160860000Y-126291000D02*
X159458000Y-126291000D01*
X164342000Y-126291000D02*
X162940000Y-126291000D01*
X160860000Y-126251000D02*
X159445000Y-126251000D01*
X164355000Y-126251000D02*
X162940000Y-126251000D01*
X160860000Y-126211000D02*
X159432000Y-126211000D01*
X164368000Y-126211000D02*
X162940000Y-126211000D01*
X160860000Y-126171000D02*
X159420000Y-126171000D01*
X164380000Y-126171000D02*
X162940000Y-126171000D01*
X160860000Y-126130000D02*
X159409000Y-126130000D01*
X164391000Y-126130000D02*
X162940000Y-126130000D01*
X160860000Y-126090000D02*
X159399000Y-126090000D01*
X164401000Y-126090000D02*
X162940000Y-126090000D01*
X160860000Y-126050000D02*
X159389000Y-126050000D01*
X164411000Y-126050000D02*
X162940000Y-126050000D01*
X160860000Y-126010000D02*
X159380000Y-126010000D01*
X164420000Y-126010000D02*
X162940000Y-126010000D01*
X160860000Y-125970000D02*
X159372000Y-125970000D01*
X164428000Y-125970000D02*
X162940000Y-125970000D01*
X160860000Y-125930000D02*
X159364000Y-125930000D01*
X164436000Y-125930000D02*
X162940000Y-125930000D01*
X160860000Y-125890000D02*
X159357000Y-125890000D01*
X164443000Y-125890000D02*
X162940000Y-125890000D01*
X160860000Y-125850000D02*
X159350000Y-125850000D01*
X164450000Y-125850000D02*
X162940000Y-125850000D01*
X160860000Y-125810000D02*
X159344000Y-125810000D01*
X164456000Y-125810000D02*
X162940000Y-125810000D01*
X160860000Y-125770000D02*
X159339000Y-125770000D01*
X164461000Y-125770000D02*
X162940000Y-125770000D01*
X160860000Y-125730000D02*
X159335000Y-125730000D01*
X164465000Y-125730000D02*
X162940000Y-125730000D01*
X160860000Y-125690000D02*
X159331000Y-125690000D01*
X164469000Y-125690000D02*
X162940000Y-125690000D01*
X164473000Y-125650000D02*
X159327000Y-125650000D01*
X164476000Y-125610000D02*
X159324000Y-125610000D01*
X164478000Y-125570000D02*
X159322000Y-125570000D01*
X164479000Y-125530000D02*
X159321000Y-125530000D01*
X164480000Y-125490000D02*
X159320000Y-125490000D01*
X164480000Y-125450000D02*
X159320000Y-125450000D01*
X164520000Y-125450000D02*
G75*
G03*
X164520000Y-125450000I-2620000J0D01*
G01*
%TO.C,C5*%
X168020000Y-101050000D02*
G75*
G03*
X168020000Y-101050000I-2620000J0D01*
G01*
X162820000Y-101050000D02*
X167980000Y-101050000D01*
X162820000Y-101010000D02*
X167980000Y-101010000D01*
X162821000Y-100970000D02*
X167979000Y-100970000D01*
X162822000Y-100930000D02*
X167978000Y-100930000D01*
X162824000Y-100890000D02*
X167976000Y-100890000D01*
X162827000Y-100850000D02*
X167973000Y-100850000D01*
X162831000Y-100810000D02*
X164360000Y-100810000D01*
X166440000Y-100810000D02*
X167969000Y-100810000D01*
X162835000Y-100770000D02*
X164360000Y-100770000D01*
X166440000Y-100770000D02*
X167965000Y-100770000D01*
X162839000Y-100730000D02*
X164360000Y-100730000D01*
X166440000Y-100730000D02*
X167961000Y-100730000D01*
X162844000Y-100690000D02*
X164360000Y-100690000D01*
X166440000Y-100690000D02*
X167956000Y-100690000D01*
X162850000Y-100650000D02*
X164360000Y-100650000D01*
X166440000Y-100650000D02*
X167950000Y-100650000D01*
X162857000Y-100610000D02*
X164360000Y-100610000D01*
X166440000Y-100610000D02*
X167943000Y-100610000D01*
X162864000Y-100570000D02*
X164360000Y-100570000D01*
X166440000Y-100570000D02*
X167936000Y-100570000D01*
X162872000Y-100530000D02*
X164360000Y-100530000D01*
X166440000Y-100530000D02*
X167928000Y-100530000D01*
X162880000Y-100490000D02*
X164360000Y-100490000D01*
X166440000Y-100490000D02*
X167920000Y-100490000D01*
X162889000Y-100450000D02*
X164360000Y-100450000D01*
X166440000Y-100450000D02*
X167911000Y-100450000D01*
X162899000Y-100410000D02*
X164360000Y-100410000D01*
X166440000Y-100410000D02*
X167901000Y-100410000D01*
X162909000Y-100370000D02*
X164360000Y-100370000D01*
X166440000Y-100370000D02*
X167891000Y-100370000D01*
X162920000Y-100329000D02*
X164360000Y-100329000D01*
X166440000Y-100329000D02*
X167880000Y-100329000D01*
X162932000Y-100289000D02*
X164360000Y-100289000D01*
X166440000Y-100289000D02*
X167868000Y-100289000D01*
X162945000Y-100249000D02*
X164360000Y-100249000D01*
X166440000Y-100249000D02*
X167855000Y-100249000D01*
X162958000Y-100209000D02*
X164360000Y-100209000D01*
X166440000Y-100209000D02*
X167842000Y-100209000D01*
X162972000Y-100169000D02*
X164360000Y-100169000D01*
X166440000Y-100169000D02*
X167828000Y-100169000D01*
X162986000Y-100129000D02*
X164360000Y-100129000D01*
X166440000Y-100129000D02*
X167814000Y-100129000D01*
X163002000Y-100089000D02*
X164360000Y-100089000D01*
X166440000Y-100089000D02*
X167798000Y-100089000D01*
X163018000Y-100049000D02*
X164360000Y-100049000D01*
X166440000Y-100049000D02*
X167782000Y-100049000D01*
X163035000Y-100009000D02*
X164360000Y-100009000D01*
X166440000Y-100009000D02*
X167765000Y-100009000D01*
X163052000Y-99969000D02*
X164360000Y-99969000D01*
X166440000Y-99969000D02*
X167748000Y-99969000D01*
X163071000Y-99929000D02*
X164360000Y-99929000D01*
X166440000Y-99929000D02*
X167729000Y-99929000D01*
X163090000Y-99889000D02*
X164360000Y-99889000D01*
X166440000Y-99889000D02*
X167710000Y-99889000D01*
X163110000Y-99849000D02*
X164360000Y-99849000D01*
X166440000Y-99849000D02*
X167690000Y-99849000D01*
X163132000Y-99809000D02*
X164360000Y-99809000D01*
X166440000Y-99809000D02*
X167668000Y-99809000D01*
X163153000Y-99769000D02*
X164360000Y-99769000D01*
X166440000Y-99769000D02*
X167647000Y-99769000D01*
X163176000Y-99729000D02*
X164360000Y-99729000D01*
X166440000Y-99729000D02*
X167624000Y-99729000D01*
X163200000Y-99689000D02*
X164360000Y-99689000D01*
X166440000Y-99689000D02*
X167600000Y-99689000D01*
X163225000Y-99649000D02*
X164360000Y-99649000D01*
X166440000Y-99649000D02*
X167575000Y-99649000D01*
X163251000Y-99609000D02*
X164360000Y-99609000D01*
X166440000Y-99609000D02*
X167549000Y-99609000D01*
X163278000Y-99569000D02*
X164360000Y-99569000D01*
X166440000Y-99569000D02*
X167522000Y-99569000D01*
X163305000Y-99529000D02*
X164360000Y-99529000D01*
X166440000Y-99529000D02*
X167495000Y-99529000D01*
X163335000Y-99489000D02*
X164360000Y-99489000D01*
X166440000Y-99489000D02*
X167465000Y-99489000D01*
X163365000Y-99449000D02*
X164360000Y-99449000D01*
X166440000Y-99449000D02*
X167435000Y-99449000D01*
X163396000Y-99409000D02*
X164360000Y-99409000D01*
X166440000Y-99409000D02*
X167404000Y-99409000D01*
X163429000Y-99369000D02*
X164360000Y-99369000D01*
X166440000Y-99369000D02*
X167371000Y-99369000D01*
X163463000Y-99329000D02*
X164360000Y-99329000D01*
X166440000Y-99329000D02*
X167337000Y-99329000D01*
X163499000Y-99289000D02*
X164360000Y-99289000D01*
X166440000Y-99289000D02*
X167301000Y-99289000D01*
X163536000Y-99249000D02*
X164360000Y-99249000D01*
X166440000Y-99249000D02*
X167264000Y-99249000D01*
X163574000Y-99209000D02*
X164360000Y-99209000D01*
X166440000Y-99209000D02*
X167226000Y-99209000D01*
X163615000Y-99169000D02*
X164360000Y-99169000D01*
X166440000Y-99169000D02*
X167185000Y-99169000D01*
X163657000Y-99129000D02*
X164360000Y-99129000D01*
X166440000Y-99129000D02*
X167143000Y-99129000D01*
X163701000Y-99089000D02*
X164360000Y-99089000D01*
X166440000Y-99089000D02*
X167099000Y-99089000D01*
X163747000Y-99049000D02*
X164360000Y-99049000D01*
X166440000Y-99049000D02*
X167053000Y-99049000D01*
X163795000Y-99009000D02*
X164360000Y-99009000D01*
X166440000Y-99009000D02*
X167005000Y-99009000D01*
X163846000Y-98969000D02*
X164360000Y-98969000D01*
X166440000Y-98969000D02*
X166954000Y-98969000D01*
X163900000Y-98929000D02*
X164360000Y-98929000D01*
X166440000Y-98929000D02*
X166900000Y-98929000D01*
X163957000Y-98889000D02*
X164360000Y-98889000D01*
X166440000Y-98889000D02*
X166843000Y-98889000D01*
X164017000Y-98849000D02*
X164360000Y-98849000D01*
X166440000Y-98849000D02*
X166783000Y-98849000D01*
X164081000Y-98809000D02*
X164360000Y-98809000D01*
X166440000Y-98809000D02*
X166719000Y-98809000D01*
X164149000Y-98769000D02*
X164360000Y-98769000D01*
X166440000Y-98769000D02*
X166651000Y-98769000D01*
X164222000Y-98729000D02*
X166578000Y-98729000D01*
X164302000Y-98689000D02*
X166498000Y-98689000D01*
X164389000Y-98649000D02*
X166411000Y-98649000D01*
X164485000Y-98609000D02*
X166315000Y-98609000D01*
X164595000Y-98569000D02*
X166205000Y-98569000D01*
X164723000Y-98529000D02*
X166077000Y-98529000D01*
X164882000Y-98489000D02*
X165918000Y-98489000D01*
X165116000Y-98449000D02*
X165684000Y-98449000D01*
X163925000Y-103854775D02*
X163925000Y-103354775D01*
X163675000Y-103604775D02*
X164175000Y-103604775D01*
%TO.C,C6*%
X145075000Y-141704775D02*
X145575000Y-141704775D01*
X145325000Y-141954775D02*
X145325000Y-141454775D01*
X146516000Y-136549000D02*
X147084000Y-136549000D01*
X146282000Y-136589000D02*
X147318000Y-136589000D01*
X146123000Y-136629000D02*
X147477000Y-136629000D01*
X145995000Y-136669000D02*
X147605000Y-136669000D01*
X145885000Y-136709000D02*
X147715000Y-136709000D01*
X145789000Y-136749000D02*
X147811000Y-136749000D01*
X145702000Y-136789000D02*
X147898000Y-136789000D01*
X145622000Y-136829000D02*
X147978000Y-136829000D01*
X147840000Y-136869000D02*
X148051000Y-136869000D01*
X145549000Y-136869000D02*
X145760000Y-136869000D01*
X147840000Y-136909000D02*
X148119000Y-136909000D01*
X145481000Y-136909000D02*
X145760000Y-136909000D01*
X147840000Y-136949000D02*
X148183000Y-136949000D01*
X145417000Y-136949000D02*
X145760000Y-136949000D01*
X147840000Y-136989000D02*
X148243000Y-136989000D01*
X145357000Y-136989000D02*
X145760000Y-136989000D01*
X147840000Y-137029000D02*
X148300000Y-137029000D01*
X145300000Y-137029000D02*
X145760000Y-137029000D01*
X147840000Y-137069000D02*
X148354000Y-137069000D01*
X145246000Y-137069000D02*
X145760000Y-137069000D01*
X147840000Y-137109000D02*
X148405000Y-137109000D01*
X145195000Y-137109000D02*
X145760000Y-137109000D01*
X147840000Y-137149000D02*
X148453000Y-137149000D01*
X145147000Y-137149000D02*
X145760000Y-137149000D01*
X147840000Y-137189000D02*
X148499000Y-137189000D01*
X145101000Y-137189000D02*
X145760000Y-137189000D01*
X147840000Y-137229000D02*
X148543000Y-137229000D01*
X145057000Y-137229000D02*
X145760000Y-137229000D01*
X147840000Y-137269000D02*
X148585000Y-137269000D01*
X145015000Y-137269000D02*
X145760000Y-137269000D01*
X147840000Y-137309000D02*
X148626000Y-137309000D01*
X144974000Y-137309000D02*
X145760000Y-137309000D01*
X147840000Y-137349000D02*
X148664000Y-137349000D01*
X144936000Y-137349000D02*
X145760000Y-137349000D01*
X147840000Y-137389000D02*
X148701000Y-137389000D01*
X144899000Y-137389000D02*
X145760000Y-137389000D01*
X147840000Y-137429000D02*
X148737000Y-137429000D01*
X144863000Y-137429000D02*
X145760000Y-137429000D01*
X147840000Y-137469000D02*
X148771000Y-137469000D01*
X144829000Y-137469000D02*
X145760000Y-137469000D01*
X147840000Y-137509000D02*
X148804000Y-137509000D01*
X144796000Y-137509000D02*
X145760000Y-137509000D01*
X147840000Y-137549000D02*
X148835000Y-137549000D01*
X144765000Y-137549000D02*
X145760000Y-137549000D01*
X147840000Y-137589000D02*
X148865000Y-137589000D01*
X144735000Y-137589000D02*
X145760000Y-137589000D01*
X147840000Y-137629000D02*
X148895000Y-137629000D01*
X144705000Y-137629000D02*
X145760000Y-137629000D01*
X147840000Y-137669000D02*
X148922000Y-137669000D01*
X144678000Y-137669000D02*
X145760000Y-137669000D01*
X147840000Y-137709000D02*
X148949000Y-137709000D01*
X144651000Y-137709000D02*
X145760000Y-137709000D01*
X147840000Y-137749000D02*
X148975000Y-137749000D01*
X144625000Y-137749000D02*
X145760000Y-137749000D01*
X147840000Y-137789000D02*
X149000000Y-137789000D01*
X144600000Y-137789000D02*
X145760000Y-137789000D01*
X147840000Y-137829000D02*
X149024000Y-137829000D01*
X144576000Y-137829000D02*
X145760000Y-137829000D01*
X147840000Y-137869000D02*
X149047000Y-137869000D01*
X144553000Y-137869000D02*
X145760000Y-137869000D01*
X147840000Y-137909000D02*
X149068000Y-137909000D01*
X144532000Y-137909000D02*
X145760000Y-137909000D01*
X147840000Y-137949000D02*
X149090000Y-137949000D01*
X144510000Y-137949000D02*
X145760000Y-137949000D01*
X147840000Y-137989000D02*
X149110000Y-137989000D01*
X144490000Y-137989000D02*
X145760000Y-137989000D01*
X147840000Y-138029000D02*
X149129000Y-138029000D01*
X144471000Y-138029000D02*
X145760000Y-138029000D01*
X147840000Y-138069000D02*
X149148000Y-138069000D01*
X144452000Y-138069000D02*
X145760000Y-138069000D01*
X147840000Y-138109000D02*
X149165000Y-138109000D01*
X144435000Y-138109000D02*
X145760000Y-138109000D01*
X147840000Y-138149000D02*
X149182000Y-138149000D01*
X144418000Y-138149000D02*
X145760000Y-138149000D01*
X147840000Y-138189000D02*
X149198000Y-138189000D01*
X144402000Y-138189000D02*
X145760000Y-138189000D01*
X147840000Y-138229000D02*
X149214000Y-138229000D01*
X144386000Y-138229000D02*
X145760000Y-138229000D01*
X147840000Y-138269000D02*
X149228000Y-138269000D01*
X144372000Y-138269000D02*
X145760000Y-138269000D01*
X147840000Y-138309000D02*
X149242000Y-138309000D01*
X144358000Y-138309000D02*
X145760000Y-138309000D01*
X147840000Y-138349000D02*
X149255000Y-138349000D01*
X144345000Y-138349000D02*
X145760000Y-138349000D01*
X147840000Y-138389000D02*
X149268000Y-138389000D01*
X144332000Y-138389000D02*
X145760000Y-138389000D01*
X147840000Y-138429000D02*
X149280000Y-138429000D01*
X144320000Y-138429000D02*
X145760000Y-138429000D01*
X147840000Y-138470000D02*
X149291000Y-138470000D01*
X144309000Y-138470000D02*
X145760000Y-138470000D01*
X147840000Y-138510000D02*
X149301000Y-138510000D01*
X144299000Y-138510000D02*
X145760000Y-138510000D01*
X147840000Y-138550000D02*
X149311000Y-138550000D01*
X144289000Y-138550000D02*
X145760000Y-138550000D01*
X147840000Y-138590000D02*
X149320000Y-138590000D01*
X144280000Y-138590000D02*
X145760000Y-138590000D01*
X147840000Y-138630000D02*
X149328000Y-138630000D01*
X144272000Y-138630000D02*
X145760000Y-138630000D01*
X147840000Y-138670000D02*
X149336000Y-138670000D01*
X144264000Y-138670000D02*
X145760000Y-138670000D01*
X147840000Y-138710000D02*
X149343000Y-138710000D01*
X144257000Y-138710000D02*
X145760000Y-138710000D01*
X147840000Y-138750000D02*
X149350000Y-138750000D01*
X144250000Y-138750000D02*
X145760000Y-138750000D01*
X147840000Y-138790000D02*
X149356000Y-138790000D01*
X144244000Y-138790000D02*
X145760000Y-138790000D01*
X147840000Y-138830000D02*
X149361000Y-138830000D01*
X144239000Y-138830000D02*
X145760000Y-138830000D01*
X147840000Y-138870000D02*
X149365000Y-138870000D01*
X144235000Y-138870000D02*
X145760000Y-138870000D01*
X147840000Y-138910000D02*
X149369000Y-138910000D01*
X144231000Y-138910000D02*
X145760000Y-138910000D01*
X144227000Y-138950000D02*
X149373000Y-138950000D01*
X144224000Y-138990000D02*
X149376000Y-138990000D01*
X144222000Y-139030000D02*
X149378000Y-139030000D01*
X144221000Y-139070000D02*
X149379000Y-139070000D01*
X144220000Y-139110000D02*
X149380000Y-139110000D01*
X144220000Y-139150000D02*
X149380000Y-139150000D01*
X149420000Y-139150000D02*
G75*
G03*
X149420000Y-139150000I-2620000J0D01*
G01*
%TO.C,D1*%
X129800000Y-112300000D02*
X129800000Y-131500000D01*
X113600000Y-112300000D02*
X129800000Y-112300000D01*
X110600000Y-115300000D02*
X113600000Y-112300000D01*
X110600000Y-131500000D02*
X110600000Y-115300000D01*
X129800000Y-131500000D02*
X110600000Y-131500000D01*
%TO.C,D2*%
X178070000Y-94560000D02*
X175130000Y-94560000D01*
X175130000Y-94560000D02*
X175130000Y-100000000D01*
X175130000Y-100000000D02*
X178070000Y-100000000D01*
X178070000Y-100000000D02*
X178070000Y-94560000D01*
X176600000Y-93540000D02*
X176600000Y-94560000D01*
X176600000Y-101020000D02*
X176600000Y-100000000D01*
X178070000Y-95460000D02*
X175130000Y-95460000D01*
X178070000Y-95580000D02*
X175130000Y-95580000D01*
X178070000Y-95340000D02*
X175130000Y-95340000D01*
%TO.C,J1*%
X106640000Y-120480000D02*
X106640000Y-130640000D01*
X107910000Y-120480000D02*
X100290000Y-120480000D01*
X100290000Y-120480000D02*
X100290000Y-130640000D01*
X100290000Y-130640000D02*
X107910000Y-130640000D01*
X107910000Y-130640000D02*
X107910000Y-120480000D01*
%TO.C,J5*%
X166560000Y-137260000D02*
X176720000Y-137260000D01*
X166560000Y-135990000D02*
X166560000Y-143610000D01*
X166560000Y-143610000D02*
X176720000Y-143610000D01*
X176720000Y-143610000D02*
X176720000Y-135990000D01*
X176720000Y-135990000D02*
X166560000Y-135990000D01*
%TO.C,Q1*%
X185770000Y-111540000D02*
X185770000Y-121780000D01*
X181129000Y-111540000D02*
X181129000Y-121780000D01*
X185770000Y-111540000D02*
X181129000Y-111540000D01*
X185770000Y-121780000D02*
X181129000Y-121780000D01*
X184260000Y-111540000D02*
X184260000Y-121780000D01*
X185770000Y-114810000D02*
X184260000Y-114810000D01*
X185770000Y-118511000D02*
X184260000Y-118511000D01*
%TO.C,R1*%
X157190000Y-115770000D02*
X157190000Y-113030000D01*
X157190000Y-113030000D02*
X150650000Y-113030000D01*
X150650000Y-113030000D02*
X150650000Y-115770000D01*
X150650000Y-115770000D02*
X157190000Y-115770000D01*
X157960000Y-114400000D02*
X157190000Y-114400000D01*
X149880000Y-114400000D02*
X150650000Y-114400000D01*
%TO.C,R2*%
X172370000Y-94010000D02*
X169630000Y-94010000D01*
X169630000Y-94010000D02*
X169630000Y-100550000D01*
X169630000Y-100550000D02*
X172370000Y-100550000D01*
X172370000Y-100550000D02*
X172370000Y-94010000D01*
X171000000Y-93240000D02*
X171000000Y-94010000D01*
X171000000Y-101320000D02*
X171000000Y-100550000D01*
%TO.C,R3*%
X149100000Y-108320000D02*
X149100000Y-107550000D01*
X149100000Y-100240000D02*
X149100000Y-101010000D01*
X150470000Y-107550000D02*
X150470000Y-101010000D01*
X147730000Y-107550000D02*
X150470000Y-107550000D01*
X147730000Y-101010000D02*
X147730000Y-107550000D01*
X150470000Y-101010000D02*
X147730000Y-101010000D01*
%TO.C,R4*%
X145650000Y-127730000D02*
X145650000Y-130470000D01*
X145650000Y-130470000D02*
X152190000Y-130470000D01*
X152190000Y-130470000D02*
X152190000Y-127730000D01*
X152190000Y-127730000D02*
X145650000Y-127730000D01*
X144880000Y-129100000D02*
X145650000Y-129100000D01*
X152960000Y-129100000D02*
X152190000Y-129100000D01*
%TO.C,R5*%
X132600000Y-141920000D02*
X132600000Y-141150000D01*
X132600000Y-133840000D02*
X132600000Y-134610000D01*
X133970000Y-141150000D02*
X133970000Y-134610000D01*
X131230000Y-141150000D02*
X133970000Y-141150000D01*
X131230000Y-134610000D02*
X131230000Y-141150000D01*
X133970000Y-134610000D02*
X131230000Y-134610000D01*
%TO.C,RV1*%
X162060000Y-116910000D02*
X162060000Y-109290000D01*
X177300000Y-116910000D02*
X177300000Y-109290000D01*
X162060000Y-115640000D02*
X177300000Y-115640000D01*
X162060000Y-109290000D02*
X177300000Y-109290000D01*
X162060000Y-116910000D02*
X177300000Y-116910000D01*
%TO.C,U1*%
X154350000Y-97670000D02*
X154350000Y-99170000D01*
X154350000Y-99170000D02*
X154620000Y-99170000D01*
X154620000Y-99170000D02*
X154620000Y-102000000D01*
X161250000Y-97670000D02*
X161250000Y-99170000D01*
X161250000Y-99170000D02*
X160980000Y-99170000D01*
X160980000Y-99170000D02*
X160980000Y-100270000D01*
%TO.C,D4*%
X136580000Y-141210000D02*
X138820000Y-141210000D01*
X138820000Y-141210000D02*
X138820000Y-136970000D01*
X138820000Y-136970000D02*
X136580000Y-136970000D01*
X136580000Y-136970000D02*
X136580000Y-141210000D01*
X137700000Y-141860000D02*
X137700000Y-141210000D01*
X137700000Y-136320000D02*
X137700000Y-136970000D01*
X136580000Y-140490000D02*
X138820000Y-140490000D01*
X136580000Y-140370000D02*
X138820000Y-140370000D01*
X136580000Y-140610000D02*
X138820000Y-140610000D01*
%TO.C,D3*%
X151480000Y-137160000D02*
X161640000Y-137160000D01*
X151480000Y-135890000D02*
X151480000Y-143510000D01*
X151480000Y-143510000D02*
X161640000Y-143510000D01*
X161640000Y-143510000D02*
X161640000Y-135890000D01*
X161640000Y-135890000D02*
X151480000Y-135890000D01*
%TO.C,Q2*%
X125360000Y-137450000D02*
X121760000Y-137450000D01*
X125884184Y-138177205D02*
G75*
G03*
X125360000Y-137450000I-2324184J-1122795D01*
G01*
X125916400Y-140398807D02*
G75*
G02*
X123560000Y-141900000I-2356400J1098807D01*
G01*
X121203600Y-140398807D02*
G75*
G03*
X123560000Y-141900000I2356400J1098807D01*
G01*
X121235816Y-138177205D02*
G75*
G02*
X121760000Y-137450000I2324184J-1122795D01*
G01*
%TO.C,C9*%
X107020000Y-118270000D02*
X101780000Y-118270000D01*
X107020000Y-108030000D02*
X101780000Y-108030000D01*
X101780000Y-108030000D02*
X101780000Y-118270000D01*
X107020000Y-108030000D02*
X107020000Y-118270000D01*
%TD*%
%TO.C,C8*%
D10*
X103442857Y-141600000D02*
X103528571Y-141685714D01*
X103614285Y-141942857D01*
X103614285Y-142114285D01*
X103528571Y-142371428D01*
X103357142Y-142542857D01*
X103185714Y-142628571D01*
X102842857Y-142714285D01*
X102585714Y-142714285D01*
X102242857Y-142628571D01*
X102071428Y-142542857D01*
X101900000Y-142371428D01*
X101814285Y-142114285D01*
X101814285Y-141942857D01*
X101900000Y-141685714D01*
X101985714Y-141600000D01*
X102585714Y-140571428D02*
X102500000Y-140742857D01*
X102414285Y-140828571D01*
X102242857Y-140914285D01*
X102157142Y-140914285D01*
X101985714Y-140828571D01*
X101900000Y-140742857D01*
X101814285Y-140571428D01*
X101814285Y-140228571D01*
X101900000Y-140057142D01*
X101985714Y-139971428D01*
X102157142Y-139885714D01*
X102242857Y-139885714D01*
X102414285Y-139971428D01*
X102500000Y-140057142D01*
X102585714Y-140228571D01*
X102585714Y-140571428D01*
X102671428Y-140742857D01*
X102757142Y-140828571D01*
X102928571Y-140914285D01*
X103271428Y-140914285D01*
X103442857Y-140828571D01*
X103528571Y-140742857D01*
X103614285Y-140571428D01*
X103614285Y-140228571D01*
X103528571Y-140057142D01*
X103442857Y-139971428D01*
X103271428Y-139885714D01*
X102928571Y-139885714D01*
X102757142Y-139971428D01*
X102671428Y-140057142D01*
X102585714Y-140228571D01*
%TO.C,C7*%
X170900000Y-128842857D02*
X170814285Y-128928571D01*
X170557142Y-129014285D01*
X170385714Y-129014285D01*
X170128571Y-128928571D01*
X169957142Y-128757142D01*
X169871428Y-128585714D01*
X169785714Y-128242857D01*
X169785714Y-127985714D01*
X169871428Y-127642857D01*
X169957142Y-127471428D01*
X170128571Y-127300000D01*
X170385714Y-127214285D01*
X170557142Y-127214285D01*
X170814285Y-127300000D01*
X170900000Y-127385714D01*
X171500000Y-127214285D02*
X172700000Y-127214285D01*
X171928571Y-129014285D01*
%TO.C,F1*%
X137400000Y-124771428D02*
X136800000Y-124771428D01*
X136800000Y-125714285D02*
X136800000Y-123914285D01*
X137657142Y-123914285D01*
X139285714Y-125714285D02*
X138257142Y-125714285D01*
X138771428Y-125714285D02*
X138771428Y-123914285D01*
X138600000Y-124171428D01*
X138428571Y-124342857D01*
X138257142Y-124428571D01*
%TO.C,J4*%
X108600000Y-134514285D02*
X108600000Y-135800000D01*
X108514285Y-136057142D01*
X108342857Y-136228571D01*
X108085714Y-136314285D01*
X107914285Y-136314285D01*
X110228571Y-135114285D02*
X110228571Y-136314285D01*
X109800000Y-134428571D02*
X109371428Y-135714285D01*
X110485714Y-135714285D01*
%TO.C,C1*%
X142800000Y-107042857D02*
X142714285Y-107128571D01*
X142457142Y-107214285D01*
X142285714Y-107214285D01*
X142028571Y-107128571D01*
X141857142Y-106957142D01*
X141771428Y-106785714D01*
X141685714Y-106442857D01*
X141685714Y-106185714D01*
X141771428Y-105842857D01*
X141857142Y-105671428D01*
X142028571Y-105500000D01*
X142285714Y-105414285D01*
X142457142Y-105414285D01*
X142714285Y-105500000D01*
X142800000Y-105585714D01*
X144514285Y-107214285D02*
X143485714Y-107214285D01*
X144000000Y-107214285D02*
X144000000Y-105414285D01*
X143828571Y-105671428D01*
X143657142Y-105842857D01*
X143485714Y-105928571D01*
%TO.C,C2*%
X122900000Y-106842857D02*
X122814285Y-106928571D01*
X122557142Y-107014285D01*
X122385714Y-107014285D01*
X122128571Y-106928571D01*
X121957142Y-106757142D01*
X121871428Y-106585714D01*
X121785714Y-106242857D01*
X121785714Y-105985714D01*
X121871428Y-105642857D01*
X121957142Y-105471428D01*
X122128571Y-105300000D01*
X122385714Y-105214285D01*
X122557142Y-105214285D01*
X122814285Y-105300000D01*
X122900000Y-105385714D01*
X123585714Y-105385714D02*
X123671428Y-105300000D01*
X123842857Y-105214285D01*
X124271428Y-105214285D01*
X124442857Y-105300000D01*
X124528571Y-105385714D01*
X124614285Y-105557142D01*
X124614285Y-105728571D01*
X124528571Y-105985714D01*
X123500000Y-107014285D01*
X124614285Y-107014285D01*
%TO.C,C3*%
X152992857Y-120050000D02*
X153078571Y-120135714D01*
X153164285Y-120392857D01*
X153164285Y-120564285D01*
X153078571Y-120821428D01*
X152907142Y-120992857D01*
X152735714Y-121078571D01*
X152392857Y-121164285D01*
X152135714Y-121164285D01*
X151792857Y-121078571D01*
X151621428Y-120992857D01*
X151450000Y-120821428D01*
X151364285Y-120564285D01*
X151364285Y-120392857D01*
X151450000Y-120135714D01*
X151535714Y-120050000D01*
X151364285Y-119450000D02*
X151364285Y-118335714D01*
X152050000Y-118935714D01*
X152050000Y-118678571D01*
X152135714Y-118507142D01*
X152221428Y-118421428D01*
X152392857Y-118335714D01*
X152821428Y-118335714D01*
X152992857Y-118421428D01*
X153078571Y-118507142D01*
X153164285Y-118678571D01*
X153164285Y-119192857D01*
X153078571Y-119364285D01*
X152992857Y-119450000D01*
%TO.C,C4*%
X161000000Y-130142857D02*
X160914285Y-130228571D01*
X160657142Y-130314285D01*
X160485714Y-130314285D01*
X160228571Y-130228571D01*
X160057142Y-130057142D01*
X159971428Y-129885714D01*
X159885714Y-129542857D01*
X159885714Y-129285714D01*
X159971428Y-128942857D01*
X160057142Y-128771428D01*
X160228571Y-128600000D01*
X160485714Y-128514285D01*
X160657142Y-128514285D01*
X160914285Y-128600000D01*
X161000000Y-128685714D01*
X162542857Y-129114285D02*
X162542857Y-130314285D01*
X162114285Y-128428571D02*
X161685714Y-129714285D01*
X162800000Y-129714285D01*
%TO.C,C5*%
X162700000Y-98242857D02*
X162614285Y-98328571D01*
X162357142Y-98414285D01*
X162185714Y-98414285D01*
X161928571Y-98328571D01*
X161757142Y-98157142D01*
X161671428Y-97985714D01*
X161585714Y-97642857D01*
X161585714Y-97385714D01*
X161671428Y-97042857D01*
X161757142Y-96871428D01*
X161928571Y-96700000D01*
X162185714Y-96614285D01*
X162357142Y-96614285D01*
X162614285Y-96700000D01*
X162700000Y-96785714D01*
X164328571Y-96614285D02*
X163471428Y-96614285D01*
X163385714Y-97471428D01*
X163471428Y-97385714D01*
X163642857Y-97300000D01*
X164071428Y-97300000D01*
X164242857Y-97385714D01*
X164328571Y-97471428D01*
X164414285Y-97642857D01*
X164414285Y-98071428D01*
X164328571Y-98242857D01*
X164242857Y-98328571D01*
X164071428Y-98414285D01*
X163642857Y-98414285D01*
X163471428Y-98328571D01*
X163385714Y-98242857D01*
%TO.C,C6*%
X143692857Y-139450000D02*
X143778571Y-139535714D01*
X143864285Y-139792857D01*
X143864285Y-139964285D01*
X143778571Y-140221428D01*
X143607142Y-140392857D01*
X143435714Y-140478571D01*
X143092857Y-140564285D01*
X142835714Y-140564285D01*
X142492857Y-140478571D01*
X142321428Y-140392857D01*
X142150000Y-140221428D01*
X142064285Y-139964285D01*
X142064285Y-139792857D01*
X142150000Y-139535714D01*
X142235714Y-139450000D01*
X142064285Y-137907142D02*
X142064285Y-138250000D01*
X142150000Y-138421428D01*
X142235714Y-138507142D01*
X142492857Y-138678571D01*
X142835714Y-138764285D01*
X143521428Y-138764285D01*
X143692857Y-138678571D01*
X143778571Y-138592857D01*
X143864285Y-138421428D01*
X143864285Y-138078571D01*
X143778571Y-137907142D01*
X143692857Y-137821428D01*
X143521428Y-137735714D01*
X143092857Y-137735714D01*
X142921428Y-137821428D01*
X142835714Y-137907142D01*
X142750000Y-138078571D01*
X142750000Y-138421428D01*
X142835714Y-138592857D01*
X142921428Y-138678571D01*
X143092857Y-138764285D01*
%TO.C,D1*%
X132214285Y-129628571D02*
X130414285Y-129628571D01*
X130414285Y-129200000D01*
X130500000Y-128942857D01*
X130671428Y-128771428D01*
X130842857Y-128685714D01*
X131185714Y-128600000D01*
X131442857Y-128600000D01*
X131785714Y-128685714D01*
X131957142Y-128771428D01*
X132128571Y-128942857D01*
X132214285Y-129200000D01*
X132214285Y-129628571D01*
X132214285Y-126885714D02*
X132214285Y-127914285D01*
X132214285Y-127400000D02*
X130414285Y-127400000D01*
X130671428Y-127571428D01*
X130842857Y-127742857D01*
X130928571Y-127914285D01*
%TO.C,D2*%
X180414285Y-103628571D02*
X178614285Y-103628571D01*
X178614285Y-103200000D01*
X178700000Y-102942857D01*
X178871428Y-102771428D01*
X179042857Y-102685714D01*
X179385714Y-102600000D01*
X179642857Y-102600000D01*
X179985714Y-102685714D01*
X180157142Y-102771428D01*
X180328571Y-102942857D01*
X180414285Y-103200000D01*
X180414285Y-103628571D01*
X178785714Y-101914285D02*
X178700000Y-101828571D01*
X178614285Y-101657142D01*
X178614285Y-101228571D01*
X178700000Y-101057142D01*
X178785714Y-100971428D01*
X178957142Y-100885714D01*
X179128571Y-100885714D01*
X179385714Y-100971428D01*
X180414285Y-102000000D01*
X180414285Y-100885714D01*
X179514285Y-92671428D02*
X177714285Y-92671428D01*
X179514285Y-91642857D02*
X178485714Y-92414285D01*
X177714285Y-91642857D02*
X178742857Y-92671428D01*
%TO.C,J1*%
X103400000Y-131114285D02*
X103400000Y-132400000D01*
X103314285Y-132657142D01*
X103142857Y-132828571D01*
X102885714Y-132914285D01*
X102714285Y-132914285D01*
X105200000Y-132914285D02*
X104171428Y-132914285D01*
X104685714Y-132914285D02*
X104685714Y-131114285D01*
X104514285Y-131371428D01*
X104342857Y-131542857D01*
X104171428Y-131628571D01*
%TO.C,J5*%
X167600000Y-133814285D02*
X167600000Y-135100000D01*
X167514285Y-135357142D01*
X167342857Y-135528571D01*
X167085714Y-135614285D01*
X166914285Y-135614285D01*
X169314285Y-133814285D02*
X168457142Y-133814285D01*
X168371428Y-134671428D01*
X168457142Y-134585714D01*
X168628571Y-134500000D01*
X169057142Y-134500000D01*
X169228571Y-134585714D01*
X169314285Y-134671428D01*
X169400000Y-134842857D01*
X169400000Y-135271428D01*
X169314285Y-135442857D01*
X169228571Y-135528571D01*
X169057142Y-135614285D01*
X168628571Y-135614285D01*
X168457142Y-135528571D01*
X168371428Y-135442857D01*
%TO.C,Q1*%
X178928571Y-121985714D02*
X178757142Y-121900000D01*
X178585714Y-121728571D01*
X178328571Y-121471428D01*
X178157142Y-121385714D01*
X177985714Y-121385714D01*
X178071428Y-121814285D02*
X177900000Y-121728571D01*
X177728571Y-121557142D01*
X177642857Y-121214285D01*
X177642857Y-120614285D01*
X177728571Y-120271428D01*
X177900000Y-120100000D01*
X178071428Y-120014285D01*
X178414285Y-120014285D01*
X178585714Y-120100000D01*
X178757142Y-120271428D01*
X178842857Y-120614285D01*
X178842857Y-121214285D01*
X178757142Y-121557142D01*
X178585714Y-121728571D01*
X178414285Y-121814285D01*
X178071428Y-121814285D01*
X180557142Y-121814285D02*
X179528571Y-121814285D01*
X180042857Y-121814285D02*
X180042857Y-120014285D01*
X179871428Y-120271428D01*
X179700000Y-120442857D01*
X179528571Y-120528571D01*
%TO.C,R1*%
X148700000Y-112614285D02*
X148100000Y-111757142D01*
X147671428Y-112614285D02*
X147671428Y-110814285D01*
X148357142Y-110814285D01*
X148528571Y-110900000D01*
X148614285Y-110985714D01*
X148700000Y-111157142D01*
X148700000Y-111414285D01*
X148614285Y-111585714D01*
X148528571Y-111671428D01*
X148357142Y-111757142D01*
X147671428Y-111757142D01*
X150414285Y-112614285D02*
X149385714Y-112614285D01*
X149900000Y-112614285D02*
X149900000Y-110814285D01*
X149728571Y-111071428D01*
X149557142Y-111242857D01*
X149385714Y-111328571D01*
%TO.C,R2*%
X166400000Y-93514285D02*
X165800000Y-92657142D01*
X165371428Y-93514285D02*
X165371428Y-91714285D01*
X166057142Y-91714285D01*
X166228571Y-91800000D01*
X166314285Y-91885714D01*
X166400000Y-92057142D01*
X166400000Y-92314285D01*
X166314285Y-92485714D01*
X166228571Y-92571428D01*
X166057142Y-92657142D01*
X165371428Y-92657142D01*
X167085714Y-91885714D02*
X167171428Y-91800000D01*
X167342857Y-91714285D01*
X167771428Y-91714285D01*
X167942857Y-91800000D01*
X168028571Y-91885714D01*
X168114285Y-92057142D01*
X168114285Y-92228571D01*
X168028571Y-92485714D01*
X167000000Y-93514285D01*
X168114285Y-93514285D01*
%TO.C,R3*%
X152714285Y-109300000D02*
X151857142Y-109900000D01*
X152714285Y-110328571D02*
X150914285Y-110328571D01*
X150914285Y-109642857D01*
X151000000Y-109471428D01*
X151085714Y-109385714D01*
X151257142Y-109300000D01*
X151514285Y-109300000D01*
X151685714Y-109385714D01*
X151771428Y-109471428D01*
X151857142Y-109642857D01*
X151857142Y-110328571D01*
X150914285Y-108700000D02*
X150914285Y-107585714D01*
X151600000Y-108185714D01*
X151600000Y-107928571D01*
X151685714Y-107757142D01*
X151771428Y-107671428D01*
X151942857Y-107585714D01*
X152371428Y-107585714D01*
X152542857Y-107671428D01*
X152628571Y-107757142D01*
X152714285Y-107928571D01*
X152714285Y-108442857D01*
X152628571Y-108614285D01*
X152542857Y-108700000D01*
%TO.C,R4*%
X144340000Y-127314285D02*
X143740000Y-126457142D01*
X143311428Y-127314285D02*
X143311428Y-125514285D01*
X143997142Y-125514285D01*
X144168571Y-125600000D01*
X144254285Y-125685714D01*
X144340000Y-125857142D01*
X144340000Y-126114285D01*
X144254285Y-126285714D01*
X144168571Y-126371428D01*
X143997142Y-126457142D01*
X143311428Y-126457142D01*
X145882857Y-126114285D02*
X145882857Y-127314285D01*
X145454285Y-125428571D02*
X145025714Y-126714285D01*
X146140000Y-126714285D01*
%TO.C,R5*%
X130814285Y-142800000D02*
X129957142Y-143400000D01*
X130814285Y-143828571D02*
X129014285Y-143828571D01*
X129014285Y-143142857D01*
X129100000Y-142971428D01*
X129185714Y-142885714D01*
X129357142Y-142800000D01*
X129614285Y-142800000D01*
X129785714Y-142885714D01*
X129871428Y-142971428D01*
X129957142Y-143142857D01*
X129957142Y-143828571D01*
X129014285Y-141171428D02*
X129014285Y-142028571D01*
X129871428Y-142114285D01*
X129785714Y-142028571D01*
X129700000Y-141857142D01*
X129700000Y-141428571D01*
X129785714Y-141257142D01*
X129871428Y-141171428D01*
X130042857Y-141085714D01*
X130471428Y-141085714D01*
X130642857Y-141171428D01*
X130728571Y-141257142D01*
X130814285Y-141428571D01*
X130814285Y-141857142D01*
X130728571Y-142028571D01*
X130642857Y-142114285D01*
%TO.C,RV1*%
X163028571Y-108714285D02*
X162428571Y-107857142D01*
X162000000Y-108714285D02*
X162000000Y-106914285D01*
X162685714Y-106914285D01*
X162857142Y-107000000D01*
X162942857Y-107085714D01*
X163028571Y-107257142D01*
X163028571Y-107514285D01*
X162942857Y-107685714D01*
X162857142Y-107771428D01*
X162685714Y-107857142D01*
X162000000Y-107857142D01*
X163542857Y-106914285D02*
X164142857Y-108714285D01*
X164742857Y-106914285D01*
X166285714Y-108714285D02*
X165257142Y-108714285D01*
X165771428Y-108714285D02*
X165771428Y-106914285D01*
X165600000Y-107171428D01*
X165428571Y-107342857D01*
X165257142Y-107428571D01*
%TO.C,U1*%
X151128571Y-91314285D02*
X151128571Y-92771428D01*
X151214285Y-92942857D01*
X151300000Y-93028571D01*
X151471428Y-93114285D01*
X151814285Y-93114285D01*
X151985714Y-93028571D01*
X152071428Y-92942857D01*
X152157142Y-92771428D01*
X152157142Y-91314285D01*
X153957142Y-93114285D02*
X152928571Y-93114285D01*
X153442857Y-93114285D02*
X153442857Y-91314285D01*
X153271428Y-91571428D01*
X153100000Y-91742857D01*
X152928571Y-91828571D01*
%TO.C,D4*%
X136214285Y-140418571D02*
X134414285Y-140418571D01*
X134414285Y-139990000D01*
X134500000Y-139732857D01*
X134671428Y-139561428D01*
X134842857Y-139475714D01*
X135185714Y-139390000D01*
X135442857Y-139390000D01*
X135785714Y-139475714D01*
X135957142Y-139561428D01*
X136128571Y-139732857D01*
X136214285Y-139990000D01*
X136214285Y-140418571D01*
X135014285Y-137847142D02*
X136214285Y-137847142D01*
X134328571Y-138275714D02*
X135614285Y-138704285D01*
X135614285Y-137590000D01*
X136714285Y-143371428D02*
X134914285Y-143371428D01*
X136714285Y-142342857D02*
X135685714Y-143114285D01*
X134914285Y-142342857D02*
X135942857Y-143371428D01*
%TO.C,D3*%
X158771428Y-135314285D02*
X158771428Y-133514285D01*
X159200000Y-133514285D01*
X159457142Y-133600000D01*
X159628571Y-133771428D01*
X159714285Y-133942857D01*
X159800000Y-134285714D01*
X159800000Y-134542857D01*
X159714285Y-134885714D01*
X159628571Y-135057142D01*
X159457142Y-135228571D01*
X159200000Y-135314285D01*
X158771428Y-135314285D01*
X160400000Y-133514285D02*
X161514285Y-133514285D01*
X160914285Y-134200000D01*
X161171428Y-134200000D01*
X161342857Y-134285714D01*
X161428571Y-134371428D01*
X161514285Y-134542857D01*
X161514285Y-134971428D01*
X161428571Y-135142857D01*
X161342857Y-135228571D01*
X161171428Y-135314285D01*
X160657142Y-135314285D01*
X160485714Y-135228571D01*
X160400000Y-135142857D01*
%TO.C,Q2*%
X123428571Y-144185714D02*
X123257142Y-144100000D01*
X123085714Y-143928571D01*
X122828571Y-143671428D01*
X122657142Y-143585714D01*
X122485714Y-143585714D01*
X122571428Y-144014285D02*
X122400000Y-143928571D01*
X122228571Y-143757142D01*
X122142857Y-143414285D01*
X122142857Y-142814285D01*
X122228571Y-142471428D01*
X122400000Y-142300000D01*
X122571428Y-142214285D01*
X122914285Y-142214285D01*
X123085714Y-142300000D01*
X123257142Y-142471428D01*
X123342857Y-142814285D01*
X123342857Y-143414285D01*
X123257142Y-143757142D01*
X123085714Y-143928571D01*
X122914285Y-144014285D01*
X122571428Y-144014285D01*
X124028571Y-142385714D02*
X124114285Y-142300000D01*
X124285714Y-142214285D01*
X124714285Y-142214285D01*
X124885714Y-142300000D01*
X124971428Y-142385714D01*
X125057142Y-142557142D01*
X125057142Y-142728571D01*
X124971428Y-142985714D01*
X123942857Y-144014285D01*
X125057142Y-144014285D01*
%TO.C,C9*%
X109042857Y-117200000D02*
X109128571Y-117285714D01*
X109214285Y-117542857D01*
X109214285Y-117714285D01*
X109128571Y-117971428D01*
X108957142Y-118142857D01*
X108785714Y-118228571D01*
X108442857Y-118314285D01*
X108185714Y-118314285D01*
X107842857Y-118228571D01*
X107671428Y-118142857D01*
X107500000Y-117971428D01*
X107414285Y-117714285D01*
X107414285Y-117542857D01*
X107500000Y-117285714D01*
X107585714Y-117200000D01*
X109214285Y-116342857D02*
X109214285Y-116000000D01*
X109128571Y-115828571D01*
X109042857Y-115742857D01*
X108785714Y-115571428D01*
X108442857Y-115485714D01*
X107757142Y-115485714D01*
X107585714Y-115571428D01*
X107500000Y-115657142D01*
X107414285Y-115828571D01*
X107414285Y-116171428D01*
X107500000Y-116342857D01*
X107585714Y-116428571D01*
X107757142Y-116514285D01*
X108185714Y-116514285D01*
X108357142Y-116428571D01*
X108442857Y-116342857D01*
X108528571Y-116171428D01*
X108528571Y-115828571D01*
X108442857Y-115657142D01*
X108357142Y-115571428D01*
X108185714Y-115485714D01*
%TD*%
M02*
