(export (version D)
  (design
    (source /home/fenix/git/fuentes/lm317_bost_Current_V2/kicad/kicad.sch)
    (date "mar 24 nov 2020 14:02:19")
    (tool "Eeschema 5.1.6")
    (sheet (number 1) (name /) (tstamps /)
      (title_block
        (title)
        (company)
        (rev)
        (date)
        (source kicad.sch)
        (comment (number 1) (value ""))
        (comment (number 2) (value ""))
        (comment (number 3) (value ""))
        (comment (number 4) (value "")))))
  (components
    (comp (ref D1)
      (value Bridge)
      (footprint Diode_THT:Diode_Bridge_19.0x19.0x6.8mm_P12.7mm)
      (datasheet ~)
      (libsource (lib Device) (part D_Bridge_+A-A) (description "Diode bridge, +ve/AC/-ve/AC"))
      (sheetpath (names /) (tstamps /))
      (tstamp 5FA7758E))
    (comp (ref J1)
      (value 12VAC)
      (footprint TerminalBlock:TerminalBlock_bornier-2_P5.08mm)
      (datasheet ~)
      (libsource (lib Connector) (part Screw_Terminal_01x02) (description "Generic screw terminal, single row, 01x02, script generated (kicad-library-utils/schlib/autogen/connector/)"))
      (sheetpath (names /) (tstamps /))
      (tstamp 5FA79363))
    (comp (ref C1)
      (value 2200)
      (footprint Capacitor_THT:CP_Radial_D18.0mm_P7.50mm)
      (datasheet ~)
      (libsource (lib Device) (part CP) (description "Polarized capacitor"))
      (sheetpath (names /) (tstamps /))
      (tstamp 5FA7CCD6))
    (comp (ref C2)
      (value 2200)
      (footprint Capacitor_THT:CP_Radial_D18.0mm_P7.50mm)
      (datasheet ~)
      (libsource (lib Device) (part CP) (description "Polarized capacitor"))
      (sheetpath (names /) (tstamps /))
      (tstamp 5FA7D3E9))
    (comp (ref R2)
      (value 240)
      (footprint Resistor_THT:R_Axial_DIN0207_L6.3mm_D2.5mm_P10.16mm_Horizontal)
      (datasheet ~)
      (libsource (lib Device) (part R) (description Resistor))
      (sheetpath (names /) (tstamps /))
      (tstamp 5FA810CE))
    (comp (ref RV1)
      (value 5k)
      (footprint TerminalBlock:TerminalBlock_bornier-3_P5.08mm)
      (datasheet ~)
      (libsource (lib Device) (part R_POT) (description Potentiometer))
      (sheetpath (names /) (tstamps /))
      (tstamp 5FA81676))
    (comp (ref R1)
      (value 10)
      (footprint Resistor_THT:R_Axial_DIN0207_L6.3mm_D2.5mm_P10.16mm_Horizontal)
      (datasheet ~)
      (libsource (lib Device) (part R) (description Resistor))
      (sheetpath (names /) (tstamps /))
      (tstamp 5FA82174))
    (comp (ref Q1)
      (value TIP42)
      (footprint Package_TO_SOT_THT:TO-220-3_Vertical)
      (datasheet https://www.centralsemi.com/get_document.php?cmp=1&mergetype=pd&mergepath=pd&pdf_id=TIP42.PDF)
      (libsource (lib Transistor_BJT) (part TIP42) (description "-6A Ic, -40V Vce, Power PNP Transistor, TO-220"))
      (sheetpath (names /) (tstamps /))
      (tstamp 5FA82B76))
    (comp (ref D2)
      (value 1N4007)
      (footprint Diode_THT:D_DO-41_SOD81_P10.16mm_Horizontal)
      (datasheet http://www.vishay.com/docs/88503/1n4001.pdf)
      (libsource (lib Diode) (part 1N4007) (description "1000V 1A General Purpose Rectifier Diode, DO-41"))
      (sheetpath (names /) (tstamps /))
      (tstamp 5FA84F59))
    (comp (ref C3)
      (value 10u)
      (footprint Capacitor_THT:CP_Radial_D5.0mm_P2.50mm)
      (datasheet ~)
      (libsource (lib Device) (part CP) (description "Polarized capacitor"))
      (sheetpath (names /) (tstamps /))
      (tstamp 5FAA1279))
    (comp (ref C4)
      (value 47u)
      (footprint Capacitor_THT:CP_Radial_D5.0mm_P2.50mm)
      (datasheet ~)
      (libsource (lib Device) (part CP) (description "Polarized capacitor"))
      (sheetpath (names /) (tstamps /))
      (tstamp 5FAA1723))
    (comp (ref C5)
      (value 10u)
      (footprint Capacitor_THT:CP_Radial_D5.0mm_P2.50mm)
      (datasheet ~)
      (libsource (lib Device) (part CP) (description "Polarized capacitor"))
      (sheetpath (names /) (tstamps /))
      (tstamp 5FAA21F2))
    (comp (ref R4)
      (value 1k)
      (footprint Resistor_THT:R_Axial_DIN0207_L6.3mm_D2.5mm_P10.16mm_Horizontal)
      (datasheet ~)
      (libsource (lib Device) (part R) (description Resistor))
      (sheetpath (names /) (tstamps /))
      (tstamp 5FAA82A3))
    (comp (ref R3)
      (value R)
      (footprint Resistor_THT:R_Axial_DIN0207_L6.3mm_D2.5mm_P10.16mm_Horizontal)
      (datasheet ~)
      (libsource (lib Device) (part R) (description Resistor))
      (sheetpath (names /) (tstamps /))
      (tstamp 5FAD5935))
    (comp (ref D4)
      (value 1n5237)
      (footprint Diode_THT:D_DO-35_SOD27_P7.62mm_Horizontal)
      (datasheet https://industrial.panasonic.com/content/data/SC/ds/ds4/DZ2S08200L_E.pdf)
      (libsource (lib Diode) (part DZ2S082X0L) (description "150mW Silicon Planar Zener Diode, 8.2V, SOD-523"))
      (sheetpath (names /) (tstamps /))
      (tstamp 5FAF4946))
    (comp (ref R5)
      (value 270)
      (footprint Resistor_THT:R_Axial_DIN0207_L6.3mm_D2.5mm_P10.16mm_Horizontal)
      (datasheet ~)
      (libsource (lib Device) (part R) (description Resistor))
      (sheetpath (names /) (tstamps /))
      (tstamp 5FAFFB2A))
    (comp (ref J4)
      (value Vdisplay)
      (footprint TerminalBlock:TerminalBlock_bornier-2_P5.08mm)
      (datasheet ~)
      (libsource (lib Connector) (part Screw_Terminal_01x02) (description "Generic screw terminal, single row, 01x02, script generated (kicad-library-utils/schlib/autogen/connector/)"))
      (sheetpath (names /) (tstamps /))
      (tstamp 5FB4FAF2))
    (comp (ref J5)
      (value Vout)
      (footprint TerminalBlock:TerminalBlock_bornier-2_P5.08mm)
      (datasheet ~)
      (libsource (lib Connector) (part Screw_Terminal_01x02) (description "Generic screw terminal, single row, 01x02, script generated (kicad-library-utils/schlib/autogen/connector/)"))
      (sheetpath (names /) (tstamps /))
      (tstamp 5FAEBE20))
    (comp (ref U1)
      (value LM317)
      (footprint Package_TO_SOT_SMD:TO-252-2)
      (datasheet http://www.ti.com/lit/ds/snvs774n/snvs774n.pdf)
      (libsource (lib Regulator_Linear) (part LM317_TO-252) (description "1.5A 35V Adjustable Linear Regulator, TO-252"))
      (sheetpath (names /) (tstamps /))
      (tstamp 5FB301A7))
    (comp (ref H1)
      (value M3)
      (footprint MountingHole:MountingHole_3.2mm_M3)
      (datasheet ~)
      (libsource (lib Mechanical) (part MountingHole) (description "Mounting Hole without connection"))
      (sheetpath (names /) (tstamps /))
      (tstamp 5FB54A4E))
    (comp (ref H3)
      (value M3)
      (footprint MountingHole:MountingHole_3.2mm_M3)
      (datasheet ~)
      (libsource (lib Mechanical) (part MountingHole) (description "Mounting Hole without connection"))
      (sheetpath (names /) (tstamps /))
      (tstamp 5FB55141))
    (comp (ref H2)
      (value M3)
      (footprint MountingHole:MountingHole_3.2mm_M3)
      (datasheet ~)
      (libsource (lib Mechanical) (part MountingHole) (description "Mounting Hole without connection"))
      (sheetpath (names /) (tstamps /))
      (tstamp 5FB5EC72))
    (comp (ref H4)
      (value M3)
      (footprint MountingHole:MountingHole_3.2mm_M3)
      (datasheet ~)
      (libsource (lib Mechanical) (part MountingHole) (description "Mounting Hole without connection"))
      (sheetpath (names /) (tstamps /))
      (tstamp 5FB5EC78))
    (comp (ref D3)
      (value LED)
      (footprint TerminalBlock:TerminalBlock_bornier-2_P5.08mm)
      (datasheet ~)
      (libsource (lib Device) (part LED) (description "Light emitting diode"))
      (sheetpath (names /) (tstamps /))
      (tstamp 5FB7E19D))
    (comp (ref F1)
      (value Fuse)
      (footprint TerminalBlock:TerminalBlock_bornier-2_P5.08mm)
      (datasheet ~)
      (libsource (lib Device) (part Fuse) (description Fuse))
      (sheetpath (names /) (tstamps /))
      (tstamp 5FBAE419))
    (comp (ref Q2)
      (value BC547)
      (footprint Package_TO_SOT_THT:TO-92_Inline_Wide)
      (datasheet http://www.fairchildsemi.com/ds/BC/BC547.pdf)
      (libsource (lib Transistor_BJT) (part BC547) (description "0.1A Ic, 45V Vce, Small Signal NPN Transistor, TO-92"))
      (sheetpath (names /) (tstamps /))
      (tstamp 5FAF378C))
    (comp (ref C6)
      (value 47u)
      (footprint Capacitor_THT:CP_Radial_D5.0mm_P2.50mm)
      (datasheet ~)
      (libsource (lib Device) (part CP) (description "Polarized capacitor"))
      (sheetpath (names /) (tstamps /))
      (tstamp 5FA9034B))
    (comp (ref C7)
      (value 0.1u)
      (footprint Capacitor_THT:C_Disc_D5.0mm_W2.5mm_P5.00mm)
      (datasheet ~)
      (libsource (lib Device) (part C) (description "Unpolarized capacitor"))
      (sheetpath (names /) (tstamps /))
      (tstamp 5FAE8DB3))
    (comp (ref C8)
      (value 0.1u)
      (footprint Capacitor_THT:C_Disc_D5.0mm_W2.5mm_P5.00mm)
      (datasheet ~)
      (libsource (lib Device) (part C) (description "Unpolarized capacitor"))
      (sheetpath (names /) (tstamps /))
      (tstamp 5FB53790))
    (comp (ref C9)
      (value 0.1u/250V)
      (footprint Capacitor_THT:C_Rect_L10.0mm_W5.0mm_P5.00mm_P7.50mm)
      (datasheet ~)
      (libsource (lib Device) (part C) (description "Unpolarized capacitor"))
      (sheetpath (names /) (tstamps /))
      (tstamp 5FB3343A)))
  (libparts
    (libpart (lib Connector) (part Screw_Terminal_01x02)
      (description "Generic screw terminal, single row, 01x02, script generated (kicad-library-utils/schlib/autogen/connector/)")
      (docs ~)
      (footprints
        (fp TerminalBlock*:*))
      (fields
        (field (name Reference) J)
        (field (name Value) Screw_Terminal_01x02))
      (pins
        (pin (num 1) (name Pin_1) (type passive))
        (pin (num 2) (name Pin_2) (type passive))))
    (libpart (lib Device) (part C)
      (description "Unpolarized capacitor")
      (docs ~)
      (footprints
        (fp C_*))
      (fields
        (field (name Reference) C)
        (field (name Value) C))
      (pins
        (pin (num 1) (name ~) (type passive))
        (pin (num 2) (name ~) (type passive))))
    (libpart (lib Device) (part CP)
      (description "Polarized capacitor")
      (docs ~)
      (footprints
        (fp CP_*))
      (fields
        (field (name Reference) C)
        (field (name Value) CP))
      (pins
        (pin (num 1) (name ~) (type passive))
        (pin (num 2) (name ~) (type passive))))
    (libpart (lib Device) (part D_Bridge_+A-A)
      (description "Diode bridge, +ve/AC/-ve/AC")
      (docs ~)
      (footprints
        (fp D*Bridge*)
        (fp D*Rectifier*))
      (fields
        (field (name Reference) D)
        (field (name Value) D_Bridge_+A-A))
      (pins
        (pin (num 1) (name +) (type passive))
        (pin (num 2) (name ~~) (type passive))
        (pin (num 3) (name -) (type passive))
        (pin (num 4) (name ~~) (type passive))))
    (libpart (lib Device) (part Fuse)
      (description Fuse)
      (docs ~)
      (footprints
        (fp *Fuse*))
      (fields
        (field (name Reference) F)
        (field (name Value) Fuse))
      (pins
        (pin (num 1) (name ~) (type passive))
        (pin (num 2) (name ~) (type passive))))
    (libpart (lib Device) (part LED)
      (description "Light emitting diode")
      (docs ~)
      (footprints
        (fp LED*)
        (fp LED_SMD:*)
        (fp LED_THT:*))
      (fields
        (field (name Reference) D)
        (field (name Value) LED))
      (pins
        (pin (num 1) (name K) (type passive))
        (pin (num 2) (name A) (type passive))))
    (libpart (lib Device) (part R)
      (description Resistor)
      (docs ~)
      (footprints
        (fp R_*))
      (fields
        (field (name Reference) R)
        (field (name Value) R))
      (pins
        (pin (num 1) (name ~) (type passive))
        (pin (num 2) (name ~) (type passive))))
    (libpart (lib Device) (part R_POT)
      (description Potentiometer)
      (docs ~)
      (footprints
        (fp Potentiometer*))
      (fields
        (field (name Reference) RV)
        (field (name Value) R_POT))
      (pins
        (pin (num 1) (name 1) (type passive))
        (pin (num 2) (name 2) (type passive))
        (pin (num 3) (name 3) (type passive))))
    (libpart (lib Diode) (part 1N4001)
      (aliases
        (alias 1N4002)
        (alias 1N4003)
        (alias 1N4004)
        (alias 1N4005)
        (alias 1N4006)
        (alias 1N4007)
        (alias BA157)
        (alias BA158)
        (alias BA159))
      (description "50V 1A General Purpose Rectifier Diode, DO-41")
      (docs http://www.vishay.com/docs/88503/1n4001.pdf)
      (footprints
        (fp D*DO?41*))
      (fields
        (field (name Reference) D)
        (field (name Value) 1N4001)
        (field (name Footprint) Diode_THT:D_DO-41_SOD81_P10.16mm_Horizontal))
      (pins
        (pin (num 1) (name K) (type passive))
        (pin (num 2) (name A) (type passive))))
    (libpart (lib Diode) (part MM5Zxx)
      (aliases
        (alias DZ2S030X0L)
        (alias DZ2S033X0L)
        (alias DZ2S036X0L)
        (alias DZ2S039X0L)
        (alias DZ2S047X0L)
        (alias DZ2S051X0L)
        (alias DZ2S056X0L)
        (alias DZ2S068X0L)
        (alias DZ2S082X0L)
        (alias DZ2S100X0L)
        (alias DZ2S120X0L)
        (alias DZ2S130X0L)
        (alias DZ2S150X0L)
        (alias DZ2S160X0L)
        (alias DZ2S180X0L)
        (alias DZ2S200X0L)
        (alias DZ2S360X0L)
        (alias DZ2S110X0L))
      (description "300mW Zener Diode, SOD-523")
      (docs https://diotec.com/tl_files/diotec/files/pdf/datasheets/mm5z2v4.pdf)
      (footprints
        (fp D?SOD?523*))
      (fields
        (field (name Reference) D)
        (field (name Value) MM5Zxx)
        (field (name Footprint) Diode_SMD:D_SOD-523))
      (pins
        (pin (num 1) (name K) (type passive))
        (pin (num 2) (name A) (type passive))))
    (libpart (lib Mechanical) (part MountingHole)
      (description "Mounting Hole without connection")
      (docs ~)
      (footprints
        (fp MountingHole*))
      (fields
        (field (name Reference) H)
        (field (name Value) MountingHole)))
    (libpart (lib Regulator_Linear) (part LM317_TO-252)
      (aliases
        (alias AZ1117D-ADJ))
      (description "1.5A 35V Adjustable Linear Regulator, TO-252")
      (docs http://www.ti.com/lit/ds/snvs774n/snvs774n.pdf)
      (footprints
        (fp TO?252*))
      (fields
        (field (name Reference) U)
        (field (name Value) LM317_TO-252)
        (field (name Footprint) Package_TO_SOT_SMD:TO-252-2))
      (pins
        (pin (num 1) (name ADJ) (type input))
        (pin (num 2) (name VO) (type power_out))
        (pin (num 3) (name VI) (type power_in))))
    (libpart (lib Transistor_BJT) (part BC547)
      (aliases
        (alias BC546)
        (alias BC548)
        (alias BC549)
        (alias BC550)
        (alias BC337)
        (alias BC338))
      (description "0.1A Ic, 45V Vce, Small Signal NPN Transistor, TO-92")
      (docs http://www.fairchildsemi.com/ds/BC/BC547.pdf)
      (footprints
        (fp TO?92*))
      (fields
        (field (name Reference) Q)
        (field (name Value) BC547)
        (field (name Footprint) Package_TO_SOT_THT:TO-92_Inline))
      (pins
        (pin (num 1) (name C) (type passive))
        (pin (num 2) (name B) (type input))
        (pin (num 3) (name E) (type passive))))
    (libpart (lib Transistor_BJT) (part BD910)
      (aliases
        (alias BD912)
        (alias TIP42)
        (alias TIP42A)
        (alias TIP42B)
        (alias TIP42C))
      (description "15A, Silicon Power PNP Transistors, TO-220")
      (docs http://www.st.com/internet/com/TECHNICAL_RESOURCES/TECHNICAL_LITERATURE/DATASHEET/CD00001277.pdf)
      (footprints
        (fp TO?220*))
      (fields
        (field (name Reference) Q)
        (field (name Value) BD910)
        (field (name Footprint) Package_TO_SOT_THT:TO-220-3_Vertical))
      (pins
        (pin (num 1) (name B) (type input))
        (pin (num 2) (name C) (type passive))
        (pin (num 3) (name E) (type passive)))))
  (libraries
    (library (logical Connector)
      (uri /usr/share/kicad/library/Connector.lib))
    (library (logical Device)
      (uri /usr/share/kicad/library/Device.lib))
    (library (logical Diode)
      (uri /usr/share/kicad/library/Diode.lib))
    (library (logical Mechanical)
      (uri /usr/share/kicad/library/Mechanical.lib))
    (library (logical Regulator_Linear)
      (uri /usr/share/kicad/library/Regulator_Linear.lib))
    (library (logical Transistor_BJT)
      (uri /usr/share/kicad/library/Transistor_BJT.lib)))
  (nets
    (net (code 1) (name GND)
      (node (ref RV1) (pin 2))
      (node (ref C2) (pin 2))
      (node (ref C1) (pin 2))
      (node (ref D1) (pin 3))
      (node (ref RV1) (pin 3))
      (node (ref C7) (pin 2))
      (node (ref C6) (pin 2))
      (node (ref D3) (pin 1))
      (node (ref C8) (pin 2))
      (node (ref C5) (pin 2))
      (node (ref C4) (pin 2))
      (node (ref C3) (pin 2))
      (node (ref R3) (pin 2))
      (node (ref J5) (pin 2))
      (node (ref J4) (pin 2))
      (node (ref D4) (pin 2)))
    (net (code 2) (name Vdisplay)
      (node (ref C8) (pin 1))
      (node (ref Q2) (pin 3))
      (node (ref J4) (pin 1)))
    (net (code 3) (name "Net-(C6-Pad1)")
      (node (ref D4) (pin 1))
      (node (ref R5) (pin 2))
      (node (ref Q2) (pin 2))
      (node (ref C6) (pin 1)))
    (net (code 4) (name Vout)
      (node (ref J5) (pin 1))
      (node (ref Q1) (pin 2))
      (node (ref R3) (pin 1))
      (node (ref U1) (pin 2))
      (node (ref C4) (pin 1))
      (node (ref D2) (pin 1))
      (node (ref C7) (pin 1))
      (node (ref R2) (pin 1)))
    (net (code 5) (name "Net-(D3-Pad2)")
      (node (ref R4) (pin 2))
      (node (ref D3) (pin 2)))
    (net (code 6) (name Vris)
      (node (ref R4) (pin 1))
      (node (ref F1) (pin 1))
      (node (ref C3) (pin 1))
      (node (ref Q2) (pin 1))
      (node (ref R5) (pin 1))
      (node (ref C1) (pin 1))
      (node (ref R1) (pin 2))
      (node (ref Q1) (pin 3))
      (node (ref C2) (pin 1)))
    (net (code 7) (name AC2)
      (node (ref C9) (pin 2))
      (node (ref D1) (pin 4))
      (node (ref J1) (pin 2)))
    (net (code 8) (name AC1)
      (node (ref D1) (pin 2))
      (node (ref C9) (pin 1))
      (node (ref J1) (pin 1)))
    (net (code 9) (name "Net-(D1-Pad1)")
      (node (ref F1) (pin 2))
      (node (ref D1) (pin 1)))
    (net (code 10) (name "Net-(Q1-Pad1)")
      (node (ref U1) (pin 3))
      (node (ref Q1) (pin 1))
      (node (ref R1) (pin 1)))
    (net (code 11) (name "Net-(C5-Pad1)")
      (node (ref D2) (pin 2))
      (node (ref RV1) (pin 1))
      (node (ref C5) (pin 1))
      (node (ref R2) (pin 2))
      (node (ref U1) (pin 1)))))