******************************************************************************
*          Electronic circuit simulation file generated by gSpiceUI          *
*                        Version 1.2.36 (2018-11-16)                         *
******************************************************************************

* .title KiCad schematic

********** Include Directives **********

.include "/home/fenix/git/fuentes/simulacion/models/POWBJT.LIB"
.include "/home/fenix/git/fuentes/simulacion/models/regulators.lib"

********** Component Definitions **********

C1 vris 0 0.1u
C2 Net-_C2-Pad1_ 0 10u
C3 Vreg 0 1u
R1 Net-_C2-Pad1_ 0 2k
R2 Vreg Net-_C2-Pad1_ 240
R3 Net-_Q1-Pad1_ vris 1
R4 Vreg 0 5
V1 vris 0 sin(20 0 60)
XQ1 Vreg Net-_Q1-Pad1_ vris TIP42
XU1 Net-_Q1-Pad1_ Net-_C2-Pad1_ Vreg LM317-TI

********** NG-Spice Simulation Commands **********

.OPTIONS NOPAGE WIDTH=72
.PRINT DC V(Vreg) V(vris)
.DC TEMP 0.00 100.00 10.00

.END
